{
  "build": "py310h90acd4f_3",
  "build_number": 3,
  "channel": "https://conda.anaconda.org/conda-forge/osx-64",
  "constrains": [],
  "depends": [
    "cffi >=1.0.1",
    "python >=3.10,<3.11.0a0",
    "python_abi 3.10.* *_cp310"
  ],
  "extracted_package_dir": "/Users/grokkingstuff/miniforge3/pkgs/argon2-cffi-bindings-21.2.0-py310h90acd4f_3",
  "features": "",
  "files": [
    "lib/python3.10/site-packages/_argon2_cffi_bindings/__init__.py",
    "lib/python3.10/site-packages/_argon2_cffi_bindings/__pycache__/__init__.cpython-310.pyc",
    "lib/python3.10/site-packages/_argon2_cffi_bindings/__pycache__/_ffi_build.cpython-310.pyc",
    "lib/python3.10/site-packages/_argon2_cffi_bindings/_ffi.abi3.so",
    "lib/python3.10/site-packages/_argon2_cffi_bindings/_ffi_build.py",
    "lib/python3.10/site-packages/argon2_cffi_bindings-21.2.0.dist-info/INSTALLER",
    "lib/python3.10/site-packages/argon2_cffi_bindings-21.2.0.dist-info/LICENSE",
    "lib/python3.10/site-packages/argon2_cffi_bindings-21.2.0.dist-info/METADATA",
    "lib/python3.10/site-packages/argon2_cffi_bindings-21.2.0.dist-info/RECORD",
    "lib/python3.10/site-packages/argon2_cffi_bindings-21.2.0.dist-info/REQUESTED",
    "lib/python3.10/site-packages/argon2_cffi_bindings-21.2.0.dist-info/WHEEL",
    "lib/python3.10/site-packages/argon2_cffi_bindings-21.2.0.dist-info/direct_url.json",
    "lib/python3.10/site-packages/argon2_cffi_bindings-21.2.0.dist-info/top_level.txt"
  ],
  "fn": "argon2-cffi-bindings-21.2.0-py310h90acd4f_3.tar.bz2",
  "license": "MIT",
  "license_family": "MIT",
  "link": {
    "source": "/Users/grokkingstuff/miniforge3/pkgs/argon2-cffi-bindings-21.2.0-py310h90acd4f_3",
    "type": 1
  },
  "md5": "952166ee5ce75092167a7385a4e243e3",
  "name": "argon2-cffi-bindings",
  "package_tarball_full_path": "/Users/grokkingstuff/miniforge3/pkgs/argon2-cffi-bindings-21.2.0-py310h90acd4f_3.tar.bz2",
  "paths_data": {
    "paths": [
      {
        "_path": "lib/python3.10/site-packages/_argon2_cffi_bindings/__init__.py",
        "path_type": "hardlink",
        "sha256": "6fa0daebf442b0c5ca6c0f50cb32a6786aa6f5c6228e6b64009a8d395d95e746",
        "sha256_in_prefix": "6fa0daebf442b0c5ca6c0f50cb32a6786aa6f5c6228e6b64009a8d395d95e746",
        "size_in_bytes": 86
      },
      {
        "_path": "lib/python3.10/site-packages/_argon2_cffi_bindings/__pycache__/__init__.cpython-310.pyc",
        "path_type": "hardlink",
        "sha256": "e3afbb06c55499af71df7d96d1b8952e81d959ebcce1855bfb686e278b92245f",
        "sha256_in_prefix": "e3afbb06c55499af71df7d96d1b8952e81d959ebcce1855bfb686e278b92245f",
        "size_in_bytes": 230
      },
      {
        "_path": "lib/python3.10/site-packages/_argon2_cffi_bindings/__pycache__/_ffi_build.cpython-310.pyc",
        "path_type": "hardlink",
        "sha256": "1235f75e08ffe9e02807374396e65ba9dd8bafda0e6f72a7587df077021a5516",
        "sha256_in_prefix": "1235f75e08ffe9e02807374396e65ba9dd8bafda0e6f72a7587df077021a5516",
        "size_in_bytes": 5966
      },
      {
        "_path": "lib/python3.10/site-packages/_argon2_cffi_bindings/_ffi.abi3.so",
        "path_type": "hardlink",
        "sha256": "6154c37733f1b23161e601cefb3b15531923e7311eca7c4349562bfd1fbfb18d",
        "sha256_in_prefix": "6154c37733f1b23161e601cefb3b15531923e7311eca7c4349562bfd1fbfb18d",
        "size_in_bytes": 49912
      },
      {
        "_path": "lib/python3.10/site-packages/_argon2_cffi_bindings/_ffi_build.py",
        "path_type": "hardlink",
        "sha256": "d2088afde0eba67cddbd6553b32b9d6e96151ea035dc26dd9bf8dd82c53710c9",
        "sha256_in_prefix": "d2088afde0eba67cddbd6553b32b9d6e96151ea035dc26dd9bf8dd82c53710c9",
        "size_in_bytes": 6088
      },
      {
        "_path": "lib/python3.10/site-packages/argon2_cffi_bindings-21.2.0.dist-info/INSTALLER",
        "path_type": "hardlink",
        "sha256": "d0edee15f91b406f3f99726e44eb990be6e34fd0345b52b910c568e0eef6a2a8",
        "sha256_in_prefix": "d0edee15f91b406f3f99726e44eb990be6e34fd0345b52b910c568e0eef6a2a8",
        "size_in_bytes": 5
      },
      {
        "_path": "lib/python3.10/site-packages/argon2_cffi_bindings-21.2.0.dist-info/LICENSE",
        "path_type": "hardlink",
        "sha256": "9c158d4f433627f48ac24b6b4d37970afe4172514673c5318014d7cca157c6df",
        "sha256_in_prefix": "9c158d4f433627f48ac24b6b4d37970afe4172514673c5318014d7cca157c6df",
        "size_in_bytes": 1082
      },
      {
        "_path": "lib/python3.10/site-packages/argon2_cffi_bindings-21.2.0.dist-info/METADATA",
        "path_type": "hardlink",
        "sha256": "85eef91ffbd9080318b874d8f819c6343686cccebb1c54e67e0aa3a075871bd5",
        "sha256_in_prefix": "85eef91ffbd9080318b874d8f819c6343686cccebb1c54e67e0aa3a075871bd5",
        "size_in_bytes": 6685
      },
      {
        "_path": "lib/python3.10/site-packages/argon2_cffi_bindings-21.2.0.dist-info/RECORD",
        "path_type": "hardlink",
        "sha256": "1ab87d20fef7c583e692b46b15fa78c5c5507e088e92188e90948ba15685d3d4",
        "sha256_in_prefix": "1ab87d20fef7c583e692b46b15fa78c5c5507e088e92188e90948ba15685d3d4",
        "size_in_bytes": 1177
      },
      {
        "_path": "lib/python3.10/site-packages/argon2_cffi_bindings-21.2.0.dist-info/REQUESTED",
        "path_type": "hardlink",
        "sha256": "e3b0c44298fc1c149afbf4c8996fb92427ae41e4649b934ca495991b7852b855",
        "sha256_in_prefix": "e3b0c44298fc1c149afbf4c8996fb92427ae41e4649b934ca495991b7852b855",
        "size_in_bytes": 0
      },
      {
        "_path": "lib/python3.10/site-packages/argon2_cffi_bindings-21.2.0.dist-info/WHEEL",
        "path_type": "hardlink",
        "sha256": "a92862166a0ecb8f838dcd28f7f0615807c4325c9d5ca3df67be9e9c2545ef33",
        "sha256_in_prefix": "a92862166a0ecb8f838dcd28f7f0615807c4325c9d5ca3df67be9e9c2545ef33",
        "size_in_bytes": 110
      },
      {
        "_path": "lib/python3.10/site-packages/argon2_cffi_bindings-21.2.0.dist-info/direct_url.json",
        "path_type": "hardlink",
        "sha256": "777f81583bf7724e114ebe4b8bf6d2c711b323c760bf962f25e90cfc46fa5e6e",
        "sha256_in_prefix": "777f81583bf7724e114ebe4b8bf6d2c711b323c760bf962f25e90cfc46fa5e6e",
        "size_in_bytes": 108
      },
      {
        "_path": "lib/python3.10/site-packages/argon2_cffi_bindings-21.2.0.dist-info/top_level.txt",
        "path_type": "hardlink",
        "sha256": "5b2449cf1bc8bf9f1ccaf4f27b602c573e742f0d210f151806e087d6b51bfed8",
        "sha256_in_prefix": "5b2449cf1bc8bf9f1ccaf4f27b602c573e742f0d210f151806e087d6b51bfed8",
        "size_in_bytes": 27
      }
    ],
    "paths_version": 1
  },
  "requested_spec": "None",
  "sha256": "6b8ca16921f72b82aa3ad16a1c7a46e35cbcccec59c1b6eb3f53fa748f59b548",
  "size": 33107,
  "subdir": "osx-64",
  "timestamp": 1666850973259,
  "track_features": "",
  "url": "https://conda.anaconda.org/conda-forge/osx-64/argon2-cffi-bindings-21.2.0-py310h90acd4f_3.tar.bz2",
  "version": "21.2.0"
}