{
  "build": "py310h90acd4f_1",
  "build_number": 1,
  "channel": "https://conda.anaconda.org/conda-forge/osx-64",
  "constrains": [],
  "depends": [
    "python >=3.10,<3.11.0a0",
    "python_abi 3.10.* *_cp310",
    "toolz >=0.10.0"
  ],
  "extracted_package_dir": "/Users/grokkingstuff/miniforge3/pkgs/cytoolz-0.12.0-py310h90acd4f_1",
  "features": "",
  "files": [
    "lib/python3.10/site-packages/cytoolz-0.12.0.dist-info/AUTHORS.md",
    "lib/python3.10/site-packages/cytoolz-0.12.0.dist-info/INSTALLER",
    "lib/python3.10/site-packages/cytoolz-0.12.0.dist-info/LICENSE.txt",
    "lib/python3.10/site-packages/cytoolz-0.12.0.dist-info/METADATA",
    "lib/python3.10/site-packages/cytoolz-0.12.0.dist-info/RECORD",
    "lib/python3.10/site-packages/cytoolz-0.12.0.dist-info/REQUESTED",
    "lib/python3.10/site-packages/cytoolz-0.12.0.dist-info/WHEEL",
    "lib/python3.10/site-packages/cytoolz-0.12.0.dist-info/direct_url.json",
    "lib/python3.10/site-packages/cytoolz-0.12.0.dist-info/top_level.txt",
    "lib/python3.10/site-packages/cytoolz/__init__.pxd",
    "lib/python3.10/site-packages/cytoolz/__init__.py",
    "lib/python3.10/site-packages/cytoolz/__pycache__/__init__.cpython-310.pyc",
    "lib/python3.10/site-packages/cytoolz/__pycache__/_signatures.cpython-310.pyc",
    "lib/python3.10/site-packages/cytoolz/__pycache__/_version.cpython-310.pyc",
    "lib/python3.10/site-packages/cytoolz/__pycache__/compatibility.cpython-310.pyc",
    "lib/python3.10/site-packages/cytoolz/_signatures.py",
    "lib/python3.10/site-packages/cytoolz/_version.py",
    "lib/python3.10/site-packages/cytoolz/compatibility.py",
    "lib/python3.10/site-packages/cytoolz/cpython.pxd",
    "lib/python3.10/site-packages/cytoolz/curried/__init__.py",
    "lib/python3.10/site-packages/cytoolz/curried/__pycache__/__init__.cpython-310.pyc",
    "lib/python3.10/site-packages/cytoolz/curried/__pycache__/exceptions.cpython-310.pyc",
    "lib/python3.10/site-packages/cytoolz/curried/__pycache__/operator.cpython-310.pyc",
    "lib/python3.10/site-packages/cytoolz/curried/exceptions.py",
    "lib/python3.10/site-packages/cytoolz/curried/operator.py",
    "lib/python3.10/site-packages/cytoolz/dicttoolz.cpython-310-darwin.so",
    "lib/python3.10/site-packages/cytoolz/dicttoolz.pxd",
    "lib/python3.10/site-packages/cytoolz/dicttoolz.pyx",
    "lib/python3.10/site-packages/cytoolz/functoolz.cpython-310-darwin.so",
    "lib/python3.10/site-packages/cytoolz/functoolz.pxd",
    "lib/python3.10/site-packages/cytoolz/functoolz.pyx",
    "lib/python3.10/site-packages/cytoolz/itertoolz.cpython-310-darwin.so",
    "lib/python3.10/site-packages/cytoolz/itertoolz.pxd",
    "lib/python3.10/site-packages/cytoolz/itertoolz.pyx",
    "lib/python3.10/site-packages/cytoolz/recipes.cpython-310-darwin.so",
    "lib/python3.10/site-packages/cytoolz/recipes.pxd",
    "lib/python3.10/site-packages/cytoolz/recipes.pyx",
    "lib/python3.10/site-packages/cytoolz/tests/__pycache__/dev_skip_test.cpython-310.pyc",
    "lib/python3.10/site-packages/cytoolz/tests/__pycache__/test_compatibility.cpython-310.pyc",
    "lib/python3.10/site-packages/cytoolz/tests/__pycache__/test_curried.cpython-310.pyc",
    "lib/python3.10/site-packages/cytoolz/tests/__pycache__/test_curried_toolzlike.cpython-310.pyc",
    "lib/python3.10/site-packages/cytoolz/tests/__pycache__/test_dev_skip_test.cpython-310.pyc",
    "lib/python3.10/site-packages/cytoolz/tests/__pycache__/test_dicttoolz.cpython-310.pyc",
    "lib/python3.10/site-packages/cytoolz/tests/__pycache__/test_docstrings.cpython-310.pyc",
    "lib/python3.10/site-packages/cytoolz/tests/__pycache__/test_doctests.cpython-310.pyc",
    "lib/python3.10/site-packages/cytoolz/tests/__pycache__/test_embedded_sigs.cpython-310.pyc",
    "lib/python3.10/site-packages/cytoolz/tests/__pycache__/test_functoolz.cpython-310.pyc",
    "lib/python3.10/site-packages/cytoolz/tests/__pycache__/test_inspect_args.cpython-310.pyc",
    "lib/python3.10/site-packages/cytoolz/tests/__pycache__/test_itertoolz.cpython-310.pyc",
    "lib/python3.10/site-packages/cytoolz/tests/__pycache__/test_none_safe.cpython-310.pyc",
    "lib/python3.10/site-packages/cytoolz/tests/__pycache__/test_recipes.cpython-310.pyc",
    "lib/python3.10/site-packages/cytoolz/tests/__pycache__/test_serialization.cpython-310.pyc",
    "lib/python3.10/site-packages/cytoolz/tests/__pycache__/test_signatures.cpython-310.pyc",
    "lib/python3.10/site-packages/cytoolz/tests/__pycache__/test_tlz.cpython-310.pyc",
    "lib/python3.10/site-packages/cytoolz/tests/__pycache__/test_utils.cpython-310.pyc",
    "lib/python3.10/site-packages/cytoolz/tests/dev_skip_test.py",
    "lib/python3.10/site-packages/cytoolz/tests/test_compatibility.py",
    "lib/python3.10/site-packages/cytoolz/tests/test_curried.py",
    "lib/python3.10/site-packages/cytoolz/tests/test_curried_toolzlike.py",
    "lib/python3.10/site-packages/cytoolz/tests/test_dev_skip_test.py",
    "lib/python3.10/site-packages/cytoolz/tests/test_dicttoolz.py",
    "lib/python3.10/site-packages/cytoolz/tests/test_docstrings.py",
    "lib/python3.10/site-packages/cytoolz/tests/test_doctests.py",
    "lib/python3.10/site-packages/cytoolz/tests/test_embedded_sigs.py",
    "lib/python3.10/site-packages/cytoolz/tests/test_functoolz.py",
    "lib/python3.10/site-packages/cytoolz/tests/test_inspect_args.py",
    "lib/python3.10/site-packages/cytoolz/tests/test_itertoolz.py",
    "lib/python3.10/site-packages/cytoolz/tests/test_none_safe.py",
    "lib/python3.10/site-packages/cytoolz/tests/test_recipes.py",
    "lib/python3.10/site-packages/cytoolz/tests/test_serialization.py",
    "lib/python3.10/site-packages/cytoolz/tests/test_signatures.py",
    "lib/python3.10/site-packages/cytoolz/tests/test_tlz.py",
    "lib/python3.10/site-packages/cytoolz/tests/test_utils.py",
    "lib/python3.10/site-packages/cytoolz/utils.cpython-310-darwin.so",
    "lib/python3.10/site-packages/cytoolz/utils.pxd",
    "lib/python3.10/site-packages/cytoolz/utils.pyx"
  ],
  "fn": "cytoolz-0.12.0-py310h90acd4f_1.tar.bz2",
  "license": "BSD-3-Clause",
  "license_family": "BSD",
  "link": {
    "source": "/Users/grokkingstuff/miniforge3/pkgs/cytoolz-0.12.0-py310h90acd4f_1",
    "type": 1
  },
  "md5": "7420b99bf92064b4ad077bbc909e1ffd",
  "name": "cytoolz",
  "package_tarball_full_path": "/Users/grokkingstuff/miniforge3/pkgs/cytoolz-0.12.0-py310h90acd4f_1.tar.bz2",
  "paths_data": {
    "paths": [
      {
        "_path": "lib/python3.10/site-packages/cytoolz-0.12.0.dist-info/AUTHORS.md",
        "path_type": "hardlink",
        "sha256": "2b1de8cdb894c3fa6d46bccaa8d045ccd31861954a2f6c1cc3343b33f3c2e055",
        "sha256_in_prefix": "2b1de8cdb894c3fa6d46bccaa8d045ccd31861954a2f6c1cc3343b33f3c2e055",
        "size_in_bytes": 635
      },
      {
        "_path": "lib/python3.10/site-packages/cytoolz-0.12.0.dist-info/INSTALLER",
        "path_type": "hardlink",
        "sha256": "d0edee15f91b406f3f99726e44eb990be6e34fd0345b52b910c568e0eef6a2a8",
        "sha256_in_prefix": "d0edee15f91b406f3f99726e44eb990be6e34fd0345b52b910c568e0eef6a2a8",
        "size_in_bytes": 5
      },
      {
        "_path": "lib/python3.10/site-packages/cytoolz-0.12.0.dist-info/LICENSE.txt",
        "path_type": "hardlink",
        "sha256": "b3e4cfdc6a501c2c808985303103f3813ec9baba8e352ea9cebedc334d326c75",
        "sha256_in_prefix": "b3e4cfdc6a501c2c808985303103f3813ec9baba8e352ea9cebedc334d326c75",
        "size_in_bytes": 1494
      },
      {
        "_path": "lib/python3.10/site-packages/cytoolz-0.12.0.dist-info/METADATA",
        "path_type": "hardlink",
        "sha256": "5cd1d5ad4b13daff1efefa075c22f2544a8e57a88c7f6fa1dac0e5ab89561a21",
        "sha256_in_prefix": "5cd1d5ad4b13daff1efefa075c22f2544a8e57a88c7f6fa1dac0e5ab89561a21",
        "size_in_bytes": 4539
      },
      {
        "_path": "lib/python3.10/site-packages/cytoolz-0.12.0.dist-info/RECORD",
        "path_type": "hardlink",
        "sha256": "b44b6f6f493444edc3f7a1b24195dbfa04111daca54872f3396e7dee291bb386",
        "sha256_in_prefix": "b44b6f6f493444edc3f7a1b24195dbfa04111daca54872f3396e7dee291bb386",
        "size_in_bytes": 5828
      },
      {
        "_path": "lib/python3.10/site-packages/cytoolz-0.12.0.dist-info/REQUESTED",
        "path_type": "hardlink",
        "sha256": "e3b0c44298fc1c149afbf4c8996fb92427ae41e4649b934ca495991b7852b855",
        "sha256_in_prefix": "e3b0c44298fc1c149afbf4c8996fb92427ae41e4649b934ca495991b7852b855",
        "size_in_bytes": 0
      },
      {
        "_path": "lib/python3.10/site-packages/cytoolz-0.12.0.dist-info/WHEEL",
        "path_type": "hardlink",
        "sha256": "c075cf8dc1753dbbeb6a5ad90197df68145f316f2effb77e2feab7b25212ec6a",
        "sha256_in_prefix": "c075cf8dc1753dbbeb6a5ad90197df68145f316f2effb77e2feab7b25212ec6a",
        "size_in_bytes": 111
      },
      {
        "_path": "lib/python3.10/site-packages/cytoolz-0.12.0.dist-info/direct_url.json",
        "path_type": "hardlink",
        "sha256": "0bcd9b706183fd03af29cc8867c8bf15a9c2eb9cdf2a06206b0bd5d00d6f6a44",
        "sha256_in_prefix": "0bcd9b706183fd03af29cc8867c8bf15a9c2eb9cdf2a06206b0bd5d00d6f6a44",
        "size_in_bytes": 95
      },
      {
        "_path": "lib/python3.10/site-packages/cytoolz-0.12.0.dist-info/top_level.txt",
        "path_type": "hardlink",
        "sha256": "f95bb693a507a8068567fc78f981fd8abbce3c56705ea86216780b59bf7f2a5d",
        "sha256_in_prefix": "f95bb693a507a8068567fc78f981fd8abbce3c56705ea86216780b59bf7f2a5d",
        "size_in_bytes": 8
      },
      {
        "_path": "lib/python3.10/site-packages/cytoolz/__init__.pxd",
        "path_type": "hardlink",
        "sha256": "68d2f1427ee1843bb64f55539ad230115683cfac385b9f3934c44b2e5d627041",
        "sha256_in_prefix": "68d2f1427ee1843bb64f55539ad230115683cfac385b9f3934c44b2e5d627041",
        "size_in_bytes": 742
      },
      {
        "_path": "lib/python3.10/site-packages/cytoolz/__init__.py",
        "path_type": "hardlink",
        "sha256": "fab7ee428ad3fd9c2ff91da6f789d736d66e6eb9086c9f85bca1ec8b27a80b36",
        "sha256_in_prefix": "fab7ee428ad3fd9c2ff91da6f789d736d66e6eb9086c9f85bca1ec8b27a80b36",
        "size_in_bytes": 589
      },
      {
        "_path": "lib/python3.10/site-packages/cytoolz/__pycache__/__init__.cpython-310.pyc",
        "path_type": "hardlink",
        "sha256": "9e7e5a9b3d4e6ad928eedd8f591c5d4e36c8c8e0e2c7d8fb6e92577fa0f247cb",
        "sha256_in_prefix": "9e7e5a9b3d4e6ad928eedd8f591c5d4e36c8c8e0e2c7d8fb6e92577fa0f247cb",
        "size_in_bytes": 603
      },
      {
        "_path": "lib/python3.10/site-packages/cytoolz/__pycache__/_signatures.cpython-310.pyc",
        "path_type": "hardlink",
        "sha256": "4765972ef29608b8ef4b2173c73a99c27e423e70f294f897fb53aab0854d17b7",
        "sha256_in_prefix": "4765972ef29608b8ef4b2173c73a99c27e423e70f294f897fb53aab0854d17b7",
        "size_in_bytes": 8824
      },
      {
        "_path": "lib/python3.10/site-packages/cytoolz/__pycache__/_version.cpython-310.pyc",
        "path_type": "hardlink",
        "sha256": "1f676de0d9c48e51560d0bf1cf5135e600177a1c1524fe51683c687789120e01",
        "sha256_in_prefix": "1f676de0d9c48e51560d0bf1cf5135e600177a1c1524fe51683c687789120e01",
        "size_in_bytes": 466
      },
      {
        "_path": "lib/python3.10/site-packages/cytoolz/__pycache__/compatibility.cpython-310.pyc",
        "path_type": "hardlink",
        "sha256": "b5b73d85054892456221ff9880508ece0e03b547bb3c5954888a8933862f011c",
        "sha256_in_prefix": "b5b73d85054892456221ff9880508ece0e03b547bb3c5954888a8933862f011c",
        "size_in_bytes": 1020
      },
      {
        "_path": "lib/python3.10/site-packages/cytoolz/_signatures.py",
        "path_type": "hardlink",
        "sha256": "529a9154678ceb1faf131f5c4e150aef33b079102101eb40c2e671202222fd46",
        "sha256_in_prefix": "529a9154678ceb1faf131f5c4e150aef33b079102101eb40c2e671202222fd46",
        "size_in_bytes": 4356
      },
      {
        "_path": "lib/python3.10/site-packages/cytoolz/_version.py",
        "path_type": "hardlink",
        "sha256": "9b245094fe2f7b5805d27c5b627b3df07d7ccfb277020e9c475c53e34bec4f32",
        "sha256_in_prefix": "9b245094fe2f7b5805d27c5b627b3df07d7ccfb277020e9c475c53e34bec4f32",
        "size_in_bytes": 498
      },
      {
        "_path": "lib/python3.10/site-packages/cytoolz/compatibility.py",
        "path_type": "hardlink",
        "sha256": "822398730bf54da3960df07e0b624fda91482796195fd68fd6ce143f30909f0e",
        "sha256_in_prefix": "822398730bf54da3960df07e0b624fda91482796195fd68fd6ce143f30909f0e",
        "size_in_bytes": 997
      },
      {
        "_path": "lib/python3.10/site-packages/cytoolz/cpython.pxd",
        "path_type": "hardlink",
        "sha256": "7ad769515a17528cdbba65fb2066f676764557e43f56d5ec4d1c5d4496fb85dc",
        "sha256_in_prefix": "7ad769515a17528cdbba65fb2066f676764557e43f56d5ec4d1c5d4496fb85dc",
        "size_in_bytes": 497
      },
      {
        "_path": "lib/python3.10/site-packages/cytoolz/curried/__init__.py",
        "path_type": "hardlink",
        "sha256": "a3ecec5e1284b2281ecda4ea3386be21cdd90ac433c6a7d49d3cce8bd82f9a15",
        "sha256_in_prefix": "a3ecec5e1284b2281ecda4ea3386be21cdd90ac433c6a7d49d3cce8bd82f9a15",
        "size_in_bytes": 2884
      },
      {
        "_path": "lib/python3.10/site-packages/cytoolz/curried/__pycache__/__init__.cpython-310.pyc",
        "path_type": "hardlink",
        "sha256": "60b4a755805211b984d5621b49624c6c3e95c7290dee28fd1ae2193b530d67a8",
        "sha256_in_prefix": "60b4a755805211b984d5621b49624c6c3e95c7290dee28fd1ae2193b530d67a8",
        "size_in_bytes": 2416
      },
      {
        "_path": "lib/python3.10/site-packages/cytoolz/curried/__pycache__/exceptions.cpython-310.pyc",
        "path_type": "hardlink",
        "sha256": "ff41cdbadb5116b58ec489b7888ac74ec224e69a97a6136369f2a4e89f7fbd97",
        "sha256_in_prefix": "ff41cdbadb5116b58ec489b7888ac74ec224e69a97a6136369f2a4e89f7fbd97",
        "size_in_bytes": 541
      },
      {
        "_path": "lib/python3.10/site-packages/cytoolz/curried/__pycache__/operator.cpython-310.pyc",
        "path_type": "hardlink",
        "sha256": "f711bf469c0626a4ef5dc66028bf93e1dd99cb3032c8939a81a4a8651771cc84",
        "sha256_in_prefix": "f711bf469c0626a4ef5dc66028bf93e1dd99cb3032c8939a81a4a8651771cc84",
        "size_in_bytes": 677
      },
      {
        "_path": "lib/python3.10/site-packages/cytoolz/curried/exceptions.py",
        "path_type": "hardlink",
        "sha256": "c35bfd4c6122e8cd98c9942a046ba8fd9c3696472af332229298124753bb448f",
        "sha256_in_prefix": "c35bfd4c6122e8cd98c9942a046ba8fd9c3696472af332229298124753bb448f",
        "size_in_bytes": 350
      },
      {
        "_path": "lib/python3.10/site-packages/cytoolz/curried/operator.py",
        "path_type": "hardlink",
        "sha256": "915a67ff19d034a3793775c386e9b3182236703aa42ad9b964c6726bd3c39272",
        "sha256_in_prefix": "915a67ff19d034a3793775c386e9b3182236703aa42ad9b964c6726bd3c39272",
        "size_in_bytes": 521
      },
      {
        "_path": "lib/python3.10/site-packages/cytoolz/dicttoolz.cpython-310-darwin.so",
        "path_type": "hardlink",
        "sha256": "8e8d7e6520a96c59edc039314f76994c2c30d7fdbf8727a7a980b18fa2772014",
        "sha256_in_prefix": "8e8d7e6520a96c59edc039314f76994c2c30d7fdbf8727a7a980b18fa2772014",
        "size_in_bytes": 125320
      },
      {
        "_path": "lib/python3.10/site-packages/cytoolz/dicttoolz.pxd",
        "path_type": "hardlink",
        "sha256": "b12546579c3a60e27fee62a633150076d077b7a8de8efaa5a89c7a4953ee0fb3",
        "sha256_in_prefix": "b12546579c3a60e27fee62a633150076d077b7a8de8efaa5a89c7a4953ee0fb3",
        "size_in_bytes": 1368
      },
      {
        "_path": "lib/python3.10/site-packages/cytoolz/dicttoolz.pyx",
        "path_type": "hardlink",
        "sha256": "a8fd754d60536f2ffc6a159a1245c086b3bee7b21cd7e3f3996bac6ef75f098c",
        "sha256_in_prefix": "a8fd754d60536f2ffc6a159a1245c086b3bee7b21cd7e3f3996bac6ef75f098c",
        "size_in_bytes": 15431
      },
      {
        "_path": "lib/python3.10/site-packages/cytoolz/functoolz.cpython-310-darwin.so",
        "path_type": "hardlink",
        "sha256": "a13e23af228ba3b6290eb4ce41a430e4a0924621dbad559fd75523efae309d15",
        "sha256_in_prefix": "a13e23af228ba3b6290eb4ce41a430e4a0924621dbad559fd75523efae309d15",
        "size_in_bytes": 234216
      },
      {
        "_path": "lib/python3.10/site-packages/cytoolz/functoolz.pxd",
        "path_type": "hardlink",
        "sha256": "780943f6e9297f0a3e64eaccf04e5e9ca880b39f9938a1057f812cb2d5533ca5",
        "sha256_in_prefix": "780943f6e9297f0a3e64eaccf04e5e9ca880b39f9938a1057f812cb2d5533ca5",
        "size_in_bytes": 1210
      },
      {
        "_path": "lib/python3.10/site-packages/cytoolz/functoolz.pyx",
        "path_type": "hardlink",
        "sha256": "d4c55008e7d859d96f37615cf9ff2c0541c46571cf9118895da77434510246bc",
        "sha256_in_prefix": "d4c55008e7d859d96f37615cf9ff2c0541c46571cf9118895da77434510246bc",
        "size_in_bytes": 25000
      },
      {
        "_path": "lib/python3.10/site-packages/cytoolz/itertoolz.cpython-310-darwin.so",
        "path_type": "hardlink",
        "sha256": "b132e50a9dd07150656cad257e3893c3fd67d5caddac0f1a096d01ec75708444",
        "sha256_in_prefix": "b132e50a9dd07150656cad257e3893c3fd67d5caddac0f1a096d01ec75708444",
        "size_in_bytes": 431280
      },
      {
        "_path": "lib/python3.10/site-packages/cytoolz/itertoolz.pxd",
        "path_type": "hardlink",
        "sha256": "4ff441cec4ede0d29202160fe5f12b97fc30caeea439b29b3f50a2046ed37c9a",
        "sha256_in_prefix": "4ff441cec4ede0d29202160fe5f12b97fc30caeea439b29b3f50a2046ed37c9a",
        "size_in_bytes": 4695
      },
      {
        "_path": "lib/python3.10/site-packages/cytoolz/itertoolz.pyx",
        "path_type": "hardlink",
        "sha256": "74eb72d4109aedfcfb1c09a65fab0e850b7fd2782a1f4c9a216ccf777bfe2016",
        "sha256_in_prefix": "74eb72d4109aedfcfb1c09a65fab0e850b7fd2782a1f4c9a216ccf777bfe2016",
        "size_in_bytes": 51360
      },
      {
        "_path": "lib/python3.10/site-packages/cytoolz/recipes.cpython-310-darwin.so",
        "path_type": "hardlink",
        "sha256": "363bccc73c21766e561513d341b62825b8c2d2f099006018efeb10d7093a1862",
        "sha256_in_prefix": "363bccc73c21766e561513d341b62825b8c2d2f099006018efeb10d7093a1862",
        "size_in_bytes": 59080
      },
      {
        "_path": "lib/python3.10/site-packages/cytoolz/recipes.pxd",
        "path_type": "hardlink",
        "sha256": "856d137b38c43113595b58734d002174a42eb68220934b70709e1f28449763a8",
        "sha256_in_prefix": "856d137b38c43113595b58734d002174a42eb68220934b70709e1f28449763a8",
        "size_in_bytes": 100
      },
      {
        "_path": "lib/python3.10/site-packages/cytoolz/recipes.pyx",
        "path_type": "hardlink",
        "sha256": "80feb0fd4e048ddef9144176b505ffc3b60f9ec7018bf4968b8053056ec90efa",
        "sha256_in_prefix": "80feb0fd4e048ddef9144176b505ffc3b60f9ec7018bf4968b8053056ec90efa",
        "size_in_bytes": 1600
      },
      {
        "_path": "lib/python3.10/site-packages/cytoolz/tests/__pycache__/dev_skip_test.cpython-310.pyc",
        "path_type": "hardlink",
        "sha256": "9bbdce1585bd53a88b6738a2e96e833c64136f0edd5e723d1e72697b4057b5e7",
        "sha256_in_prefix": "9bbdce1585bd53a88b6738a2e96e833c64136f0edd5e723d1e72697b4057b5e7",
        "size_in_bytes": 1028
      },
      {
        "_path": "lib/python3.10/site-packages/cytoolz/tests/__pycache__/test_compatibility.cpython-310.pyc",
        "path_type": "hardlink",
        "sha256": "7447695342a21fe53493dab94971aff8a5135eda3808347a2abdff47996bd4fa",
        "sha256_in_prefix": "7447695342a21fe53493dab94971aff8a5135eda3808347a2abdff47996bd4fa",
        "size_in_bytes": 468
      },
      {
        "_path": "lib/python3.10/site-packages/cytoolz/tests/__pycache__/test_curried.cpython-310.pyc",
        "path_type": "hardlink",
        "sha256": "bd578762e08db4fc6a4f147448f62a3f9d9886e8ccd02b5fe4ba1d3c4834f008",
        "sha256_in_prefix": "bd578762e08db4fc6a4f147448f62a3f9d9886e8ccd02b5fe4ba1d3c4834f008",
        "size_in_bytes": 4381
      },
      {
        "_path": "lib/python3.10/site-packages/cytoolz/tests/__pycache__/test_curried_toolzlike.cpython-310.pyc",
        "path_type": "hardlink",
        "sha256": "90afba7f3b7a0e9d31dad124d0f030c51342867bb23de7d147c9f7d7cf32945b",
        "sha256_in_prefix": "90afba7f3b7a0e9d31dad124d0f030c51342867bb23de7d147c9f7d7cf32945b",
        "size_in_bytes": 1321
      },
      {
        "_path": "lib/python3.10/site-packages/cytoolz/tests/__pycache__/test_dev_skip_test.cpython-310.pyc",
        "path_type": "hardlink",
        "sha256": "be06a18cf90030de232bce6991d7746de1a531489fcf46c38f8294d06723115f",
        "sha256_in_prefix": "be06a18cf90030de232bce6991d7746de1a531489fcf46c38f8294d06723115f",
        "size_in_bytes": 701
      },
      {
        "_path": "lib/python3.10/site-packages/cytoolz/tests/__pycache__/test_dicttoolz.cpython-310.pyc",
        "path_type": "hardlink",
        "sha256": "cb3a5bc4ce844d13a3ecc14b8cc2bff007793b45a839167b5a6fc8402f7537d1",
        "sha256_in_prefix": "cb3a5bc4ce844d13a3ecc14b8cc2bff007793b45a839167b5a6fc8402f7537d1",
        "size_in_bytes": 12170
      },
      {
        "_path": "lib/python3.10/site-packages/cytoolz/tests/__pycache__/test_docstrings.cpython-310.pyc",
        "path_type": "hardlink",
        "sha256": "7262087bac2b66e873a8012a6e847f0e1ef759b54db986be6e6837dd4944db5d",
        "sha256_in_prefix": "7262087bac2b66e873a8012a6e847f0e1ef759b54db986be6e6837dd4944db5d",
        "size_in_bytes": 2653
      },
      {
        "_path": "lib/python3.10/site-packages/cytoolz/tests/__pycache__/test_doctests.cpython-310.pyc",
        "path_type": "hardlink",
        "sha256": "d195ea0c959fcc01cca4fbba803b1864d47feb338ae8ede24cfc7a1b4d5894d7",
        "sha256_in_prefix": "d195ea0c959fcc01cca4fbba803b1864d47feb338ae8ede24cfc7a1b4d5894d7",
        "size_in_bytes": 709
      },
      {
        "_path": "lib/python3.10/site-packages/cytoolz/tests/__pycache__/test_embedded_sigs.cpython-310.pyc",
        "path_type": "hardlink",
        "sha256": "3706d31c6bcad16c5c7ecc6062e129f04698472d860c0554647e97c6d130b127",
        "sha256_in_prefix": "3706d31c6bcad16c5c7ecc6062e129f04698472d860c0554647e97c6d130b127",
        "size_in_bytes": 3749
      },
      {
        "_path": "lib/python3.10/site-packages/cytoolz/tests/__pycache__/test_functoolz.cpython-310.pyc",
        "path_type": "hardlink",
        "sha256": "00024a69656f0787e73c52a6eb1c31a656127815b15f88c35bfa203635d8f59b",
        "sha256_in_prefix": "00024a69656f0787e73c52a6eb1c31a656127815b15f88c35bfa203635d8f59b",
        "size_in_bytes": 27098
      },
      {
        "_path": "lib/python3.10/site-packages/cytoolz/tests/__pycache__/test_inspect_args.cpython-310.pyc",
        "path_type": "hardlink",
        "sha256": "6a4b6c45596e89f6293648618c976bfa87bd9a53de01bf1b4d19a78b49513a55",
        "sha256_in_prefix": "6a4b6c45596e89f6293648618c976bfa87bd9a53de01bf1b4d19a78b49513a55",
        "size_in_bytes": 16497
      },
      {
        "_path": "lib/python3.10/site-packages/cytoolz/tests/__pycache__/test_itertoolz.cpython-310.pyc",
        "path_type": "hardlink",
        "sha256": "6482ca41af17a082e6a8a56e7762c28cda2e88023393dfe6dcb23485c0b4d9f7",
        "sha256_in_prefix": "6482ca41af17a082e6a8a56e7762c28cda2e88023393dfe6dcb23485c0b4d9f7",
        "size_in_bytes": 22787
      },
      {
        "_path": "lib/python3.10/site-packages/cytoolz/tests/__pycache__/test_none_safe.cpython-310.pyc",
        "path_type": "hardlink",
        "sha256": "f0d2a54d1fcc6d9c3979d12be22d9cbe769e8dfb6eb101b0a31b4d90cbdd5995",
        "sha256_in_prefix": "f0d2a54d1fcc6d9c3979d12be22d9cbe769e8dfb6eb101b0a31b4d90cbdd5995",
        "size_in_bytes": 16597
      },
      {
        "_path": "lib/python3.10/site-packages/cytoolz/tests/__pycache__/test_recipes.cpython-310.pyc",
        "path_type": "hardlink",
        "sha256": "f151d0c917a42b71a3df73ba3d87d9dc0f5276de20374f04c5e26b4d436ecf68",
        "sha256_in_prefix": "f151d0c917a42b71a3df73ba3d87d9dc0f5276de20374f04c5e26b4d436ecf68",
        "size_in_bytes": 1133
      },
      {
        "_path": "lib/python3.10/site-packages/cytoolz/tests/__pycache__/test_serialization.cpython-310.pyc",
        "path_type": "hardlink",
        "sha256": "7cde9f46e495abdf4ba91a6265a4c2061c852077f0b421f6a9f0b40a94bc6914",
        "sha256_in_prefix": "7cde9f46e495abdf4ba91a6265a4c2061c852077f0b421f6a9f0b40a94bc6914",
        "size_in_bytes": 5742
      },
      {
        "_path": "lib/python3.10/site-packages/cytoolz/tests/__pycache__/test_signatures.cpython-310.pyc",
        "path_type": "hardlink",
        "sha256": "e70b9bec8a6d9aec8d94ab853fdf594e2388db2be57a6a9c49399c4af840195a",
        "sha256_in_prefix": "e70b9bec8a6d9aec8d94ab853fdf594e2388db2be57a6a9c49399c4af840195a",
        "size_in_bytes": 2447
      },
      {
        "_path": "lib/python3.10/site-packages/cytoolz/tests/__pycache__/test_tlz.cpython-310.pyc",
        "path_type": "hardlink",
        "sha256": "eb924992491053081abae62e0312abd9533281fa818380348dd481043e805f0d",
        "sha256_in_prefix": "eb924992491053081abae62e0312abd9533281fa818380348dd481043e805f0d",
        "size_in_bytes": 1306
      },
      {
        "_path": "lib/python3.10/site-packages/cytoolz/tests/__pycache__/test_utils.cpython-310.pyc",
        "path_type": "hardlink",
        "sha256": "19ec299d943fbc9d42721f83628bf27553b669a0f1436d93530a276bdfc9f1fa",
        "sha256_in_prefix": "19ec299d943fbc9d42721f83628bf27553b669a0f1436d93530a276bdfc9f1fa",
        "size_in_bytes": 1048
      },
      {
        "_path": "lib/python3.10/site-packages/cytoolz/tests/dev_skip_test.py",
        "path_type": "hardlink",
        "sha256": "2bd862305b09622e29f8450dfb00c65b63a6587bd392e57ae85600f1e5877714",
        "sha256_in_prefix": "2bd862305b09622e29f8450dfb00c65b63a6587bd392e57ae85600f1e5877714",
        "size_in_bytes": 935
      },
      {
        "_path": "lib/python3.10/site-packages/cytoolz/tests/test_compatibility.py",
        "path_type": "hardlink",
        "sha256": "6700038dc305d56c7ee5083a7a8531bc0c49e0627b035d931f4df8ed17ea01ae",
        "sha256_in_prefix": "6700038dc305d56c7ee5083a7a8531bc0c49e0627b035d931f4df8ed17ea01ae",
        "size_in_bytes": 265
      },
      {
        "_path": "lib/python3.10/site-packages/cytoolz/tests/test_curried.py",
        "path_type": "hardlink",
        "sha256": "845cc0705494ac3cb81873954357dfb90f53dcaa645ba3b3e39577d6195bfe78",
        "sha256_in_prefix": "845cc0705494ac3cb81873954357dfb90f53dcaa645ba3b3e39577d6195bfe78",
        "size_in_bytes": 3782
      },
      {
        "_path": "lib/python3.10/site-packages/cytoolz/tests/test_curried_toolzlike.py",
        "path_type": "hardlink",
        "sha256": "9b8222f3aa76c792bd994cfab2bf050f6fcbac29e993274b94b2c3c7f242e60e",
        "sha256_in_prefix": "9b8222f3aa76c792bd994cfab2bf050f6fcbac29e993274b94b2c3c7f242e60e",
        "size_in_bytes": 1399
      },
      {
        "_path": "lib/python3.10/site-packages/cytoolz/tests/test_dev_skip_test.py",
        "path_type": "hardlink",
        "sha256": "2162b67e7a55f21e7235602c7662887001581c362c337113ec37725f0e63b1d9",
        "sha256_in_prefix": "2162b67e7a55f21e7235602c7662887001581c362c337113ec37725f0e63b1d9",
        "size_in_bytes": 380
      },
      {
        "_path": "lib/python3.10/site-packages/cytoolz/tests/test_dicttoolz.py",
        "path_type": "hardlink",
        "sha256": "73dd578fcf4db20113ba51c52b2b4bf69d2f7e8f18e3eb1fad328977b10042ca",
        "sha256_in_prefix": "73dd578fcf4db20113ba51c52b2b4bf69d2f7e8f18e3eb1fad328977b10042ca",
        "size_in_bytes": 9080
      },
      {
        "_path": "lib/python3.10/site-packages/cytoolz/tests/test_docstrings.py",
        "path_type": "hardlink",
        "sha256": "c173df3b15141f7aec83c9d500ab8547f882a8d899cf6fd7c3262660b683943c",
        "sha256_in_prefix": "c173df3b15141f7aec83c9d500ab8547f882a8d899cf6fd7c3262660b683943c",
        "size_in_bytes": 3034
      },
      {
        "_path": "lib/python3.10/site-packages/cytoolz/tests/test_doctests.py",
        "path_type": "hardlink",
        "sha256": "872febfe8a0fc0639cec8473f22ca6306d5686a5baa47578755253c951e5cbe6",
        "sha256_in_prefix": "872febfe8a0fc0639cec8473f22ca6306d5686a5baa47578755253c951e5cbe6",
        "size_in_bytes": 465
      },
      {
        "_path": "lib/python3.10/site-packages/cytoolz/tests/test_embedded_sigs.py",
        "path_type": "hardlink",
        "sha256": "269616de366a0cabf3ba3111d1a94a4d20d7a95b08c74a82215a490f596f3f36",
        "sha256_in_prefix": "269616de366a0cabf3ba3111d1a94a4d20d7a95b08c74a82215a490f596f3f36",
        "size_in_bytes": 3788
      },
      {
        "_path": "lib/python3.10/site-packages/cytoolz/tests/test_functoolz.py",
        "path_type": "hardlink",
        "sha256": "fd47c8c9266c87c7181a8422d395aa4d4439c4c8ff5de1aa6b7a641d12c90316",
        "sha256_in_prefix": "fd47c8c9266c87c7181a8422d395aa4d4439c4c8ff5de1aa6b7a641d12c90316",
        "size_in_bytes": 20217
      },
      {
        "_path": "lib/python3.10/site-packages/cytoolz/tests/test_inspect_args.py",
        "path_type": "hardlink",
        "sha256": "6f3313138b07f30f1b0ea1c6392ab227c91bfa1dde9f9d8210b4b2a47fe33d8e",
        "sha256_in_prefix": "6f3313138b07f30f1b0ea1c6392ab227c91bfa1dde9f9d8210b4b2a47fe33d8e",
        "size_in_bytes": 15994
      },
      {
        "_path": "lib/python3.10/site-packages/cytoolz/tests/test_itertoolz.py",
        "path_type": "hardlink",
        "sha256": "526017f281686eabddeae7ed22e5d7327b1e336b4e14a96a087959c28a3bc593",
        "sha256_in_prefix": "526017f281686eabddeae7ed22e5d7327b1e336b4e14a96a087959c28a3bc593",
        "size_in_bytes": 18189
      },
      {
        "_path": "lib/python3.10/site-packages/cytoolz/tests/test_none_safe.py",
        "path_type": "hardlink",
        "sha256": "6594e7ad29e78d273fefcab28ca63d91f1c9c074a61877a3733a008740c0b5fb",
        "sha256_in_prefix": "6594e7ad29e78d273fefcab28ca63d91f1c9c074a61877a3733a008740c0b5fb",
        "size_in_bytes": 12222
      },
      {
        "_path": "lib/python3.10/site-packages/cytoolz/tests/test_recipes.py",
        "path_type": "hardlink",
        "sha256": "37efbe6c9f47f566076d5dc3ade0920ca2407446486f50b9e41ce2eceb73c277",
        "sha256_in_prefix": "37efbe6c9f47f566076d5dc3ade0920ca2407446486f50b9e41ce2eceb73c277",
        "size_in_bytes": 822
      },
      {
        "_path": "lib/python3.10/site-packages/cytoolz/tests/test_serialization.py",
        "path_type": "hardlink",
        "sha256": "e5d14fe1f44fcd38d6d93ed66ffa7a7aec745fe601f9ba0012fc92bd8fa9d7d1",
        "sha256_in_prefix": "e5d14fe1f44fcd38d6d93ed66ffa7a7aec745fe601f9ba0012fc92bd8fa9d7d1",
        "size_in_bytes": 5825
      },
      {
        "_path": "lib/python3.10/site-packages/cytoolz/tests/test_signatures.py",
        "path_type": "hardlink",
        "sha256": "c5fc8539c2f2048ae57ba0d7fea7d1d437d68ad00ac7361c53db6bd1415e0849",
        "sha256_in_prefix": "c5fc8539c2f2048ae57ba0d7fea7d1d437d68ad00ac7361c53db6bd1415e0849",
        "size_in_bytes": 2877
      },
      {
        "_path": "lib/python3.10/site-packages/cytoolz/tests/test_tlz.py",
        "path_type": "hardlink",
        "sha256": "b113cb6502bb87b91018a3371a5c5070dee51a4d70ca9b39eb9a0d620b9bdad9",
        "sha256_in_prefix": "b113cb6502bb87b91018a3371a5c5070dee51a4d70ca9b39eb9a0d620b9bdad9",
        "size_in_bytes": 1486
      },
      {
        "_path": "lib/python3.10/site-packages/cytoolz/tests/test_utils.py",
        "path_type": "hardlink",
        "sha256": "88ebc05e5f6051848b76b8ebcfda19771da397db8fc40f6e0d77b399ae9f631e",
        "sha256_in_prefix": "88ebc05e5f6051848b76b8ebcfda19771da397db8fc40f6e0d77b399ae9f631e",
        "size_in_bytes": 385
      },
      {
        "_path": "lib/python3.10/site-packages/cytoolz/utils.cpython-310-darwin.so",
        "path_type": "hardlink",
        "sha256": "e8402e613a5f8dfa4677725441e59fa6fa13bf6c03903aba3008288b56fbeec4",
        "sha256_in_prefix": "e8402e613a5f8dfa4677725441e59fa6fa13bf6c03903aba3008288b56fbeec4",
        "size_in_bytes": 44632
      },
      {
        "_path": "lib/python3.10/site-packages/cytoolz/utils.pxd",
        "path_type": "hardlink",
        "sha256": "7447cc5456a039a4c131befe9f3195106dd9b90498cf879af752ad74edd751e8",
        "sha256_in_prefix": "7447cc5456a039a4c131befe9f3195106dd9b90498cf879af752ad74edd751e8",
        "size_in_bytes": 33
      },
      {
        "_path": "lib/python3.10/site-packages/cytoolz/utils.pyx",
        "path_type": "hardlink",
        "sha256": "43617fc9dd7008d06e51f5d7e821f9fe77b332b15b53677ad1024213ac3d5978",
        "sha256_in_prefix": "43617fc9dd7008d06e51f5d7e821f9fe77b332b15b53677ad1024213ac3d5978",
        "size_in_bytes": 1353
      }
    ],
    "paths_version": 1
  },
  "requested_spec": "None",
  "sha256": "7da2ffc0e33c4fd0bebc5a915cc2513d0f31031af581946f97e0f32615f7a9df",
  "size": 360307,
  "subdir": "osx-64",
  "timestamp": 1666830173188,
  "track_features": "",
  "url": "https://conda.anaconda.org/conda-forge/osx-64/cytoolz-0.12.0-py310h90acd4f_1.tar.bz2",
  "version": "0.12.0"
}