{
  "build": "py310hdfcfac3_1",
  "build_number": 1,
  "channel": "https://conda.anaconda.org/conda-forge/osx-64",
  "constrains": [],
  "depends": [
    "__osx >=10.9",
    "c-ares >=1.18.1,<2.0a0",
    "libabseil 20220623.0 cxx17*",
    "libcxx >=14.0.6",
    "libgrpc 1.51.1 h1ddfa78_1",
    "libprotobuf >=3.21.12,<3.22.0a0",
    "openssl >=3.0.7,<4.0a0",
    "python >=3.10,<3.11.0a0",
    "python_abi 3.10.* *_cp310",
    "re2 >=2023.2.1,<2023.2.2.0a0",
    "setuptools",
    "six >=1.6.0"
  ],
  "extracted_package_dir": "/Users/grokkingstuff/miniforge3/pkgs/grpcio-1.51.1-py310hdfcfac3_1",
  "features": "",
  "files": [
    "lib/python3.10/site-packages/grpc/__init__.py",
    "lib/python3.10/site-packages/grpc/__pycache__/__init__.cpython-310.pyc",
    "lib/python3.10/site-packages/grpc/__pycache__/_auth.cpython-310.pyc",
    "lib/python3.10/site-packages/grpc/__pycache__/_channel.cpython-310.pyc",
    "lib/python3.10/site-packages/grpc/__pycache__/_common.cpython-310.pyc",
    "lib/python3.10/site-packages/grpc/__pycache__/_compression.cpython-310.pyc",
    "lib/python3.10/site-packages/grpc/__pycache__/_grpcio_metadata.cpython-310.pyc",
    "lib/python3.10/site-packages/grpc/__pycache__/_interceptor.cpython-310.pyc",
    "lib/python3.10/site-packages/grpc/__pycache__/_plugin_wrapping.cpython-310.pyc",
    "lib/python3.10/site-packages/grpc/__pycache__/_runtime_protos.cpython-310.pyc",
    "lib/python3.10/site-packages/grpc/__pycache__/_server.cpython-310.pyc",
    "lib/python3.10/site-packages/grpc/__pycache__/_simple_stubs.cpython-310.pyc",
    "lib/python3.10/site-packages/grpc/__pycache__/_typing.cpython-310.pyc",
    "lib/python3.10/site-packages/grpc/__pycache__/_utilities.cpython-310.pyc",
    "lib/python3.10/site-packages/grpc/_auth.py",
    "lib/python3.10/site-packages/grpc/_channel.py",
    "lib/python3.10/site-packages/grpc/_common.py",
    "lib/python3.10/site-packages/grpc/_compression.py",
    "lib/python3.10/site-packages/grpc/_cython/__init__.py",
    "lib/python3.10/site-packages/grpc/_cython/__pycache__/__init__.cpython-310.pyc",
    "lib/python3.10/site-packages/grpc/_cython/_credentials/roots.pem",
    "lib/python3.10/site-packages/grpc/_cython/_cygrpc/__init__.py",
    "lib/python3.10/site-packages/grpc/_cython/_cygrpc/__pycache__/__init__.cpython-310.pyc",
    "lib/python3.10/site-packages/grpc/_cython/cygrpc.cpython-310-darwin.so",
    "lib/python3.10/site-packages/grpc/_grpcio_metadata.py",
    "lib/python3.10/site-packages/grpc/_interceptor.py",
    "lib/python3.10/site-packages/grpc/_plugin_wrapping.py",
    "lib/python3.10/site-packages/grpc/_runtime_protos.py",
    "lib/python3.10/site-packages/grpc/_server.py",
    "lib/python3.10/site-packages/grpc/_simple_stubs.py",
    "lib/python3.10/site-packages/grpc/_typing.py",
    "lib/python3.10/site-packages/grpc/_utilities.py",
    "lib/python3.10/site-packages/grpc/aio/__init__.py",
    "lib/python3.10/site-packages/grpc/aio/__pycache__/__init__.cpython-310.pyc",
    "lib/python3.10/site-packages/grpc/aio/__pycache__/_base_call.cpython-310.pyc",
    "lib/python3.10/site-packages/grpc/aio/__pycache__/_base_channel.cpython-310.pyc",
    "lib/python3.10/site-packages/grpc/aio/__pycache__/_base_server.cpython-310.pyc",
    "lib/python3.10/site-packages/grpc/aio/__pycache__/_call.cpython-310.pyc",
    "lib/python3.10/site-packages/grpc/aio/__pycache__/_channel.cpython-310.pyc",
    "lib/python3.10/site-packages/grpc/aio/__pycache__/_interceptor.cpython-310.pyc",
    "lib/python3.10/site-packages/grpc/aio/__pycache__/_metadata.cpython-310.pyc",
    "lib/python3.10/site-packages/grpc/aio/__pycache__/_server.cpython-310.pyc",
    "lib/python3.10/site-packages/grpc/aio/__pycache__/_typing.cpython-310.pyc",
    "lib/python3.10/site-packages/grpc/aio/__pycache__/_utils.cpython-310.pyc",
    "lib/python3.10/site-packages/grpc/aio/_base_call.py",
    "lib/python3.10/site-packages/grpc/aio/_base_channel.py",
    "lib/python3.10/site-packages/grpc/aio/_base_server.py",
    "lib/python3.10/site-packages/grpc/aio/_call.py",
    "lib/python3.10/site-packages/grpc/aio/_channel.py",
    "lib/python3.10/site-packages/grpc/aio/_interceptor.py",
    "lib/python3.10/site-packages/grpc/aio/_metadata.py",
    "lib/python3.10/site-packages/grpc/aio/_server.py",
    "lib/python3.10/site-packages/grpc/aio/_typing.py",
    "lib/python3.10/site-packages/grpc/aio/_utils.py",
    "lib/python3.10/site-packages/grpc/beta/__init__.py",
    "lib/python3.10/site-packages/grpc/beta/__pycache__/__init__.cpython-310.pyc",
    "lib/python3.10/site-packages/grpc/beta/__pycache__/_client_adaptations.cpython-310.pyc",
    "lib/python3.10/site-packages/grpc/beta/__pycache__/_metadata.cpython-310.pyc",
    "lib/python3.10/site-packages/grpc/beta/__pycache__/_server_adaptations.cpython-310.pyc",
    "lib/python3.10/site-packages/grpc/beta/__pycache__/implementations.cpython-310.pyc",
    "lib/python3.10/site-packages/grpc/beta/__pycache__/interfaces.cpython-310.pyc",
    "lib/python3.10/site-packages/grpc/beta/__pycache__/utilities.cpython-310.pyc",
    "lib/python3.10/site-packages/grpc/beta/_client_adaptations.py",
    "lib/python3.10/site-packages/grpc/beta/_metadata.py",
    "lib/python3.10/site-packages/grpc/beta/_server_adaptations.py",
    "lib/python3.10/site-packages/grpc/beta/implementations.py",
    "lib/python3.10/site-packages/grpc/beta/interfaces.py",
    "lib/python3.10/site-packages/grpc/beta/utilities.py",
    "lib/python3.10/site-packages/grpc/experimental/__init__.py",
    "lib/python3.10/site-packages/grpc/experimental/__pycache__/__init__.cpython-310.pyc",
    "lib/python3.10/site-packages/grpc/experimental/__pycache__/gevent.cpython-310.pyc",
    "lib/python3.10/site-packages/grpc/experimental/__pycache__/session_cache.cpython-310.pyc",
    "lib/python3.10/site-packages/grpc/experimental/aio/__init__.py",
    "lib/python3.10/site-packages/grpc/experimental/aio/__pycache__/__init__.cpython-310.pyc",
    "lib/python3.10/site-packages/grpc/experimental/gevent.py",
    "lib/python3.10/site-packages/grpc/experimental/session_cache.py",
    "lib/python3.10/site-packages/grpc/framework/__init__.py",
    "lib/python3.10/site-packages/grpc/framework/__pycache__/__init__.cpython-310.pyc",
    "lib/python3.10/site-packages/grpc/framework/common/__init__.py",
    "lib/python3.10/site-packages/grpc/framework/common/__pycache__/__init__.cpython-310.pyc",
    "lib/python3.10/site-packages/grpc/framework/common/__pycache__/cardinality.cpython-310.pyc",
    "lib/python3.10/site-packages/grpc/framework/common/__pycache__/style.cpython-310.pyc",
    "lib/python3.10/site-packages/grpc/framework/common/cardinality.py",
    "lib/python3.10/site-packages/grpc/framework/common/style.py",
    "lib/python3.10/site-packages/grpc/framework/foundation/__init__.py",
    "lib/python3.10/site-packages/grpc/framework/foundation/__pycache__/__init__.cpython-310.pyc",
    "lib/python3.10/site-packages/grpc/framework/foundation/__pycache__/abandonment.cpython-310.pyc",
    "lib/python3.10/site-packages/grpc/framework/foundation/__pycache__/callable_util.cpython-310.pyc",
    "lib/python3.10/site-packages/grpc/framework/foundation/__pycache__/future.cpython-310.pyc",
    "lib/python3.10/site-packages/grpc/framework/foundation/__pycache__/logging_pool.cpython-310.pyc",
    "lib/python3.10/site-packages/grpc/framework/foundation/__pycache__/stream.cpython-310.pyc",
    "lib/python3.10/site-packages/grpc/framework/foundation/__pycache__/stream_util.cpython-310.pyc",
    "lib/python3.10/site-packages/grpc/framework/foundation/abandonment.py",
    "lib/python3.10/site-packages/grpc/framework/foundation/callable_util.py",
    "lib/python3.10/site-packages/grpc/framework/foundation/future.py",
    "lib/python3.10/site-packages/grpc/framework/foundation/logging_pool.py",
    "lib/python3.10/site-packages/grpc/framework/foundation/stream.py",
    "lib/python3.10/site-packages/grpc/framework/foundation/stream_util.py",
    "lib/python3.10/site-packages/grpc/framework/interfaces/__init__.py",
    "lib/python3.10/site-packages/grpc/framework/interfaces/__pycache__/__init__.cpython-310.pyc",
    "lib/python3.10/site-packages/grpc/framework/interfaces/base/__init__.py",
    "lib/python3.10/site-packages/grpc/framework/interfaces/base/__pycache__/__init__.cpython-310.pyc",
    "lib/python3.10/site-packages/grpc/framework/interfaces/base/__pycache__/base.cpython-310.pyc",
    "lib/python3.10/site-packages/grpc/framework/interfaces/base/__pycache__/utilities.cpython-310.pyc",
    "lib/python3.10/site-packages/grpc/framework/interfaces/base/base.py",
    "lib/python3.10/site-packages/grpc/framework/interfaces/base/utilities.py",
    "lib/python3.10/site-packages/grpc/framework/interfaces/face/__init__.py",
    "lib/python3.10/site-packages/grpc/framework/interfaces/face/__pycache__/__init__.cpython-310.pyc",
    "lib/python3.10/site-packages/grpc/framework/interfaces/face/__pycache__/face.cpython-310.pyc",
    "lib/python3.10/site-packages/grpc/framework/interfaces/face/__pycache__/utilities.cpython-310.pyc",
    "lib/python3.10/site-packages/grpc/framework/interfaces/face/face.py",
    "lib/python3.10/site-packages/grpc/framework/interfaces/face/utilities.py",
    "lib/python3.10/site-packages/grpcio-1.51.1.dist-info/INSTALLER",
    "lib/python3.10/site-packages/grpcio-1.51.1.dist-info/LICENSE",
    "lib/python3.10/site-packages/grpcio-1.51.1.dist-info/METADATA",
    "lib/python3.10/site-packages/grpcio-1.51.1.dist-info/RECORD",
    "lib/python3.10/site-packages/grpcio-1.51.1.dist-info/REQUESTED",
    "lib/python3.10/site-packages/grpcio-1.51.1.dist-info/WHEEL",
    "lib/python3.10/site-packages/grpcio-1.51.1.dist-info/direct_url.json",
    "lib/python3.10/site-packages/grpcio-1.51.1.dist-info/top_level.txt"
  ],
  "fn": "grpcio-1.51.1-py310hdfcfac3_1.conda",
  "license": "Apache-2.0",
  "license_family": "APACHE",
  "link": {
    "source": "/Users/grokkingstuff/miniforge3/pkgs/grpcio-1.51.1-py310hdfcfac3_1",
    "type": 1
  },
  "md5": "ef2a81121cbbedd61f374fcb2ba819ce",
  "name": "grpcio",
  "package_tarball_full_path": "/Users/grokkingstuff/miniforge3/pkgs/grpcio-1.51.1-py310hdfcfac3_1.conda",
  "paths_data": {
    "paths": [
      {
        "_path": "lib/python3.10/site-packages/grpc/__init__.py",
        "path_type": "hardlink",
        "sha256": "90f6f71eddc87367d7203ca538b70873a0ee6eed412ed3cea387ce9ff16df5bd",
        "sha256_in_prefix": "90f6f71eddc87367d7203ca538b70873a0ee6eed412ed3cea387ce9ff16df5bd",
        "size_in_bytes": 82351
      },
      {
        "_path": "lib/python3.10/site-packages/grpc/__pycache__/__init__.cpython-310.pyc",
        "path_type": "hardlink",
        "sha256": "a70de67e590f9b027eeff1f8d131cacafb86143e9f444a510b7ba771ec7b74ef",
        "sha256_in_prefix": "a70de67e590f9b027eeff1f8d131cacafb86143e9f444a510b7ba771ec7b74ef",
        "size_in_bytes": 79811
      },
      {
        "_path": "lib/python3.10/site-packages/grpc/__pycache__/_auth.cpython-310.pyc",
        "path_type": "hardlink",
        "sha256": "82ab64d5e72b8a9314cede05c1abd658d90c538ff0b8ab49b4217ff17cc4cfeb",
        "sha256_in_prefix": "82ab64d5e72b8a9314cede05c1abd658d90c538ff0b8ab49b4217ff17cc4cfeb",
        "size_in_bytes": 2245
      },
      {
        "_path": "lib/python3.10/site-packages/grpc/__pycache__/_channel.cpython-310.pyc",
        "path_type": "hardlink",
        "sha256": "019d621f5ad1e03e6dfc2c182822b978e7ae5a9e6a5369bc220d81f008c6dabd",
        "sha256_in_prefix": "019d621f5ad1e03e6dfc2c182822b978e7ae5a9e6a5369bc220d81f008c6dabd",
        "size_in_bytes": 44993
      },
      {
        "_path": "lib/python3.10/site-packages/grpc/__pycache__/_common.cpython-310.pyc",
        "path_type": "hardlink",
        "sha256": "9575d42c5cabff1b45f09796ed742aff3e8bc93306fa86d8dd2cf418ecfb3002",
        "sha256_in_prefix": "9575d42c5cabff1b45f09796ed742aff3e8bc93306fa86d8dd2cf418ecfb3002",
        "size_in_bytes": 5809
      },
      {
        "_path": "lib/python3.10/site-packages/grpc/__pycache__/_compression.cpython-310.pyc",
        "path_type": "hardlink",
        "sha256": "cc303ba0f8cda73fb32e0f2369fdd279231113f58f2126fedd210370e4971651",
        "sha256_in_prefix": "cc303ba0f8cda73fb32e0f2369fdd279231113f58f2126fedd210370e4971651",
        "size_in_bytes": 1495
      },
      {
        "_path": "lib/python3.10/site-packages/grpc/__pycache__/_grpcio_metadata.cpython-310.pyc",
        "path_type": "hardlink",
        "sha256": "bb0ac5f0eb6fac4f38203e94fb4d351822c93b1d866d812338bc41ccef2a40b5",
        "sha256_in_prefix": "bb0ac5f0eb6fac4f38203e94fb4d351822c93b1d866d812338bc41ccef2a40b5",
        "size_in_bytes": 168
      },
      {
        "_path": "lib/python3.10/site-packages/grpc/__pycache__/_interceptor.cpython-310.pyc",
        "path_type": "hardlink",
        "sha256": "51d5c5618c728d783093c654d109dd5dbbd9c75fe231c18fe3e8b52e97763f86",
        "sha256_in_prefix": "51d5c5618c728d783093c654d109dd5dbbd9c75fe231c18fe3e8b52e97763f86",
        "size_in_bytes": 18501
      },
      {
        "_path": "lib/python3.10/site-packages/grpc/__pycache__/_plugin_wrapping.cpython-310.pyc",
        "path_type": "hardlink",
        "sha256": "f4c5eec844112a9a4ce4ad518b6e34cdd376de1de064fcc8e56eca37ad24e938",
        "sha256_in_prefix": "f4c5eec844112a9a4ce4ad518b6e34cdd376de1de064fcc8e56eca37ad24e938",
        "size_in_bytes": 3575
      },
      {
        "_path": "lib/python3.10/site-packages/grpc/__pycache__/_runtime_protos.cpython-310.pyc",
        "path_type": "hardlink",
        "sha256": "e32c7ce2e569b1a792f14f0c7884ffc34eb444544881e279362b2855c7a9bf62",
        "sha256_in_prefix": "e32c7ce2e569b1a792f14f0c7884ffc34eb444544881e279362b2855c7a9bf62",
        "size_in_bytes": 5123
      },
      {
        "_path": "lib/python3.10/site-packages/grpc/__pycache__/_server.cpython-310.pyc",
        "path_type": "hardlink",
        "sha256": "de03b2c233c96a14d3cfb499214d140cf256655942d0c0cef3eeaa541574351c",
        "sha256_in_prefix": "de03b2c233c96a14d3cfb499214d140cf256655942d0c0cef3eeaa541574351c",
        "size_in_bytes": 28787
      },
      {
        "_path": "lib/python3.10/site-packages/grpc/__pycache__/_simple_stubs.cpython-310.pyc",
        "path_type": "hardlink",
        "sha256": "fd56889589484ba1ab2ba0c532d207e561837a68e7c49797177d09379ddde7e9",
        "sha256_in_prefix": "fd56889589484ba1ab2ba0c532d207e561837a68e7c49797177d09379ddde7e9",
        "size_in_bytes": 17868
      },
      {
        "_path": "lib/python3.10/site-packages/grpc/__pycache__/_typing.cpython-310.pyc",
        "path_type": "hardlink",
        "sha256": "8a8f5e9b8eb9e72c50db8f1186df53ccf772853c47c32e27abbdb4e2ac921342",
        "sha256_in_prefix": "8a8f5e9b8eb9e72c50db8f1186df53ccf772853c47c32e27abbdb4e2ac921342",
        "size_in_bytes": 718
      },
      {
        "_path": "lib/python3.10/site-packages/grpc/__pycache__/_utilities.cpython-310.pyc",
        "path_type": "hardlink",
        "sha256": "9e6d79502b1bc331e6bc5dc2cf8dc0c931a58e676db71183a7954ff37e8a4f0d",
        "sha256_in_prefix": "9e6d79502b1bc331e6bc5dc2cf8dc0c931a58e676db71183a7954ff37e8a4f0d",
        "size_in_bytes": 6048
      },
      {
        "_path": "lib/python3.10/site-packages/grpc/_auth.py",
        "path_type": "hardlink",
        "sha256": "a2463412a823ae1c58af49ed4855202136fffe5bd2fc6ef0af64573496f30ce9",
        "sha256_in_prefix": "a2463412a823ae1c58af49ed4855202136fffe5bd2fc6ef0af64573496f30ce9",
        "size_in_bytes": 2625
      },
      {
        "_path": "lib/python3.10/site-packages/grpc/_channel.py",
        "path_type": "hardlink",
        "sha256": "f154044814cb89eb6cee9a35cd479bc2a541659e50507be40f23e1c6f0560042",
        "sha256_in_prefix": "f154044814cb89eb6cee9a35cd479bc2a541659e50507be40f23e1c6f0560042",
        "size_in_bytes": 63514
      },
      {
        "_path": "lib/python3.10/site-packages/grpc/_common.py",
        "path_type": "hardlink",
        "sha256": "14194c4862e7a022781efae9b3e06d5c2fbe0cfbc9d231a6abdb964e1faf7ce2",
        "sha256_in_prefix": "14194c4862e7a022781efae9b3e06d5c2fbe0cfbc9d231a6abdb964e1faf7ce2",
        "size_in_bytes": 6892
      },
      {
        "_path": "lib/python3.10/site-packages/grpc/_compression.py",
        "path_type": "hardlink",
        "sha256": "6ba71e020141e00beef4949697605f200427e845a78c665d97008406e5d1b444",
        "sha256_in_prefix": "6ba71e020141e00beef4949697605f200427e845a78c665d97008406e5d1b444",
        "size_in_bytes": 1963
      },
      {
        "_path": "lib/python3.10/site-packages/grpc/_cython/__init__.py",
        "path_type": "hardlink",
        "sha256": "c3792a480c9a6603fe5b4f3dd314782f859e04f1abb6c4024097b4154151d0ad",
        "sha256_in_prefix": "c3792a480c9a6603fe5b4f3dd314782f859e04f1abb6c4024097b4154151d0ad",
        "size_in_bytes": 577
      },
      {
        "_path": "lib/python3.10/site-packages/grpc/_cython/__pycache__/__init__.cpython-310.pyc",
        "path_type": "hardlink",
        "sha256": "e52e383d052b7f4e51d6203286180fca0e129ac85214fc51e085b4e2fe9db57e",
        "sha256_in_prefix": "e52e383d052b7f4e51d6203286180fca0e129ac85214fc51e085b4e2fe9db57e",
        "size_in_bytes": 146
      },
      {
        "_path": "lib/python3.10/site-packages/grpc/_cython/_credentials/roots.pem",
        "path_type": "hardlink",
        "sha256": "96143344c4ae109588125b2c41d5daf654a5fafc6e23fac37f7ba3d29da7e776",
        "sha256_in_prefix": "96143344c4ae109588125b2c41d5daf654a5fafc6e23fac37f7ba3d29da7e776",
        "size_in_bytes": 264440
      },
      {
        "_path": "lib/python3.10/site-packages/grpc/_cython/_cygrpc/__init__.py",
        "path_type": "hardlink",
        "sha256": "c3792a480c9a6603fe5b4f3dd314782f859e04f1abb6c4024097b4154151d0ad",
        "sha256_in_prefix": "c3792a480c9a6603fe5b4f3dd314782f859e04f1abb6c4024097b4154151d0ad",
        "size_in_bytes": 577
      },
      {
        "_path": "lib/python3.10/site-packages/grpc/_cython/_cygrpc/__pycache__/__init__.cpython-310.pyc",
        "path_type": "hardlink",
        "sha256": "849fbc994fce1651c7c07cfd4600f2ba5b6a127540e9819903a38bda4d545de3",
        "sha256_in_prefix": "849fbc994fce1651c7c07cfd4600f2ba5b6a127540e9819903a38bda4d545de3",
        "size_in_bytes": 154
      },
      {
        "_path": "lib/python3.10/site-packages/grpc/_cython/cygrpc.cpython-310-darwin.so",
        "path_type": "hardlink",
        "sha256": "8d0fd3fecc37a0814e8b2a630c2cbaa6f59207391f2daaee1783bdb546623583",
        "sha256_in_prefix": "8d0fd3fecc37a0814e8b2a630c2cbaa6f59207391f2daaee1783bdb546623583",
        "size_in_bytes": 1412712
      },
      {
        "_path": "lib/python3.10/site-packages/grpc/_grpcio_metadata.py",
        "path_type": "hardlink",
        "sha256": "138c25b055966d20351dc6f646019c3fd91008d0020cf5c5012eebd38e6d42f8",
        "sha256_in_prefix": "138c25b055966d20351dc6f646019c3fd91008d0020cf5c5012eebd38e6d42f8",
        "size_in_bytes": 26
      },
      {
        "_path": "lib/python3.10/site-packages/grpc/_interceptor.py",
        "path_type": "hardlink",
        "sha256": "f9bf42a71ef0c4a40bcc2b7ffd76b3cef8e31f0305c617c46d7285911c282ca3",
        "sha256_in_prefix": "f9bf42a71ef0c4a40bcc2b7ffd76b3cef8e31f0305c617c46d7285911c282ca3",
        "size_in_bytes": 25562
      },
      {
        "_path": "lib/python3.10/site-packages/grpc/_plugin_wrapping.py",
        "path_type": "hardlink",
        "sha256": "2476e1fb9294d431e1f559ff00c8721175451843d2b556f657587bd8bc143857",
        "sha256_in_prefix": "2476e1fb9294d431e1f559ff00c8721175451843d2b556f657587bd8bc143857",
        "size_in_bytes": 4309
      },
      {
        "_path": "lib/python3.10/site-packages/grpc/_runtime_protos.py",
        "path_type": "hardlink",
        "sha256": "6952ce7296ec73223ebabbd21a629896a2fa5ed1df52d977a5a10c134daaa3ca",
        "sha256_in_prefix": "6952ce7296ec73223ebabbd21a629896a2fa5ed1df52d977a5a10c134daaa3ca",
        "size_in_bytes": 5792
      },
      {
        "_path": "lib/python3.10/site-packages/grpc/_server.py",
        "path_type": "hardlink",
        "sha256": "41e317c91fb5464e8e7eae598e179e2a1bab376df9f94ef8572830bca4b30e82",
        "sha256_in_prefix": "41e317c91fb5464e8e7eae598e179e2a1bab376df9f94ef8572830bca4b30e82",
        "size_in_bytes": 37759
      },
      {
        "_path": "lib/python3.10/site-packages/grpc/_simple_stubs.py",
        "path_type": "hardlink",
        "sha256": "ac7f491591e6903909810d0837451c9d6636ab4e5f5da1f7a30483d7ef32466d",
        "sha256_in_prefix": "ac7f491591e6903909810d0837451c9d6636ab4e5f5da1f7a30483d7ef32466d",
        "size_in_bytes": 23408
      },
      {
        "_path": "lib/python3.10/site-packages/grpc/_typing.py",
        "path_type": "hardlink",
        "sha256": "340ff65e75bd4f665d43e3454b76bfb1f3d7cb6c0c0eb11db8c668e45db070fd",
        "sha256_in_prefix": "340ff65e75bd4f665d43e3454b76bfb1f3d7cb6c0c0eb11db8c668e45db070fd",
        "size_in_bytes": 1134
      },
      {
        "_path": "lib/python3.10/site-packages/grpc/_utilities.py",
        "path_type": "hardlink",
        "sha256": "6bad1eae9a7931ab5c9c2b62b118799d99c9b14b52acbced37d6059282395d42",
        "sha256_in_prefix": "6bad1eae9a7931ab5c9c2b62b118799d99c9b14b52acbced37d6059282395d42",
        "size_in_bytes": 5992
      },
      {
        "_path": "lib/python3.10/site-packages/grpc/aio/__init__.py",
        "path_type": "hardlink",
        "sha256": "45cf629f7ed3c41f5fef028826c0d474fdd81b5fa5470e00262f9a79dd9f0165",
        "sha256_in_prefix": "45cf629f7ed3c41f5fef028826c0d474fdd81b5fa5470e00262f9a79dd9f0165",
        "size_in_bytes": 3160
      },
      {
        "_path": "lib/python3.10/site-packages/grpc/aio/__pycache__/__init__.cpython-310.pyc",
        "path_type": "hardlink",
        "sha256": "50d4580796ba591bad1e1d96872b530246615a8651297b3fc4c8c8c188633c4b",
        "sha256_in_prefix": "50d4580796ba591bad1e1d96872b530246615a8651297b3fc4c8c8c188633c4b",
        "size_in_bytes": 2064
      },
      {
        "_path": "lib/python3.10/site-packages/grpc/aio/__pycache__/_base_call.cpython-310.pyc",
        "path_type": "hardlink",
        "sha256": "b90c777975f4b7cf1cdb73b4df5f14438c52c8a18417440386ad28a5da1d2501",
        "sha256_in_prefix": "b90c777975f4b7cf1cdb73b4df5f14438c52c8a18417440386ad28a5da1d2501",
        "size_in_bytes": 7758
      },
      {
        "_path": "lib/python3.10/site-packages/grpc/aio/__pycache__/_base_channel.cpython-310.pyc",
        "path_type": "hardlink",
        "sha256": "316e63062d87e40fe65ec7024e47abfeaec9b23d9fd39f2e8144235cd0f4a9ec",
        "sha256_in_prefix": "316e63062d87e40fe65ec7024e47abfeaec9b23d9fd39f2e8144235cd0f4a9ec",
        "size_in_bytes": 13253
      },
      {
        "_path": "lib/python3.10/site-packages/grpc/aio/__pycache__/_base_server.cpython-310.pyc",
        "path_type": "hardlink",
        "sha256": "a18c5f230410c41875a2ccf67c85b32a4d8637a48cea56df3ba0ec34a0ccf950",
        "sha256_in_prefix": "a18c5f230410c41875a2ccf67c85b32a4d8637a48cea56df3ba0ec34a0ccf950",
        "size_in_bytes": 13788
      },
      {
        "_path": "lib/python3.10/site-packages/grpc/aio/__pycache__/_call.cpython-310.pyc",
        "path_type": "hardlink",
        "sha256": "8a21af9aed4ae9b8d5302697e9303ba38b2b02a6e6e526c406c0cde54f16efd3",
        "sha256_in_prefix": "8a21af9aed4ae9b8d5302697e9303ba38b2b02a6e6e526c406c0cde54f16efd3",
        "size_in_bytes": 20337
      },
      {
        "_path": "lib/python3.10/site-packages/grpc/aio/__pycache__/_channel.cpython-310.pyc",
        "path_type": "hardlink",
        "sha256": "b4c7387200f7e9ff2d756f3f46b9a1d4856103cc00d5b0fa7bb055f2547534ce",
        "sha256_in_prefix": "b4c7387200f7e9ff2d756f3f46b9a1d4856103cc00d5b0fa7bb055f2547534ce",
        "size_in_bytes": 12659
      },
      {
        "_path": "lib/python3.10/site-packages/grpc/aio/__pycache__/_interceptor.cpython-310.pyc",
        "path_type": "hardlink",
        "sha256": "baa968a119bfa06f0f8274b21ad559905d4dc7bf16d0bfc0ba7c6fb79db11f21",
        "sha256_in_prefix": "baa968a119bfa06f0f8274b21ad559905d4dc7bf16d0bfc0ba7c6fb79db11f21",
        "size_in_bytes": 32499
      },
      {
        "_path": "lib/python3.10/site-packages/grpc/aio/__pycache__/_metadata.cpython-310.pyc",
        "path_type": "hardlink",
        "sha256": "390b96f47969bf452cd82d1bc0bebcc6d8654d9c745628c7a10a5764adab068f",
        "sha256_in_prefix": "390b96f47969bf452cd82d1bc0bebcc6d8654d9c745628c7a10a5764adab068f",
        "size_in_bytes": 4694
      },
      {
        "_path": "lib/python3.10/site-packages/grpc/aio/__pycache__/_server.cpython-310.pyc",
        "path_type": "hardlink",
        "sha256": "67e43a1f3da53d3a270b75c3ccc498495d827c74985f304a7480c52478cb3e30",
        "sha256_in_prefix": "67e43a1f3da53d3a270b75c3ccc498495d827c74985f304a7480c52478cb3e30",
        "size_in_bytes": 8151
      },
      {
        "_path": "lib/python3.10/site-packages/grpc/aio/__pycache__/_typing.cpython-310.pyc",
        "path_type": "hardlink",
        "sha256": "13175edc9651f8bbb78990bb7181336f50e8095a848bfdcabbf56d7fb483541a",
        "sha256_in_prefix": "13175edc9651f8bbb78990bb7181336f50e8095a848bfdcabbf56d7fb483541a",
        "size_in_bytes": 897
      },
      {
        "_path": "lib/python3.10/site-packages/grpc/aio/__pycache__/_utils.cpython-310.pyc",
        "path_type": "hardlink",
        "sha256": "1684f2f1f6e613121c631599642bd251e2f3df7ed4da0b9b47255b9614839ac1",
        "sha256_in_prefix": "1684f2f1f6e613121c631599642bd251e2f3df7ed4da0b9b47255b9614839ac1",
        "size_in_bytes": 444
      },
      {
        "_path": "lib/python3.10/site-packages/grpc/aio/_base_call.py",
        "path_type": "hardlink",
        "sha256": "3e98cb1d2f01b2d13d53c47cbe327acfe8f1399e317b58dee17c53c56f3ecef0",
        "sha256_in_prefix": "3e98cb1d2f01b2d13d53c47cbe327acfe8f1399e317b58dee17c53c56f3ecef0",
        "size_in_bytes": 7313
      },
      {
        "_path": "lib/python3.10/site-packages/grpc/aio/_base_channel.py",
        "path_type": "hardlink",
        "sha256": "76b81355d07196cfe7283e16b1b4769285b0c78f90bd1d3dcb226623c1aeacfe",
        "sha256_in_prefix": "76b81355d07196cfe7283e16b1b4769285b0c78f90bd1d3dcb226623c1aeacfe",
        "size_in_bytes": 13229
      },
      {
        "_path": "lib/python3.10/site-packages/grpc/aio/_base_server.py",
        "path_type": "hardlink",
        "sha256": "4d72e14e86b4749b2fecd0172714915ea133f41b8b4ff261a12c604830d10522",
        "sha256_in_prefix": "4d72e14e86b4749b2fecd0172714915ea133f41b8b4ff261a12c604830d10522",
        "size_in_bytes": 12188
      },
      {
        "_path": "lib/python3.10/site-packages/grpc/aio/_call.py",
        "path_type": "hardlink",
        "sha256": "cf99f1710c707356483000015e5e4fc51c73835aaf2c5618d3d338cf4930257d",
        "sha256_in_prefix": "cf99f1710c707356483000015e5e4fc51c73835aaf2c5618d3d338cf4930257d",
        "size_in_bytes": 24469
      },
      {
        "_path": "lib/python3.10/site-packages/grpc/aio/_channel.py",
        "path_type": "hardlink",
        "sha256": "fd8835860027f0f705f87e7d044367484174e2dc4906dc053c5450a0b30001eb",
        "sha256_in_prefix": "fd8835860027f0f705f87e7d044367484174e2dc4906dc053c5450a0b30001eb",
        "size_in_bytes": 20174
      },
      {
        "_path": "lib/python3.10/site-packages/grpc/aio/_interceptor.py",
        "path_type": "hardlink",
        "sha256": "ec2342e1bf65a0d3fe31f26be0d8aa63d74ddef2ebd4465f9b120ea650446380",
        "sha256_in_prefix": "ec2342e1bf65a0d3fe31f26be0d8aa63d74ddef2ebd4465f9b120ea650446380",
        "size_in_bytes": 40008
      },
      {
        "_path": "lib/python3.10/site-packages/grpc/aio/_metadata.py",
        "path_type": "hardlink",
        "sha256": "7b2bf3986bf3dd9b8180ca38f536bf16944dab6b438af0bc6f44f2bbdf0f0886",
        "sha256_in_prefix": "7b2bf3986bf3dd9b8180ca38f536bf16944dab6b438af0bc6f44f2bbdf0f0886",
        "size_in_bytes": 4570
      },
      {
        "_path": "lib/python3.10/site-packages/grpc/aio/_server.py",
        "path_type": "hardlink",
        "sha256": "67a2faea984962c7325caebdb069e9ba22ed19b64335a0d4885cb91d182fc6cc",
        "sha256_in_prefix": "67a2faea984962c7325caebdb069e9ba22ed19b64335a0d4885cb91d182fc6cc",
        "size_in_bytes": 8699
      },
      {
        "_path": "lib/python3.10/site-packages/grpc/aio/_typing.py",
        "path_type": "hardlink",
        "sha256": "3fc0838958cb484fcf79a8521abbae4f920f6fc47dcbb7a9544f1e2cd6aea5bb",
        "sha256_in_prefix": "3fc0838958cb484fcf79a8521abbae4f920f6fc47dcbb7a9544f1e2cd6aea5bb",
        "size_in_bytes": 1363
      },
      {
        "_path": "lib/python3.10/site-packages/grpc/aio/_utils.py",
        "path_type": "hardlink",
        "sha256": "061e7e9503b6c6ccdd65e4c501615f16185a2b2db4965e24b9c0fa7ff6194e58",
        "sha256_in_prefix": "061e7e9503b6c6ccdd65e4c501615f16185a2b2db4965e24b9c0fa7ff6194e58",
        "size_in_bytes": 821
      },
      {
        "_path": "lib/python3.10/site-packages/grpc/beta/__init__.py",
        "path_type": "hardlink",
        "sha256": "c3792a480c9a6603fe5b4f3dd314782f859e04f1abb6c4024097b4154151d0ad",
        "sha256_in_prefix": "c3792a480c9a6603fe5b4f3dd314782f859e04f1abb6c4024097b4154151d0ad",
        "size_in_bytes": 577
      },
      {
        "_path": "lib/python3.10/site-packages/grpc/beta/__pycache__/__init__.cpython-310.pyc",
        "path_type": "hardlink",
        "sha256": "786109cd05a5d5cf7f23590c054a2b1f4aa0a63fa891b6009a4c4e7870dc9de0",
        "sha256_in_prefix": "786109cd05a5d5cf7f23590c054a2b1f4aa0a63fa891b6009a4c4e7870dc9de0",
        "size_in_bytes": 143
      },
      {
        "_path": "lib/python3.10/site-packages/grpc/beta/__pycache__/_client_adaptations.cpython-310.pyc",
        "path_type": "hardlink",
        "sha256": "b6310d2b952cbd9fb7a7154465192d0797ff6bc4ac4f7ad9e4c69723228da93d",
        "sha256_in_prefix": "b6310d2b952cbd9fb7a7154465192d0797ff6bc4ac4f7ad9e4c69723228da93d",
        "size_in_bytes": 16316
      },
      {
        "_path": "lib/python3.10/site-packages/grpc/beta/__pycache__/_metadata.cpython-310.pyc",
        "path_type": "hardlink",
        "sha256": "d076eb9207b2d175b20d89b6c3de758cbbe4b097d1db60d6df585ac94732e6cb",
        "sha256_in_prefix": "d076eb9207b2d175b20d89b6c3de758cbbe4b097d1db60d6df585ac94732e6cb",
        "size_in_bytes": 1297
      },
      {
        "_path": "lib/python3.10/site-packages/grpc/beta/__pycache__/_server_adaptations.cpython-310.pyc",
        "path_type": "hardlink",
        "sha256": "b08f5965e19b8f05e2e933f63a6e2ce0e7e02ffa4d04ea7f65511d3384605562",
        "sha256_in_prefix": "b08f5965e19b8f05e2e933f63a6e2ce0e7e02ffa4d04ea7f65511d3384605562",
        "size_in_bytes": 11788
      },
      {
        "_path": "lib/python3.10/site-packages/grpc/beta/__pycache__/implementations.cpython-310.pyc",
        "path_type": "hardlink",
        "sha256": "344d6e1abea9a9d2f4b672e2b6b632cdf99e534321eccfb84de6bcd4442219a5",
        "sha256_in_prefix": "344d6e1abea9a9d2f4b672e2b6b632cdf99e534321eccfb84de6bcd4442219a5",
        "size_in_bytes": 10038
      },
      {
        "_path": "lib/python3.10/site-packages/grpc/beta/__pycache__/interfaces.cpython-310.pyc",
        "path_type": "hardlink",
        "sha256": "895f36564a58fc6fcc168c38c3ff9c73116a30ad779c9210c88547f6e4bba6e0",
        "sha256_in_prefix": "895f36564a58fc6fcc168c38c3ff9c73116a30ad779c9210c88547f6e4bba6e0",
        "size_in_bytes": 6147
      },
      {
        "_path": "lib/python3.10/site-packages/grpc/beta/__pycache__/utilities.cpython-310.pyc",
        "path_type": "hardlink",
        "sha256": "8036b76328d94baf9d0d76ed5f32dee69266cd0beb96901001124ea23885d905",
        "sha256_in_prefix": "8036b76328d94baf9d0d76ed5f32dee69266cd0beb96901001124ea23885d905",
        "size_in_bytes": 4629
      },
      {
        "_path": "lib/python3.10/site-packages/grpc/beta/_client_adaptations.py",
        "path_type": "hardlink",
        "sha256": "7410e34d709fe152f3ae61c8326001ae7d10266da7d45ce4475684b7a00a8dc7",
        "sha256_in_prefix": "7410e34d709fe152f3ae61c8326001ae7d10266da7d45ce4475684b7a00a8dc7",
        "size_in_bytes": 27512
      },
      {
        "_path": "lib/python3.10/site-packages/grpc/beta/_metadata.py",
        "path_type": "hardlink",
        "sha256": "f1b54c7e48929d16cdfa968cb4fa9629f2c242c06ef5ca71dad31e5a47e735ac",
        "sha256_in_prefix": "f1b54c7e48929d16cdfa968cb4fa9629f2c242c06ef5ca71dad31e5a47e735ac",
        "size_in_bytes": 1606
      },
      {
        "_path": "lib/python3.10/site-packages/grpc/beta/_server_adaptations.py",
        "path_type": "hardlink",
        "sha256": "c0375061f5e4a9ca6903be42eaede7866648a4ee32849b819dd19b1215405318",
        "sha256_in_prefix": "c0375061f5e4a9ca6903be42eaede7866648a4ee32849b819dd19b1215405318",
        "size_in_bytes": 13817
      },
      {
        "_path": "lib/python3.10/site-packages/grpc/beta/implementations.py",
        "path_type": "hardlink",
        "sha256": "8593485bbe75307282a12c9c1a412398817f60029c1d62e7bac3b37f5d853f7f",
        "sha256_in_prefix": "8593485bbe75307282a12c9c1a412398817f60029c1d62e7bac3b37f5d853f7f",
        "size_in_bytes": 11822
      },
      {
        "_path": "lib/python3.10/site-packages/grpc/beta/interfaces.py",
        "path_type": "hardlink",
        "sha256": "4ecadef73fe7f9de93d107946aa6b7d32851468a6eaadf44c014e069030c1e75",
        "sha256_in_prefix": "4ecadef73fe7f9de93d107946aa6b7d32851468a6eaadf44c014e069030c1e75",
        "size_in_bytes": 5872
      },
      {
        "_path": "lib/python3.10/site-packages/grpc/beta/utilities.py",
        "path_type": "hardlink",
        "sha256": "f8df0c925292c5b06b7840a8e04108f566dbcdb4f270a065e053e8e277e06cc2",
        "sha256_in_prefix": "f8df0c925292c5b06b7840a8e04108f566dbcdb4f270a065e053e8e277e06cc2",
        "size_in_bytes": 4933
      },
      {
        "_path": "lib/python3.10/site-packages/grpc/experimental/__init__.py",
        "path_type": "hardlink",
        "sha256": "94b60450014bc6febf45fc866082ffacc457504f05c23c0cb212e1b33f68e0f8",
        "sha256_in_prefix": "94b60450014bc6febf45fc866082ffacc457504f05c23c0cb212e1b33f68e0f8",
        "size_in_bytes": 4058
      },
      {
        "_path": "lib/python3.10/site-packages/grpc/experimental/__pycache__/__init__.cpython-310.pyc",
        "path_type": "hardlink",
        "sha256": "abc587caafbf1426db671453e65850670c3f73dec3d14a0036fac1b5b448c39d",
        "sha256_in_prefix": "abc587caafbf1426db671453e65850670c3f73dec3d14a0036fac1b5b448c39d",
        "size_in_bytes": 3393
      },
      {
        "_path": "lib/python3.10/site-packages/grpc/experimental/__pycache__/gevent.cpython-310.pyc",
        "path_type": "hardlink",
        "sha256": "294d4994278d55ecdb51901c4d831dca762027f15d0cb78a0ad8ce79ced69d93",
        "sha256_in_prefix": "294d4994278d55ecdb51901c4d831dca762027f15d0cb78a0ad8ce79ced69d93",
        "size_in_bytes": 639
      },
      {
        "_path": "lib/python3.10/site-packages/grpc/experimental/__pycache__/session_cache.cpython-310.pyc",
        "path_type": "hardlink",
        "sha256": "d888f9cf2b9c18fffac412e75dda0e7f9921440b68706cc3574dc8143c7de646",
        "sha256_in_prefix": "d888f9cf2b9c18fffac412e75dda0e7f9921440b68706cc3574dc8143c7de646",
        "size_in_bytes": 1486
      },
      {
        "_path": "lib/python3.10/site-packages/grpc/experimental/aio/__init__.py",
        "path_type": "hardlink",
        "sha256": "6c8c8374605b3478b917f907bf007238d8dce0cffbe2d872e77626043af564fa",
        "sha256_in_prefix": "6c8c8374605b3478b917f907bf007238d8dce0cffbe2d872e77626043af564fa",
        "size_in_bytes": 660
      },
      {
        "_path": "lib/python3.10/site-packages/grpc/experimental/aio/__pycache__/__init__.cpython-310.pyc",
        "path_type": "hardlink",
        "sha256": "1325ad79290c0ebcff57c4cc5bf2e5303d8dc168356316e961d2bb1e787bd025",
        "sha256_in_prefix": "1325ad79290c0ebcff57c4cc5bf2e5303d8dc168356316e961d2bb1e787bd025",
        "size_in_bytes": 246
      },
      {
        "_path": "lib/python3.10/site-packages/grpc/experimental/gevent.py",
        "path_type": "hardlink",
        "sha256": "fd8024f5a1f63c2642a5a0a75bdb8663bed6db5df8d9d1169bcc0e540a53c7cf",
        "sha256_in_prefix": "fd8024f5a1f63c2642a5a0a75bdb8663bed6db5df8d9d1169bcc0e540a53c7cf",
        "size_in_bytes": 973
      },
      {
        "_path": "lib/python3.10/site-packages/grpc/experimental/session_cache.py",
        "path_type": "hardlink",
        "sha256": "c006aebc3cf1bd30bafa9de331b3e74dcef2ef89e10ca4918dbd24b5f30f0a6f",
        "sha256_in_prefix": "c006aebc3cf1bd30bafa9de331b3e74dcef2ef89e10ca4918dbd24b5f30f0a6f",
        "size_in_bytes": 1533
      },
      {
        "_path": "lib/python3.10/site-packages/grpc/framework/__init__.py",
        "path_type": "hardlink",
        "sha256": "c3792a480c9a6603fe5b4f3dd314782f859e04f1abb6c4024097b4154151d0ad",
        "sha256_in_prefix": "c3792a480c9a6603fe5b4f3dd314782f859e04f1abb6c4024097b4154151d0ad",
        "size_in_bytes": 577
      },
      {
        "_path": "lib/python3.10/site-packages/grpc/framework/__pycache__/__init__.cpython-310.pyc",
        "path_type": "hardlink",
        "sha256": "18c2be9549860b56cb420deaa728ac3293fd557a5c5909904d3846ff069f6409",
        "sha256_in_prefix": "18c2be9549860b56cb420deaa728ac3293fd557a5c5909904d3846ff069f6409",
        "size_in_bytes": 148
      },
      {
        "_path": "lib/python3.10/site-packages/grpc/framework/common/__init__.py",
        "path_type": "hardlink",
        "sha256": "c3792a480c9a6603fe5b4f3dd314782f859e04f1abb6c4024097b4154151d0ad",
        "sha256_in_prefix": "c3792a480c9a6603fe5b4f3dd314782f859e04f1abb6c4024097b4154151d0ad",
        "size_in_bytes": 577
      },
      {
        "_path": "lib/python3.10/site-packages/grpc/framework/common/__pycache__/__init__.cpython-310.pyc",
        "path_type": "hardlink",
        "sha256": "192ad0aeb138f3f4dc8cd10bdd7c68db9bd2776e086240a7abddd5da30bc7beb",
        "sha256_in_prefix": "192ad0aeb138f3f4dc8cd10bdd7c68db9bd2776e086240a7abddd5da30bc7beb",
        "size_in_bytes": 155
      },
      {
        "_path": "lib/python3.10/site-packages/grpc/framework/common/__pycache__/cardinality.cpython-310.pyc",
        "path_type": "hardlink",
        "sha256": "bbb4f35d5bbea8254ff14afabdea5ccb2e2537d99b9b3ac966920ddda8ff6d4e",
        "sha256_in_prefix": "bbb4f35d5bbea8254ff14afabdea5ccb2e2537d99b9b3ac966920ddda8ff6d4e",
        "size_in_bytes": 722
      },
      {
        "_path": "lib/python3.10/site-packages/grpc/framework/common/__pycache__/style.cpython-310.pyc",
        "path_type": "hardlink",
        "sha256": "2c6f529ce04c1363661a6b08532683cd31b6f226ad04ca3a96c0e1cee83b584a",
        "sha256_in_prefix": "2c6f529ce04c1363661a6b08532683cd31b6f226ad04ca3a96c0e1cee83b584a",
        "size_in_bytes": 552
      },
      {
        "_path": "lib/python3.10/site-packages/grpc/framework/common/cardinality.py",
        "path_type": "hardlink",
        "sha256": "db403891ab8c89e1bbe2eae0d77443c9c475f3cdb1e5f3d80cfa1a4a144cbe78",
        "sha256_in_prefix": "db403891ab8c89e1bbe2eae0d77443c9c475f3cdb1e5f3d80cfa1a4a144cbe78",
        "size_in_bytes": 988
      },
      {
        "_path": "lib/python3.10/site-packages/grpc/framework/common/style.py",
        "path_type": "hardlink",
        "sha256": "5c68c6203309054500dd8fe569c5b5984216f94a40ad68a2b42e4ef15a9240b9",
        "sha256_in_prefix": "5c68c6203309054500dd8fe569c5b5984216f94a40ad68a2b42e4ef15a9240b9",
        "size_in_bytes": 824
      },
      {
        "_path": "lib/python3.10/site-packages/grpc/framework/foundation/__init__.py",
        "path_type": "hardlink",
        "sha256": "c3792a480c9a6603fe5b4f3dd314782f859e04f1abb6c4024097b4154151d0ad",
        "sha256_in_prefix": "c3792a480c9a6603fe5b4f3dd314782f859e04f1abb6c4024097b4154151d0ad",
        "size_in_bytes": 577
      },
      {
        "_path": "lib/python3.10/site-packages/grpc/framework/foundation/__pycache__/__init__.cpython-310.pyc",
        "path_type": "hardlink",
        "sha256": "36576696a2c102b7bca900fd010990886dd25164146553bb13eafc78360651eb",
        "sha256_in_prefix": "36576696a2c102b7bca900fd010990886dd25164146553bb13eafc78360651eb",
        "size_in_bytes": 159
      },
      {
        "_path": "lib/python3.10/site-packages/grpc/framework/foundation/__pycache__/abandonment.cpython-310.pyc",
        "path_type": "hardlink",
        "sha256": "51ea0f4664eb8585dcffdc7cce064378116a9ee0f8bd4ac9de6733e4f924eb91",
        "sha256_in_prefix": "51ea0f4664eb8585dcffdc7cce064378116a9ee0f8bd4ac9de6733e4f924eb91",
        "size_in_bytes": 603
      },
      {
        "_path": "lib/python3.10/site-packages/grpc/framework/foundation/__pycache__/callable_util.cpython-310.pyc",
        "path_type": "hardlink",
        "sha256": "35ed893c7d0b50f7acca5f64c2c881ab420c485d51feeb5be3b261f1ddb1ad85",
        "sha256_in_prefix": "35ed893c7d0b50f7acca5f64c2c881ab420c485d51feeb5be3b261f1ddb1ad85",
        "size_in_bytes": 3127
      },
      {
        "_path": "lib/python3.10/site-packages/grpc/framework/foundation/__pycache__/future.cpython-310.pyc",
        "path_type": "hardlink",
        "sha256": "c51e794b440bc2384e891f8f05afadf9c6d17a9429d0f984368a83a44c3ef9b2",
        "sha256_in_prefix": "c51e794b440bc2384e891f8f05afadf9c6d17a9429d0f984368a83a44c3ef9b2",
        "size_in_bytes": 6942
      },
      {
        "_path": "lib/python3.10/site-packages/grpc/framework/foundation/__pycache__/logging_pool.cpython-310.pyc",
        "path_type": "hardlink",
        "sha256": "d3a69e4d8a36eb14439566203eb70403330ab351b67671f0a367333086b4926b",
        "sha256_in_prefix": "d3a69e4d8a36eb14439566203eb70403330ab351b67671f0a367333086b4926b",
        "size_in_bytes": 2480
      },
      {
        "_path": "lib/python3.10/site-packages/grpc/framework/foundation/__pycache__/stream.cpython-310.pyc",
        "path_type": "hardlink",
        "sha256": "ab4f0739c2ef5cc7dc1e182780e669402bf0c4ec0b42fa23ca362abd3afee28a",
        "sha256_in_prefix": "ab4f0739c2ef5cc7dc1e182780e669402bf0c4ec0b42fa23ca362abd3afee28a",
        "size_in_bytes": 1205
      },
      {
        "_path": "lib/python3.10/site-packages/grpc/framework/foundation/__pycache__/stream_util.cpython-310.pyc",
        "path_type": "hardlink",
        "sha256": "8aaea4b6e2428eab929364c25e0d7bb4fcf64ab323eba32a89ac3179d7c15a52",
        "sha256_in_prefix": "8aaea4b6e2428eab929364c25e0d7bb4fcf64ab323eba32a89ac3179d7c15a52",
        "size_in_bytes": 4872
      },
      {
        "_path": "lib/python3.10/site-packages/grpc/framework/foundation/abandonment.py",
        "path_type": "hardlink",
        "sha256": "193b8642de4d237ee9d575dd4e5235eef1a2e7e09e70ac8453b49588f5d2a3d1",
        "sha256_in_prefix": "193b8642de4d237ee9d575dd4e5235eef1a2e7e09e70ac8453b49588f5d2a3d1",
        "size_in_bytes": 872
      },
      {
        "_path": "lib/python3.10/site-packages/grpc/framework/foundation/callable_util.py",
        "path_type": "hardlink",
        "sha256": "6f168d0bdca2040b9215dc1d6dc23abe2393ad2c40d4a06708ff7ce8e7c05d57",
        "sha256_in_prefix": "6f168d0bdca2040b9215dc1d6dc23abe2393ad2c40d4a06708ff7ce8e7c05d57",
        "size_in_bytes": 3120
      },
      {
        "_path": "lib/python3.10/site-packages/grpc/framework/foundation/future.py",
        "path_type": "hardlink",
        "sha256": "cf1f79f19ae8784162f224c1d0f4637c76763c5ca57c9a513f67e5309f730e27",
        "sha256_in_prefix": "cf1f79f19ae8784162f224c1d0f4637c76763c5ca57c9a513f67e5309f730e27",
        "size_in_bytes": 8055
      },
      {
        "_path": "lib/python3.10/site-packages/grpc/framework/foundation/logging_pool.py",
        "path_type": "hardlink",
        "sha256": "496c3ea808f8fe7d6af6793868064340cad1af8b7f64e060a80ed07a6cedad22",
        "sha256_in_prefix": "496c3ea808f8fe7d6af6793868064340cad1af8b7f64e060a80ed07a6cedad22",
        "size_in_bytes": 2276
      },
      {
        "_path": "lib/python3.10/site-packages/grpc/framework/foundation/stream.py",
        "path_type": "hardlink",
        "sha256": "df29b103ca8833015bc62578d223f2766ca75f9ee77777ea3efcbf2ff3253938",
        "sha256_in_prefix": "df29b103ca8833015bc62578d223f2766ca75f9ee77777ea3efcbf2ff3253938",
        "size_in_bytes": 1353
      },
      {
        "_path": "lib/python3.10/site-packages/grpc/framework/foundation/stream_util.py",
        "path_type": "hardlink",
        "sha256": "094c7a81e09207dcf081d944d171d770f49bb8b7ae35f0a5b191728ec415301d",
        "sha256_in_prefix": "094c7a81e09207dcf081d944d171d770f49bb8b7ae35f0a5b191728ec415301d",
        "size_in_bytes": 4772
      },
      {
        "_path": "lib/python3.10/site-packages/grpc/framework/interfaces/__init__.py",
        "path_type": "hardlink",
        "sha256": "c3792a480c9a6603fe5b4f3dd314782f859e04f1abb6c4024097b4154151d0ad",
        "sha256_in_prefix": "c3792a480c9a6603fe5b4f3dd314782f859e04f1abb6c4024097b4154151d0ad",
        "size_in_bytes": 577
      },
      {
        "_path": "lib/python3.10/site-packages/grpc/framework/interfaces/__pycache__/__init__.cpython-310.pyc",
        "path_type": "hardlink",
        "sha256": "668c6be1ed3b9da516b1967df32a41467c7c34710c79cd2a2e92bdfc477a03d4",
        "sha256_in_prefix": "668c6be1ed3b9da516b1967df32a41467c7c34710c79cd2a2e92bdfc477a03d4",
        "size_in_bytes": 159
      },
      {
        "_path": "lib/python3.10/site-packages/grpc/framework/interfaces/base/__init__.py",
        "path_type": "hardlink",
        "sha256": "c3792a480c9a6603fe5b4f3dd314782f859e04f1abb6c4024097b4154151d0ad",
        "sha256_in_prefix": "c3792a480c9a6603fe5b4f3dd314782f859e04f1abb6c4024097b4154151d0ad",
        "size_in_bytes": 577
      },
      {
        "_path": "lib/python3.10/site-packages/grpc/framework/interfaces/base/__pycache__/__init__.cpython-310.pyc",
        "path_type": "hardlink",
        "sha256": "43a35491ea65e582f7df7872a77f93749fb97eb002a9383671feca19d70b6a81",
        "sha256_in_prefix": "43a35491ea65e582f7df7872a77f93749fb97eb002a9383671feca19d70b6a81",
        "size_in_bytes": 164
      },
      {
        "_path": "lib/python3.10/site-packages/grpc/framework/interfaces/base/__pycache__/base.cpython-310.pyc",
        "path_type": "hardlink",
        "sha256": "dda7cadb072fd0e6b12b933dbd9018ab720178c866fd206ab11e3cdff70d8477",
        "sha256_in_prefix": "dda7cadb072fd0e6b12b933dbd9018ab720178c866fd206ab11e3cdff70d8477",
        "size_in_bytes": 12782
      },
      {
        "_path": "lib/python3.10/site-packages/grpc/framework/interfaces/base/__pycache__/utilities.cpython-310.pyc",
        "path_type": "hardlink",
        "sha256": "f35880d2e61f6af99345b832cb5447db9611423d2e04af9b0c32f2cd1da316ab",
        "sha256_in_prefix": "f35880d2e61f6af99345b832cb5447db9611423d2e04af9b0c32f2cd1da316ab",
        "size_in_bytes": 1882
      },
      {
        "_path": "lib/python3.10/site-packages/grpc/framework/interfaces/base/base.py",
        "path_type": "hardlink",
        "sha256": "e99e3398d8f44c8175c0ec03f88b8ddba73ced6924d41533de267690ef839026",
        "sha256_in_prefix": "e99e3398d8f44c8175c0ec03f88b8ddba73ced6924d41533de267690ef839026",
        "size_in_bytes": 11866
      },
      {
        "_path": "lib/python3.10/site-packages/grpc/framework/interfaces/base/utilities.py",
        "path_type": "hardlink",
        "sha256": "828aa62511d10fbad72542a29fe1d38b9caa7eea4792de4c63f4100805a217f8",
        "sha256_in_prefix": "828aa62511d10fbad72542a29fe1d38b9caa7eea4792de4c63f4100805a217f8",
        "size_in_bytes": 2455
      },
      {
        "_path": "lib/python3.10/site-packages/grpc/framework/interfaces/face/__init__.py",
        "path_type": "hardlink",
        "sha256": "c3792a480c9a6603fe5b4f3dd314782f859e04f1abb6c4024097b4154151d0ad",
        "sha256_in_prefix": "c3792a480c9a6603fe5b4f3dd314782f859e04f1abb6c4024097b4154151d0ad",
        "size_in_bytes": 577
      },
      {
        "_path": "lib/python3.10/site-packages/grpc/framework/interfaces/face/__pycache__/__init__.cpython-310.pyc",
        "path_type": "hardlink",
        "sha256": "067bcc864a912bf71b4ee90191e4e407f7e73c3f424612a0375f4d64692ceadb",
        "sha256_in_prefix": "067bcc864a912bf71b4ee90191e4e407f7e73c3f424612a0375f4d64692ceadb",
        "size_in_bytes": 164
      },
      {
        "_path": "lib/python3.10/site-packages/grpc/framework/interfaces/face/__pycache__/face.cpython-310.pyc",
        "path_type": "hardlink",
        "sha256": "1b6b41dae987fb5aaa262af3d228352b922cdf00a58c7c224517464f592771c3",
        "sha256_in_prefix": "1b6b41dae987fb5aaa262af3d228352b922cdf00a58c7c224517464f592771c3",
        "size_in_bytes": 37883
      },
      {
        "_path": "lib/python3.10/site-packages/grpc/framework/interfaces/face/__pycache__/utilities.cpython-310.pyc",
        "path_type": "hardlink",
        "sha256": "b0cb0ddfd64724d1825627502dcd2755a7f899179af955701a5acbe79d59d5f1",
        "sha256_in_prefix": "b0cb0ddfd64724d1825627502dcd2755a7f899179af955701a5acbe79d59d5f1",
        "size_in_bytes": 5266
      },
      {
        "_path": "lib/python3.10/site-packages/grpc/framework/interfaces/face/face.py",
        "path_type": "hardlink",
        "sha256": "6173fa4ac7a673cf9bc5e08a53ab983a5330321ec5bff1b6b6d9a22fa36c89e1",
        "sha256_in_prefix": "6173fa4ac7a673cf9bc5e08a53ab983a5330321ec5bff1b6b6d9a22fa36c89e1",
        "size_in_bytes": 39339
      },
      {
        "_path": "lib/python3.10/site-packages/grpc/framework/interfaces/face/utilities.py",
        "path_type": "hardlink",
        "sha256": "c9e83daa72b7676d961273b1a414b2fa3b7893019d5e905a96d05d5dae9c7d15",
        "sha256_in_prefix": "c9e83daa72b7676d961273b1a414b2fa3b7893019d5e905a96d05d5dae9c7d15",
        "size_in_bytes": 6711
      },
      {
        "_path": "lib/python3.10/site-packages/grpcio-1.51.1.dist-info/INSTALLER",
        "path_type": "hardlink",
        "sha256": "d0edee15f91b406f3f99726e44eb990be6e34fd0345b52b910c568e0eef6a2a8",
        "sha256_in_prefix": "d0edee15f91b406f3f99726e44eb990be6e34fd0345b52b910c568e0eef6a2a8",
        "size_in_bytes": 5
      },
      {
        "_path": "lib/python3.10/site-packages/grpcio-1.51.1.dist-info/LICENSE",
        "path_type": "hardlink",
        "sha256": "590198e3f305f2c347fde64d637c65492bbef554db6c8364e149cd375e3797ee",
        "sha256_in_prefix": "590198e3f305f2c347fde64d637c65492bbef554db6c8364e149cd375e3797ee",
        "size_in_bytes": 29687
      },
      {
        "_path": "lib/python3.10/site-packages/grpcio-1.51.1.dist-info/METADATA",
        "path_type": "hardlink",
        "sha256": "b91b8f1d3aaf0ac20e5db1b6d98603255bd0f858c0de8bacf920b2e77f9cafac",
        "sha256_in_prefix": "b91b8f1d3aaf0ac20e5db1b6d98603255bd0f858c0de8bacf920b2e77f9cafac",
        "size_in_bytes": 3779
      },
      {
        "_path": "lib/python3.10/site-packages/grpcio-1.51.1.dist-info/RECORD",
        "path_type": "hardlink",
        "sha256": "0c46d96fad93d478ddf9483fdc51afcc676b8c75d46e636913afd9170ca219b0",
        "sha256_in_prefix": "0c46d96fad93d478ddf9483fdc51afcc676b8c75d46e636913afd9170ca219b0",
        "size_in_bytes": 8655
      },
      {
        "_path": "lib/python3.10/site-packages/grpcio-1.51.1.dist-info/REQUESTED",
        "path_type": "hardlink",
        "sha256": "e3b0c44298fc1c149afbf4c8996fb92427ae41e4649b934ca495991b7852b855",
        "sha256_in_prefix": "e3b0c44298fc1c149afbf4c8996fb92427ae41e4649b934ca495991b7852b855",
        "size_in_bytes": 0
      },
      {
        "_path": "lib/python3.10/site-packages/grpcio-1.51.1.dist-info/WHEEL",
        "path_type": "hardlink",
        "sha256": "61121dc889c3ed909a67a21a5dc4fba3a3e007384a69efe09bad4d12300e89da",
        "sha256_in_prefix": "61121dc889c3ed909a67a21a5dc4fba3a3e007384a69efe09bad4d12300e89da",
        "size_in_bytes": 112
      },
      {
        "_path": "lib/python3.10/site-packages/grpcio-1.51.1.dist-info/direct_url.json",
        "path_type": "hardlink",
        "sha256": "b039cc78086b6323f615296a873d815a74ce7b85922f4c73935690fe62c8bd20",
        "sha256_in_prefix": "b039cc78086b6323f615296a873d815a74ce7b85922f4c73935690fe62c8bd20",
        "size_in_bytes": 98
      },
      {
        "_path": "lib/python3.10/site-packages/grpcio-1.51.1.dist-info/top_level.txt",
        "path_type": "hardlink",
        "sha256": "78477626afda550169dfc6d65bc3dfc23cffe6289ba9e3854fedb35e53c0abff",
        "sha256_in_prefix": "78477626afda550169dfc6d65bc3dfc23cffe6289ba9e3854fedb35e53c0abff",
        "size_in_bytes": 5
      }
    ],
    "paths_version": 1
  },
  "requested_spec": "None",
  "sha256": "95ba4d1e42a1d42e56609462394a31ce94e1840ab653ed13309116ccabdc69db",
  "size": 694585,
  "subdir": "osx-64",
  "timestamp": 1675290982791,
  "track_features": "",
  "url": "https://conda.anaconda.org/conda-forge/osx-64/grpcio-1.51.1-py310hdfcfac3_1.conda",
  "version": "1.51.1"
}