{
  "build": "pyh9f0ad1d_0",
  "build_number": 0,
  "channel": "https://conda.anaconda.org/conda-forge/noarch",
  "constrains": [],
  "depends": [
    "python"
  ],
  "extracted_package_dir": "/Users/grokkingstuff/miniforge3/pkgs/json5-0.9.5-pyh9f0ad1d_0",
  "features": "",
  "files": [
    "lib/python3.10/site-packages/json5-0.9.5.dist-info/INSTALLER",
    "lib/python3.10/site-packages/json5-0.9.5.dist-info/METADATA",
    "lib/python3.10/site-packages/json5-0.9.5.dist-info/RECORD",
    "lib/python3.10/site-packages/json5-0.9.5.dist-info/REQUESTED",
    "lib/python3.10/site-packages/json5-0.9.5.dist-info/WHEEL",
    "lib/python3.10/site-packages/json5-0.9.5.dist-info/direct_url.json",
    "lib/python3.10/site-packages/json5-0.9.5.dist-info/entry_points.txt",
    "lib/python3.10/site-packages/json5-0.9.5.dist-info/top_level.txt",
    "lib/python3.10/site-packages/json5/__init__.py",
    "lib/python3.10/site-packages/json5/__main__.py",
    "lib/python3.10/site-packages/json5/arg_parser.py",
    "lib/python3.10/site-packages/json5/host.py",
    "lib/python3.10/site-packages/json5/lib.py",
    "lib/python3.10/site-packages/json5/parser.py",
    "lib/python3.10/site-packages/json5/tool.py",
    "lib/python3.10/site-packages/json5/version.py",
    "lib/python3.10/site-packages/json5/__pycache__/__init__.cpython-310.pyc",
    "lib/python3.10/site-packages/json5/__pycache__/__main__.cpython-310.pyc",
    "lib/python3.10/site-packages/json5/__pycache__/arg_parser.cpython-310.pyc",
    "lib/python3.10/site-packages/json5/__pycache__/host.cpython-310.pyc",
    "lib/python3.10/site-packages/json5/__pycache__/lib.cpython-310.pyc",
    "lib/python3.10/site-packages/json5/__pycache__/parser.cpython-310.pyc",
    "lib/python3.10/site-packages/json5/__pycache__/tool.cpython-310.pyc",
    "lib/python3.10/site-packages/json5/__pycache__/version.cpython-310.pyc",
    "bin/pyjson5"
  ],
  "fn": "json5-0.9.5-pyh9f0ad1d_0.tar.bz2",
  "license": "Apache-2.0",
  "license_family": "Apache",
  "link": {
    "source": "/Users/grokkingstuff/miniforge3/pkgs/json5-0.9.5-pyh9f0ad1d_0",
    "type": 1
  },
  "md5": "10759827a94e6b14996e81fb002c0bda",
  "name": "json5",
  "noarch": "python",
  "package_tarball_full_path": "/Users/grokkingstuff/miniforge3/pkgs/json5-0.9.5-pyh9f0ad1d_0.tar.bz2",
  "package_type": "noarch_python",
  "paths_data": {
    "paths": [
      {
        "_path": "site-packages/json5-0.9.5.dist-info/INSTALLER",
        "path_type": "hardlink",
        "sha256": "d0edee15f91b406f3f99726e44eb990be6e34fd0345b52b910c568e0eef6a2a8",
        "sha256_in_prefix": "d0edee15f91b406f3f99726e44eb990be6e34fd0345b52b910c568e0eef6a2a8",
        "size_in_bytes": 5
      },
      {
        "_path": "site-packages/json5-0.9.5.dist-info/METADATA",
        "path_type": "hardlink",
        "sha256": "14ea7362647cc93ffb386939bc7cb414b7c52a404fca4b60fe27ced82b877e52",
        "sha256_in_prefix": "14ea7362647cc93ffb386939bc7cb414b7c52a404fca4b60fe27ced82b877e52",
        "size_in_bytes": 7278
      },
      {
        "_path": "site-packages/json5-0.9.5.dist-info/RECORD",
        "path_type": "hardlink",
        "sha256": "65ac9228cdfc2d08169cf5efa16f91f7aa861553779260aab1b7116e95866972",
        "sha256_in_prefix": "65ac9228cdfc2d08169cf5efa16f91f7aa861553779260aab1b7116e95866972",
        "size_in_bytes": 1662
      },
      {
        "_path": "site-packages/json5-0.9.5.dist-info/REQUESTED",
        "path_type": "hardlink",
        "sha256": "e3b0c44298fc1c149afbf4c8996fb92427ae41e4649b934ca495991b7852b855",
        "sha256_in_prefix": "e3b0c44298fc1c149afbf4c8996fb92427ae41e4649b934ca495991b7852b855",
        "size_in_bytes": 0
      },
      {
        "_path": "site-packages/json5-0.9.5.dist-info/WHEEL",
        "path_type": "hardlink",
        "sha256": "00329ec9a1b2285e43c01344d2c444e69bd6f9b4a414c25f06e873677adc78fe",
        "sha256_in_prefix": "00329ec9a1b2285e43c01344d2c444e69bd6f9b4a414c25f06e873677adc78fe",
        "size_in_bytes": 110
      },
      {
        "_path": "site-packages/json5-0.9.5.dist-info/direct_url.json",
        "path_type": "hardlink",
        "sha256": "6855c7a1f1dcca9252e6113440a3809d7d7fd83c642a79676d6050dffaefe241",
        "sha256_in_prefix": "6855c7a1f1dcca9252e6113440a3809d7d7fd83c642a79676d6050dffaefe241",
        "size_in_bytes": 101
      },
      {
        "_path": "site-packages/json5-0.9.5.dist-info/entry_points.txt",
        "path_type": "hardlink",
        "sha256": "73c5985d53d580bcfa1888d5bbe7788fd182793268c914a6b5d701e23bfcfa9b",
        "sha256_in_prefix": "73c5985d53d580bcfa1888d5bbe7788fd182793268c914a6b5d701e23bfcfa9b",
        "size_in_bytes": 45
      },
      {
        "_path": "site-packages/json5-0.9.5.dist-info/top_level.txt",
        "path_type": "hardlink",
        "sha256": "e25aac985a11720fb52b48547ae21bc5804e77ee34060c3ca45f41759c240bb9",
        "sha256_in_prefix": "e25aac985a11720fb52b48547ae21bc5804e77ee34060c3ca45f41759c240bb9",
        "size_in_bytes": 6
      },
      {
        "_path": "site-packages/json5/__init__.py",
        "path_type": "hardlink",
        "sha256": "417e4532917217d19110c6381aed0b31a883cba80d058df0ab6bb0fc17fa49d0",
        "sha256_in_prefix": "417e4532917217d19110c6381aed0b31a883cba80d058df0ab6bb0fc17fa49d0",
        "size_in_bytes": 821
      },
      {
        "_path": "site-packages/json5/__main__.py",
        "path_type": "hardlink",
        "sha256": "3ef39ff8f9c281315c4a93f909ae425a689aa6251317c16fd0effd36aeaca8a1",
        "sha256_in_prefix": "3ef39ff8f9c281315c4a93f909ae425a689aa6251317c16fd0effd36aeaca8a1",
        "size_in_bytes": 741
      },
      {
        "_path": "site-packages/json5/arg_parser.py",
        "path_type": "hardlink",
        "sha256": "d5312510552e719f26778dbe7740dbf3c1d52d4065bd62dd62d3446b773502b0",
        "sha256_in_prefix": "d5312510552e719f26778dbe7740dbf3c1d52d4065bd62dd62d3446b773502b0",
        "size_in_bytes": 2130
      },
      {
        "_path": "site-packages/json5/host.py",
        "path_type": "hardlink",
        "sha256": "7db8d7b739235e1d111025e0529dc8314e3695589b14488ca03066eb1c60b034",
        "sha256_in_prefix": "7db8d7b739235e1d111025e0529dc8314e3695589b14488ca03066eb1c60b034",
        "size_in_bytes": 1635
      },
      {
        "_path": "site-packages/json5/lib.py",
        "path_type": "hardlink",
        "sha256": "dbd9409b175c687bcdaf12c46b41d05b26de3d22255381b036776c1a1523e650",
        "sha256_in_prefix": "dbd9409b175c687bcdaf12c46b41d05b26de3d22255381b036776c1a1523e650",
        "size_in_bytes": 17762
      },
      {
        "_path": "site-packages/json5/parser.py",
        "path_type": "hardlink",
        "sha256": "edb17ba768681fec1a9591fa5fa527171b815bf6b4754d905d715c06249fc678",
        "sha256_in_prefix": "edb17ba768681fec1a9591fa5fa527171b815bf6b4754d905d715c06249fc678",
        "size_in_bytes": 29427
      },
      {
        "_path": "site-packages/json5/tool.py",
        "path_type": "hardlink",
        "sha256": "13b795359550e2513e2f63f3aca1d3741b9b54b23ac8d3a4ba75f2ca80843ab2",
        "sha256_in_prefix": "13b795359550e2513e2f63f3aca1d3741b9b54b23ac8d3a4ba75f2ca80843ab2",
        "size_in_bytes": 3690
      },
      {
        "_path": "site-packages/json5/version.py",
        "path_type": "hardlink",
        "sha256": "fb0c76a8916cb513bb3a2fd0c9447bf33a2bd33c88b1b91de6f4f9386dda2af1",
        "sha256_in_prefix": "fb0c76a8916cb513bb3a2fd0c9447bf33a2bd33c88b1b91de6f4f9386dda2af1",
        "size_in_bytes": 614
      },
      {
        "_path": "lib/python3.10/site-packages/json5/__pycache__/__init__.cpython-310.pyc",
        "path_type": "pyc_file"
      },
      {
        "_path": "lib/python3.10/site-packages/json5/__pycache__/__main__.cpython-310.pyc",
        "path_type": "pyc_file"
      },
      {
        "_path": "lib/python3.10/site-packages/json5/__pycache__/arg_parser.cpython-310.pyc",
        "path_type": "pyc_file"
      },
      {
        "_path": "lib/python3.10/site-packages/json5/__pycache__/host.cpython-310.pyc",
        "path_type": "pyc_file"
      },
      {
        "_path": "lib/python3.10/site-packages/json5/__pycache__/lib.cpython-310.pyc",
        "path_type": "pyc_file"
      },
      {
        "_path": "lib/python3.10/site-packages/json5/__pycache__/parser.cpython-310.pyc",
        "path_type": "pyc_file"
      },
      {
        "_path": "lib/python3.10/site-packages/json5/__pycache__/tool.cpython-310.pyc",
        "path_type": "pyc_file"
      },
      {
        "_path": "lib/python3.10/site-packages/json5/__pycache__/version.cpython-310.pyc",
        "path_type": "pyc_file"
      },
      {
        "_path": "bin/pyjson5",
        "path_type": "unix_python_entry_point"
      }
    ],
    "paths_version": 1
  },
  "requested_spec": "None",
  "sha256": "3ca2456b121bf25e102581b45713530b8e9c0fb92f2e720880948ec85360017a",
  "size": 20937,
  "subdir": "noarch",
  "timestamp": 1600692425187,
  "track_features": "",
  "url": "https://conda.anaconda.org/conda-forge/noarch/json5-0.9.5-pyh9f0ad1d_0.tar.bz2",
  "version": "0.9.5"
}