{
  "build": "pyhd8ed1ab_0",
  "build_number": 0,
  "channel": "https://conda.anaconda.org/conda-forge/noarch",
  "constrains": [],
  "depends": [
    "jupyter_server_fileid >=0.6.0,<1",
    "jupyter_ydoc >=0.2.0,<0.4.0",
    "python >=3.7",
    "ypy-websocket >=0.8.2,<0.9.0"
  ],
  "extracted_package_dir": "/Users/grokkingstuff/miniforge3/pkgs/jupyter_server_ydoc-0.6.1-pyhd8ed1ab_0",
  "features": "",
  "files": [
    "etc/jupyter/jupyter_notebook_config.d/jupyter_server_ydoc.json",
    "etc/jupyter/jupyter_server_config.d/jupyter_server_ydoc.json",
    "lib/python3.10/site-packages/jupyter_server_ydoc-0.6.1.dist-info/INSTALLER",
    "lib/python3.10/site-packages/jupyter_server_ydoc-0.6.1.dist-info/METADATA",
    "lib/python3.10/site-packages/jupyter_server_ydoc-0.6.1.dist-info/RECORD",
    "lib/python3.10/site-packages/jupyter_server_ydoc-0.6.1.dist-info/REQUESTED",
    "lib/python3.10/site-packages/jupyter_server_ydoc-0.6.1.dist-info/WHEEL",
    "lib/python3.10/site-packages/jupyter_server_ydoc-0.6.1.dist-info/direct_url.json",
    "lib/python3.10/site-packages/jupyter_server_ydoc-0.6.1.dist-info/licenses/LICENSE",
    "lib/python3.10/site-packages/jupyter_server_ydoc/__init__.py",
    "lib/python3.10/site-packages/jupyter_server_ydoc/app.py",
    "lib/python3.10/site-packages/jupyter_server_ydoc/handlers.py",
    "lib/python3.10/site-packages/jupyter_server_ydoc/__pycache__/__init__.cpython-310.pyc",
    "lib/python3.10/site-packages/jupyter_server_ydoc/__pycache__/app.cpython-310.pyc",
    "lib/python3.10/site-packages/jupyter_server_ydoc/__pycache__/handlers.cpython-310.pyc"
  ],
  "fn": "jupyter_server_ydoc-0.6.1-pyhd8ed1ab_0.conda",
  "license": "BSD-3-Clause",
  "license_family": "BSD",
  "link": {
    "source": "/Users/grokkingstuff/miniforge3/pkgs/jupyter_server_ydoc-0.6.1-pyhd8ed1ab_0",
    "type": 1
  },
  "md5": "5e7c218ead368b3c9fffa57a35c16446",
  "name": "jupyter_server_ydoc",
  "noarch": "python",
  "package_tarball_full_path": "/Users/grokkingstuff/miniforge3/pkgs/jupyter_server_ydoc-0.6.1-pyhd8ed1ab_0.conda",
  "package_type": "noarch_python",
  "paths_data": {
    "paths": [
      {
        "_path": "etc/jupyter/jupyter_notebook_config.d/jupyter_server_ydoc.json",
        "path_type": "hardlink",
        "sha256": "e2a3ee882f35ef44849f2ca4dae26ee7506041bfb4665f55c256340f4cd22c2a",
        "sha256_in_prefix": "e2a3ee882f35ef44849f2ca4dae26ee7506041bfb4665f55c256340f4cd22c2a",
        "size_in_bytes": 96
      },
      {
        "_path": "etc/jupyter/jupyter_server_config.d/jupyter_server_ydoc.json",
        "path_type": "hardlink",
        "sha256": "d2d861da1254c402a46529a7789306d14e902518dd33acc6970ad379d12df899",
        "sha256_in_prefix": "d2d861da1254c402a46529a7789306d14e902518dd33acc6970ad379d12df899",
        "size_in_bytes": 94
      },
      {
        "_path": "site-packages/jupyter_server_ydoc-0.6.1.dist-info/INSTALLER",
        "path_type": "hardlink",
        "sha256": "d0edee15f91b406f3f99726e44eb990be6e34fd0345b52b910c568e0eef6a2a8",
        "sha256_in_prefix": "d0edee15f91b406f3f99726e44eb990be6e34fd0345b52b910c568e0eef6a2a8",
        "size_in_bytes": 5
      },
      {
        "_path": "site-packages/jupyter_server_ydoc-0.6.1.dist-info/METADATA",
        "path_type": "hardlink",
        "sha256": "3acce5ee6efefd3ff2335296b5bc2a768fd0802bdca0baa22271ef1dac7e81da",
        "sha256_in_prefix": "3acce5ee6efefd3ff2335296b5bc2a768fd0802bdca0baa22271ef1dac7e81da",
        "size_in_bytes": 5321
      },
      {
        "_path": "site-packages/jupyter_server_ydoc-0.6.1.dist-info/RECORD",
        "path_type": "hardlink",
        "sha256": "e33cddd623fbb21323534b2123edb6447033314aa0858e80ccabcd99c75aeeee",
        "sha256_in_prefix": "e33cddd623fbb21323534b2123edb6447033314aa0858e80ccabcd99c75aeeee",
        "size_in_bytes": 1352
      },
      {
        "_path": "site-packages/jupyter_server_ydoc-0.6.1.dist-info/REQUESTED",
        "path_type": "hardlink",
        "sha256": "e3b0c44298fc1c149afbf4c8996fb92427ae41e4649b934ca495991b7852b855",
        "sha256_in_prefix": "e3b0c44298fc1c149afbf4c8996fb92427ae41e4649b934ca495991b7852b855",
        "size_in_bytes": 0
      },
      {
        "_path": "site-packages/jupyter_server_ydoc-0.6.1.dist-info/WHEEL",
        "path_type": "hardlink",
        "sha256": "35a2e68071d6fdff634efbffc1187dbdc2bb73b10af68e5fc2c21730ece81a03",
        "sha256_in_prefix": "35a2e68071d6fdff634efbffc1187dbdc2bb73b10af68e5fc2c21730ece81a03",
        "size_in_bytes": 87
      },
      {
        "_path": "site-packages/jupyter_server_ydoc-0.6.1.dist-info/direct_url.json",
        "path_type": "hardlink",
        "sha256": "68bb6d04b0071bcab2dcb7f5f157e2aae7e74021ac4bbf7e2e2a032fce1803d1",
        "sha256_in_prefix": "68bb6d04b0071bcab2dcb7f5f157e2aae7e74021ac4bbf7e2e2a032fce1803d1",
        "size_in_bytes": 115
      },
      {
        "_path": "site-packages/jupyter_server_ydoc-0.6.1.dist-info/licenses/LICENSE",
        "path_type": "hardlink",
        "sha256": "9a13b4656f4489638f834754801fa535b274086c1199375b78083fb1ed523a76",
        "sha256_in_prefix": "9a13b4656f4489638f834754801fa535b274086c1199375b78083fb1ed523a76",
        "size_in_bytes": 2833
      },
      {
        "_path": "site-packages/jupyter_server_ydoc/__init__.py",
        "path_type": "hardlink",
        "sha256": "e9302a8ee9334044f001facff5208a85ab40d2a440401fddd5504d414ebdc325",
        "sha256_in_prefix": "e9302a8ee9334044f001facff5208a85ab40d2a440401fddd5504d414ebdc325",
        "size_in_bytes": 225
      },
      {
        "_path": "site-packages/jupyter_server_ydoc/app.py",
        "path_type": "hardlink",
        "sha256": "5db8a3d6af2bcbc504d2aff1c11c93f3f627ef0d296184b0749ffc668c9f9a40",
        "sha256_in_prefix": "5db8a3d6af2bcbc504d2aff1c11c93f3f627ef0d296184b0749ffc668c9f9a40",
        "size_in_bytes": 2322
      },
      {
        "_path": "site-packages/jupyter_server_ydoc/handlers.py",
        "path_type": "hardlink",
        "sha256": "ad14bf197b622ba136fafca41ff41ac360f170337228a119cb287b31b4c3199a",
        "sha256_in_prefix": "ad14bf197b622ba136fafca41ff41ac360f170337228a119cb287b31b4c3199a",
        "size_in_bytes": 16822
      },
      {
        "_path": "lib/python3.10/site-packages/jupyter_server_ydoc/__pycache__/__init__.cpython-310.pyc",
        "path_type": "pyc_file"
      },
      {
        "_path": "lib/python3.10/site-packages/jupyter_server_ydoc/__pycache__/app.cpython-310.pyc",
        "path_type": "pyc_file"
      },
      {
        "_path": "lib/python3.10/site-packages/jupyter_server_ydoc/__pycache__/handlers.cpython-310.pyc",
        "path_type": "pyc_file"
      }
    ],
    "paths_version": 1
  },
  "requested_spec": "None",
  "sha256": "15b2fb5eb03b511c6bfa32cc3f1ea90fef647379bb4a920f9ddbcfe3ae0db6e8",
  "size": 15026,
  "subdir": "noarch",
  "timestamp": 1670336991098,
  "track_features": "",
  "url": "https://conda.anaconda.org/conda-forge/noarch/jupyter_server_ydoc-0.6.1-pyhd8ed1ab_0.conda",
  "version": "0.6.1"
}