{
  "build": "py310ha23aa8a_1",
  "build_number": 1,
  "channel": "https://conda.anaconda.org/conda-forge/osx-64",
  "constrains": [],
  "depends": [
    "libcxx >=14.0.4",
    "python >=3.10,<3.11.0a0",
    "python_abi 3.10.* *_cp310"
  ],
  "extracted_package_dir": "/Users/grokkingstuff/miniforge3/pkgs/kiwisolver-1.4.4-py310ha23aa8a_1",
  "features": "",
  "files": [
    "lib/python3.10/site-packages/kiwisolver-1.4.4.dist-info/INSTALLER",
    "lib/python3.10/site-packages/kiwisolver-1.4.4.dist-info/LICENSE",
    "lib/python3.10/site-packages/kiwisolver-1.4.4.dist-info/METADATA",
    "lib/python3.10/site-packages/kiwisolver-1.4.4.dist-info/RECORD",
    "lib/python3.10/site-packages/kiwisolver-1.4.4.dist-info/REQUESTED",
    "lib/python3.10/site-packages/kiwisolver-1.4.4.dist-info/WHEEL",
    "lib/python3.10/site-packages/kiwisolver-1.4.4.dist-info/direct_url.json",
    "lib/python3.10/site-packages/kiwisolver-1.4.4.dist-info/top_level.txt",
    "lib/python3.10/site-packages/kiwisolver/__init__.py",
    "lib/python3.10/site-packages/kiwisolver/__pycache__/__init__.cpython-310.pyc",
    "lib/python3.10/site-packages/kiwisolver/_cext.cpython-310-darwin.so",
    "lib/python3.10/site-packages/kiwisolver/_cext.pyi",
    "lib/python3.10/site-packages/kiwisolver/py.typed"
  ],
  "fn": "kiwisolver-1.4.4-py310ha23aa8a_1.tar.bz2",
  "license": "BSD-3-Clause",
  "license_family": "BSD",
  "link": {
    "source": "/Users/grokkingstuff/miniforge3/pkgs/kiwisolver-1.4.4-py310ha23aa8a_1",
    "type": 1
  },
  "md5": "cc358fb878ac593c60cea08b28ac7423",
  "name": "kiwisolver",
  "package_tarball_full_path": "/Users/grokkingstuff/miniforge3/pkgs/kiwisolver-1.4.4-py310ha23aa8a_1.tar.bz2",
  "paths_data": {
    "paths": [
      {
        "_path": "lib/python3.10/site-packages/kiwisolver-1.4.4.dist-info/INSTALLER",
        "path_type": "hardlink",
        "sha256": "d0edee15f91b406f3f99726e44eb990be6e34fd0345b52b910c568e0eef6a2a8",
        "sha256_in_prefix": "d0edee15f91b406f3f99726e44eb990be6e34fd0345b52b910c568e0eef6a2a8",
        "size_in_bytes": 5
      },
      {
        "_path": "lib/python3.10/site-packages/kiwisolver-1.4.4.dist-info/LICENSE",
        "path_type": "hardlink",
        "sha256": "26da8d49744796f2601fb5fe9e5d8b9e8102064ca60a8dc1825b6177cb05450c",
        "sha256_in_prefix": "26da8d49744796f2601fb5fe9e5d8b9e8102064ca60a8dc1825b6177cb05450c",
        "size_in_bytes": 3279
      },
      {
        "_path": "lib/python3.10/site-packages/kiwisolver-1.4.4.dist-info/METADATA",
        "path_type": "hardlink",
        "sha256": "1ac3967c7be353b33dd858baf1c8c803f919b28160682408a2db300a15aae083",
        "sha256_in_prefix": "1ac3967c7be353b33dd858baf1c8c803f919b28160682408a2db300a15aae083",
        "size_in_bytes": 6325
      },
      {
        "_path": "lib/python3.10/site-packages/kiwisolver-1.4.4.dist-info/RECORD",
        "path_type": "hardlink",
        "sha256": "3ee91451f0551538194e8a4431b16d53de89e90b03fcdb78f8e7a52c0a4d4266",
        "sha256_in_prefix": "3ee91451f0551538194e8a4431b16d53de89e90b03fcdb78f8e7a52c0a4d4266",
        "size_in_bytes": 1067
      },
      {
        "_path": "lib/python3.10/site-packages/kiwisolver-1.4.4.dist-info/REQUESTED",
        "path_type": "hardlink",
        "sha256": "e3b0c44298fc1c149afbf4c8996fb92427ae41e4649b934ca495991b7852b855",
        "sha256_in_prefix": "e3b0c44298fc1c149afbf4c8996fb92427ae41e4649b934ca495991b7852b855",
        "size_in_bytes": 0
      },
      {
        "_path": "lib/python3.10/site-packages/kiwisolver-1.4.4.dist-info/WHEEL",
        "path_type": "hardlink",
        "sha256": "c075cf8dc1753dbbeb6a5ad90197df68145f316f2effb77e2feab7b25212ec6a",
        "sha256_in_prefix": "c075cf8dc1753dbbeb6a5ad90197df68145f316f2effb77e2feab7b25212ec6a",
        "size_in_bytes": 111
      },
      {
        "_path": "lib/python3.10/site-packages/kiwisolver-1.4.4.dist-info/direct_url.json",
        "path_type": "hardlink",
        "sha256": "af5947692d476d7a390e2b16951f3b665817e6ddadb928fa7549bac58637a3a5",
        "sha256_in_prefix": "af5947692d476d7a390e2b16951f3b665817e6ddadb928fa7549bac58637a3a5",
        "size_in_bytes": 98
      },
      {
        "_path": "lib/python3.10/site-packages/kiwisolver-1.4.4.dist-info/top_level.txt",
        "path_type": "hardlink",
        "sha256": "0616c30cca524d69650b2d4b9f487c800e731e4ace6688266ebe4d826def3a13",
        "sha256_in_prefix": "0616c30cca524d69650b2d4b9f487c800e731e4ace6688266ebe4d826def3a13",
        "size_in_bytes": 15
      },
      {
        "_path": "lib/python3.10/site-packages/kiwisolver/__init__.py",
        "path_type": "hardlink",
        "sha256": "830def84c991e1f06ba41d281e7ef38b007d51893501d1f3b075d3bf7c897db6",
        "sha256_in_prefix": "830def84c991e1f06ba41d281e7ef38b007d51893501d1f3b075d3bf7c897db6",
        "size_in_bytes": 985
      },
      {
        "_path": "lib/python3.10/site-packages/kiwisolver/__pycache__/__init__.cpython-310.pyc",
        "path_type": "hardlink",
        "sha256": "34619616aef72c5ad5dd0344d7532fdaa840c000624a332ef391f6d1600f0428",
        "sha256_in_prefix": "34619616aef72c5ad5dd0344d7532fdaa840c000624a332ef391f6d1600f0428",
        "size_in_bytes": 599
      },
      {
        "_path": "lib/python3.10/site-packages/kiwisolver/_cext.cpython-310-darwin.so",
        "path_type": "hardlink",
        "sha256": "47015c5284209f22e46b45608290e1898e38ca9933576259fdbdf58671c9e254",
        "sha256_in_prefix": "47015c5284209f22e46b45608290e1898e38ca9933576259fdbdf58671c9e254",
        "size_in_bytes": 160720
      },
      {
        "_path": "lib/python3.10/site-packages/kiwisolver/_cext.pyi",
        "path_type": "hardlink",
        "sha256": "5980e5dce7b60b66a8ebf1ab77c3601d6ffc80ca0b2c8bef94f4bc06f6931746",
        "sha256_in_prefix": "5980e5dce7b60b66a8ebf1ab77c3601d6ffc80ca0b2c8bef94f4bc06f6931746",
        "size_in_bytes": 8812
      },
      {
        "_path": "lib/python3.10/site-packages/kiwisolver/py.typed",
        "path_type": "hardlink",
        "sha256": "e3b0c44298fc1c149afbf4c8996fb92427ae41e4649b934ca495991b7852b855",
        "sha256_in_prefix": "e3b0c44298fc1c149afbf4c8996fb92427ae41e4649b934ca495991b7852b855",
        "size_in_bytes": 0
      }
    ],
    "paths_version": 1
  },
  "requested_spec": "None",
  "sha256": "6b48d27a14c68978d7bfd4e676a366db64264edd7d7bb5545e9c54aee2a8aea4",
  "size": 64677,
  "subdir": "osx-64",
  "timestamp": 1666806230809,
  "track_features": "",
  "url": "https://conda.anaconda.org/conda-forge/osx-64/kiwisolver-1.4.4-py310ha23aa8a_1.tar.bz2",
  "version": "1.4.4"
}