{
  "build": "h049b76e_0",
  "build_number": 0,
  "channel": "https://conda.anaconda.org/conda-forge/osx-64",
  "constrains": [],
  "depends": [
    "libcxx >=14.0.6",
    "libedit >=3.1.20191231,<3.2.0a0",
    "libedit >=3.1.20191231,<4.0a0",
    "openssl >=3.0.7,<4.0a0"
  ],
  "extracted_package_dir": "/Users/grokkingstuff/miniforge3/pkgs/krb5-1.20.1-h049b76e_0",
  "features": "",
  "files": [
    "bin/compile_et",
    "bin/gss-client",
    "bin/k5srvutil",
    "bin/kadmin",
    "bin/kdestroy",
    "bin/kinit",
    "bin/klist",
    "bin/kpasswd",
    "bin/krb5-config",
    "bin/kswitch",
    "bin/ktutil",
    "bin/kvno",
    "bin/sclient",
    "bin/sim_client",
    "bin/uuclient",
    "include/com_err.h",
    "include/gssapi.h",
    "include/gssapi/gssapi.h",
    "include/gssapi/gssapi_alloc.h",
    "include/gssapi/gssapi_ext.h",
    "include/gssapi/gssapi_generic.h",
    "include/gssapi/gssapi_krb5.h",
    "include/gssapi/mechglue.h",
    "include/gssrpc/auth.h",
    "include/gssrpc/auth_gss.h",
    "include/gssrpc/auth_gssapi.h",
    "include/gssrpc/auth_unix.h",
    "include/gssrpc/clnt.h",
    "include/gssrpc/netdb.h",
    "include/gssrpc/pmap_clnt.h",
    "include/gssrpc/pmap_prot.h",
    "include/gssrpc/pmap_rmt.h",
    "include/gssrpc/rename.h",
    "include/gssrpc/rpc.h",
    "include/gssrpc/rpc_msg.h",
    "include/gssrpc/svc.h",
    "include/gssrpc/svc_auth.h",
    "include/gssrpc/types.h",
    "include/gssrpc/xdr.h",
    "include/kadm5/admin.h",
    "include/kadm5/chpass_util_strings.h",
    "include/kadm5/kadm_err.h",
    "include/kdb.h",
    "include/krad.h",
    "include/krb5.h",
    "include/krb5/ccselect_plugin.h",
    "include/krb5/certauth_plugin.h",
    "include/krb5/clpreauth_plugin.h",
    "include/krb5/hostrealm_plugin.h",
    "include/krb5/kadm5_auth_plugin.h",
    "include/krb5/kadm5_hook_plugin.h",
    "include/krb5/kdcpolicy_plugin.h",
    "include/krb5/kdcpreauth_plugin.h",
    "include/krb5/krb5.h",
    "include/krb5/localauth_plugin.h",
    "include/krb5/locate_plugin.h",
    "include/krb5/plugin.h",
    "include/krb5/preauth_plugin.h",
    "include/krb5/pwqual_plugin.h",
    "include/profile.h",
    "include/verto-module.h",
    "include/verto.h",
    "lib/krb5/plugins/kdb/db2.so",
    "lib/krb5/plugins/preauth/otp.so",
    "lib/krb5/plugins/preauth/pkinit.so",
    "lib/krb5/plugins/preauth/spake.so",
    "lib/krb5/plugins/preauth/test.so",
    "lib/krb5/plugins/tls/k5tls.so",
    "lib/libcom_err.3.0.dylib",
    "lib/libcom_err.3.dylib",
    "lib/libcom_err.dylib",
    "lib/libgssapi_krb5.2.2.dylib",
    "lib/libgssapi_krb5.2.dylib",
    "lib/libgssapi_krb5.dylib",
    "lib/libgssrpc.4.2.dylib",
    "lib/libgssrpc.4.dylib",
    "lib/libgssrpc.dylib",
    "lib/libk5crypto.3.1.dylib",
    "lib/libk5crypto.3.dylib",
    "lib/libk5crypto.dylib",
    "lib/libkadm5clnt.dylib",
    "lib/libkadm5clnt_mit.12.0.dylib",
    "lib/libkadm5clnt_mit.12.dylib",
    "lib/libkadm5clnt_mit.dylib",
    "lib/libkadm5srv.dylib",
    "lib/libkadm5srv_mit.12.0.dylib",
    "lib/libkadm5srv_mit.12.dylib",
    "lib/libkadm5srv_mit.dylib",
    "lib/libkdb5.10.0.dylib",
    "lib/libkdb5.10.dylib",
    "lib/libkdb5.dylib",
    "lib/libkrad.0.0.dylib",
    "lib/libkrad.0.dylib",
    "lib/libkrad.dylib",
    "lib/libkrb5.3.3.dylib",
    "lib/libkrb5.3.dylib",
    "lib/libkrb5.dylib",
    "lib/libkrb5support.1.1.dylib",
    "lib/libkrb5support.1.dylib",
    "lib/libkrb5support.dylib",
    "lib/libverto.0.0.dylib",
    "lib/libverto.0.dylib",
    "lib/libverto.dylib",
    "lib/pkgconfig/gssrpc.pc",
    "lib/pkgconfig/kadm-client.pc",
    "lib/pkgconfig/kadm-server.pc",
    "lib/pkgconfig/kdb.pc",
    "lib/pkgconfig/krb5-gssapi.pc",
    "lib/pkgconfig/krb5.pc",
    "lib/pkgconfig/mit-krb5-gssapi.pc",
    "lib/pkgconfig/mit-krb5.pc",
    "sbin/gss-server",
    "sbin/kadmin.local",
    "sbin/kadmind",
    "sbin/kdb5_util",
    "sbin/kprop",
    "sbin/kpropd",
    "sbin/kproplog",
    "sbin/krb5-send-pr",
    "sbin/krb5kdc",
    "sbin/sim_server",
    "sbin/sserver",
    "sbin/uuserver",
    "share/et/et_c.awk",
    "share/et/et_h.awk",
    "share/examples/krb5/kdc.conf",
    "share/examples/krb5/krb5.conf",
    "share/examples/krb5/services.append",
    "share/locale/de/LC_MESSAGES/mit-krb5.mo",
    "share/locale/en_US/LC_MESSAGES/mit-krb5.mo",
    "share/man/man1/compile_et.1",
    "share/man/man1/k5srvutil.1",
    "share/man/man1/kadmin.1",
    "share/man/man1/kdestroy.1",
    "share/man/man1/kinit.1",
    "share/man/man1/klist.1",
    "share/man/man1/kpasswd.1",
    "share/man/man1/krb5-config.1",
    "share/man/man1/ksu.1",
    "share/man/man1/kswitch.1",
    "share/man/man1/ktutil.1",
    "share/man/man1/kvno.1",
    "share/man/man1/sclient.1",
    "share/man/man5/.k5identity.5",
    "share/man/man5/.k5login.5",
    "share/man/man5/k5identity.5",
    "share/man/man5/k5login.5",
    "share/man/man5/kadm5.acl.5",
    "share/man/man5/kdc.conf.5",
    "share/man/man5/krb5.conf.5",
    "share/man/man7/kerberos.7",
    "share/man/man8/kadmin.local.8",
    "share/man/man8/kadmind.8",
    "share/man/man8/kdb5_ldap_util.8",
    "share/man/man8/kdb5_util.8",
    "share/man/man8/kprop.8",
    "share/man/man8/kpropd.8",
    "share/man/man8/kproplog.8",
    "share/man/man8/krb5kdc.8",
    "share/man/man8/sserver.8"
  ],
  "fn": "krb5-1.20.1-h049b76e_0.conda",
  "license": "MIT",
  "license_family": "MIT",
  "link": {
    "source": "/Users/grokkingstuff/miniforge3/pkgs/krb5-1.20.1-h049b76e_0",
    "type": 1
  },
  "md5": "db11fa2968ef0837288fe2d7f5b77a50",
  "name": "krb5",
  "package_tarball_full_path": "/Users/grokkingstuff/miniforge3/pkgs/krb5-1.20.1-h049b76e_0.conda",
  "paths_data": {
    "paths": [
      {
        "_path": "bin/compile_et",
        "file_mode": "text",
        "path_type": "hardlink",
        "prefix_placeholder": "/Users/runner/miniforge3/conda-bld/krb5_1671091550592/_h_env_placehold_placehold_placehold_placehold_placehold_placehold_placehold_placehold_placehold_placehold_placehold_placehold_placehold_placehold_placehold_placehold_placehold_placehold_placehold_plac",
        "sha256": "1881339d189516eaae2039313b60e22576db8ef07d7e63fe01a5f7d5b67a6db6",
        "sha256_in_prefix": "68f923aa0c0b2b8b640e86c565b50873b9970b19307e40c146606c0b884a4f75",
        "size_in_bytes": 1068
      },
      {
        "_path": "bin/gss-client",
        "path_type": "hardlink",
        "sha256": "fef629ffbd144c99491f3c2d42450c7d1b880f81103e755cb0412fca278b88ec",
        "sha256_in_prefix": "fef629ffbd144c99491f3c2d42450c7d1b880f81103e755cb0412fca278b88ec",
        "size_in_bytes": 24648
      },
      {
        "_path": "bin/k5srvutil",
        "path_type": "hardlink",
        "sha256": "d44b92e0c847223da03e6eecfcb0aafb02eb87e7bbbb4db60d31ccfb088d0f7b",
        "sha256_in_prefix": "d44b92e0c847223da03e6eecfcb0aafb02eb87e7bbbb4db60d31ccfb088d0f7b",
        "size_in_bytes": 2004
      },
      {
        "_path": "bin/kadmin",
        "path_type": "hardlink",
        "sha256": "32600d49ca162f8f254c68248e2e8d3c68ce5ad2d83b7a26da251a19f07c4b29",
        "sha256_in_prefix": "32600d49ca162f8f254c68248e2e8d3c68ce5ad2d83b7a26da251a19f07c4b29",
        "size_in_bytes": 84456
      },
      {
        "_path": "bin/kdestroy",
        "path_type": "hardlink",
        "sha256": "ae4ed68e5dc164b77f9340a61e366270dea961c4f33f4a719bcf7275df6d9067",
        "sha256_in_prefix": "ae4ed68e5dc164b77f9340a61e366270dea961c4f33f4a719bcf7275df6d9067",
        "size_in_bytes": 14104
      },
      {
        "_path": "bin/kinit",
        "path_type": "hardlink",
        "sha256": "c6fe2451bb8e920d1b37509040b548b214a78349e5e1349d5e3cafc58da4340c",
        "sha256_in_prefix": "c6fe2451bb8e920d1b37509040b548b214a78349e5e1349d5e3cafc58da4340c",
        "size_in_bytes": 31216
      },
      {
        "_path": "bin/klist",
        "path_type": "hardlink",
        "sha256": "3b0cfc3f6348807a92611abc7f5643427957b98f27c212b2c28905145dc20d02",
        "sha256_in_prefix": "3b0cfc3f6348807a92611abc7f5643427957b98f27c212b2c28905145dc20d02",
        "size_in_bytes": 29904
      },
      {
        "_path": "bin/kpasswd",
        "path_type": "hardlink",
        "sha256": "a72a35fb2f5497e67f58b9538a203f0037ced6046336efece4e33de2b11fb84f",
        "sha256_in_prefix": "a72a35fb2f5497e67f58b9538a203f0037ced6046336efece4e33de2b11fb84f",
        "size_in_bytes": 14640
      },
      {
        "_path": "bin/krb5-config",
        "file_mode": "text",
        "path_type": "hardlink",
        "prefix_placeholder": "/Users/runner/miniforge3/conda-bld/krb5_1671091550592/_h_env_placehold_placehold_placehold_placehold_placehold_placehold_placehold_placehold_placehold_placehold_placehold_placehold_placehold_placehold_placehold_placehold_placehold_placehold_placehold_plac",
        "sha256": "517a89ed063a27c9014e7715ea5693ec831cc846aa3ec6a5bd24948c4142c076",
        "sha256_in_prefix": "854d75c0367f061485656ae5dabbcdd4728ced8ad5ca72946fda0bd4397c1184",
        "size_in_bytes": 7566
      },
      {
        "_path": "bin/kswitch",
        "path_type": "hardlink",
        "sha256": "0c9104c5d7b82959e35dd544a484695f1fa18252c80045ff4e5950633a3a37ee",
        "sha256_in_prefix": "0c9104c5d7b82959e35dd544a484695f1fa18252c80045ff4e5950633a3a37ee",
        "size_in_bytes": 13624
      },
      {
        "_path": "bin/ktutil",
        "path_type": "hardlink",
        "sha256": "2e4a97ae17b30ab3ceb5da941bf3d78ca5d6ce822fd925147530ebe9d692e3ec",
        "sha256_in_prefix": "2e4a97ae17b30ab3ceb5da941bf3d78ca5d6ce822fd925147530ebe9d692e3ec",
        "size_in_bytes": 36256
      },
      {
        "_path": "bin/kvno",
        "path_type": "hardlink",
        "sha256": "d64d2c762926d320f066f36219520280bb73b8a21dd2a8c03cd5fd5d1009af04",
        "sha256_in_prefix": "d64d2c762926d320f066f36219520280bb73b8a21dd2a8c03cd5fd5d1009af04",
        "size_in_bytes": 24856
      },
      {
        "_path": "bin/sclient",
        "path_type": "hardlink",
        "sha256": "910fefbb18e7848baa0d53102d3f6ad70ae27856a2e25323c8b625c294a8274c",
        "sha256_in_prefix": "910fefbb18e7848baa0d53102d3f6ad70ae27856a2e25323c8b625c294a8274c",
        "size_in_bytes": 18456
      },
      {
        "_path": "bin/sim_client",
        "path_type": "hardlink",
        "sha256": "f2818ee13f7ba93171bd0ffb80d254d6140702d6d3d5a04c41a707a04aa52104",
        "sha256_in_prefix": "f2818ee13f7ba93171bd0ffb80d254d6140702d6d3d5a04c41a707a04aa52104",
        "size_in_bytes": 14280
      },
      {
        "_path": "bin/uuclient",
        "path_type": "hardlink",
        "sha256": "c7ab975abd349fbd05e1540dd3d091d751685b2fe216c50762da96cfdf571b90",
        "sha256_in_prefix": "c7ab975abd349fbd05e1540dd3d091d751685b2fe216c50762da96cfdf571b90",
        "size_in_bytes": 19216
      },
      {
        "_path": "include/com_err.h",
        "path_type": "hardlink",
        "sha256": "7e7b77b8d2911e8caafa45c6186c4b6f894d565550c19ba262747834c3c6909a",
        "sha256_in_prefix": "7e7b77b8d2911e8caafa45c6186c4b6f894d565550c19ba262747834c3c6909a",
        "size_in_bytes": 1979
      },
      {
        "_path": "include/gssapi.h",
        "path_type": "hardlink",
        "sha256": "6fca7ce46733a4388a45a5816e4b5b2746d68ad3e04f9e2c51463f134cb802fa",
        "sha256_in_prefix": "6fca7ce46733a4388a45a5816e4b5b2746d68ad3e04f9e2c51463f134cb802fa",
        "size_in_bytes": 181
      },
      {
        "_path": "include/gssapi/gssapi.h",
        "path_type": "hardlink",
        "sha256": "0eaba32c81c8399fe54da5c938a47852aedf60ebfe349026d1461636bbbda919",
        "sha256_in_prefix": "0eaba32c81c8399fe54da5c938a47852aedf60ebfe349026d1461636bbbda919",
        "size_in_bytes": 30083
      },
      {
        "_path": "include/gssapi/gssapi_alloc.h",
        "path_type": "hardlink",
        "sha256": "59a93b8bdbc477e00144afa0cc3764821e65f9e226526e16a7511a8f0878980c",
        "sha256_in_prefix": "59a93b8bdbc477e00144afa0cc3764821e65f9e226526e16a7511a8f0878980c",
        "size_in_bytes": 2640
      },
      {
        "_path": "include/gssapi/gssapi_ext.h",
        "path_type": "hardlink",
        "sha256": "503f64ee5cab3df4718cd6f0c88e2a5400e888524000228837762d7a54af8291",
        "sha256_in_prefix": "503f64ee5cab3df4718cd6f0c88e2a5400e888524000228837762d7a54af8291",
        "size_in_bytes": 20915
      },
      {
        "_path": "include/gssapi/gssapi_generic.h",
        "path_type": "hardlink",
        "sha256": "b264115ba56603ceaad5e6ed5502dba2629959089391a4f18c4266c66befdc54",
        "sha256_in_prefix": "b264115ba56603ceaad5e6ed5502dba2629959089391a4f18c4266c66befdc54",
        "size_in_bytes": 2217
      },
      {
        "_path": "include/gssapi/gssapi_krb5.h",
        "path_type": "hardlink",
        "sha256": "f30cc3a7c09bb79ce5d56f6489f3575e72e89eb197eb07d7f25656b93a6a6e9b",
        "sha256_in_prefix": "f30cc3a7c09bb79ce5d56f6489f3575e72e89eb197eb07d7f25656b93a6a6e9b",
        "size_in_bytes": 12027
      },
      {
        "_path": "include/gssapi/mechglue.h",
        "path_type": "hardlink",
        "sha256": "abb62fd8d3c15ac357900a3f26b92e361e2601c1b921417fafd2b6802df4b1ed",
        "sha256_in_prefix": "abb62fd8d3c15ac357900a3f26b92e361e2601c1b921417fafd2b6802df4b1ed",
        "size_in_bytes": 1652
      },
      {
        "_path": "include/gssrpc/auth.h",
        "path_type": "hardlink",
        "sha256": "af3fe9408b12c3e2659ce6c028d726c2e11d438f65126d94c9358b284927f697",
        "sha256_in_prefix": "af3fe9408b12c3e2659ce6c028d726c2e11d438f65126d94c9358b284927f697",
        "size_in_bytes": 6441
      },
      {
        "_path": "include/gssrpc/auth_gss.h",
        "path_type": "hardlink",
        "sha256": "571caaca9ae5cf6cceec5cf7ff603571e818592c4220d62856ab624eeb25620a",
        "sha256_in_prefix": "571caaca9ae5cf6cceec5cf7ff603571e818592c4220d62856ab624eeb25620a",
        "size_in_bytes": 4840
      },
      {
        "_path": "include/gssrpc/auth_gssapi.h",
        "path_type": "hardlink",
        "sha256": "4da2548b519f82b39ec503866a0795a8db5bdffc8b7327cc04aa9c0445efe6d5",
        "sha256_in_prefix": "4da2548b519f82b39ec503866a0795a8db5bdffc8b7327cc04aa9c0445efe6d5",
        "size_in_bytes": 4333
      },
      {
        "_path": "include/gssrpc/auth_unix.h",
        "path_type": "hardlink",
        "sha256": "1e42fc6b44a644ca1bb5dd028f72af0e9c30848b4b469412347fdc16aecc9023",
        "sha256_in_prefix": "1e42fc6b44a644ca1bb5dd028f72af0e9c30848b4b469412347fdc16aecc9023",
        "size_in_bytes": 2896
      },
      {
        "_path": "include/gssrpc/clnt.h",
        "path_type": "hardlink",
        "sha256": "a8fee164851a83432ca5377f85ca317e6e5f68f13a346ec475cf7bea83406926",
        "sha256_in_prefix": "a8fee164851a83432ca5377f85ca317e6e5f68f13a346ec475cf7bea83406926",
        "size_in_bytes": 9654
      },
      {
        "_path": "include/gssrpc/netdb.h",
        "path_type": "hardlink",
        "sha256": "38f30d536012d5785645929e0d513378137d15476695a318b2c51db5ee7e0312",
        "sha256_in_prefix": "38f30d536012d5785645929e0d513378137d15476695a318b2c51db5ee7e0312",
        "size_in_bytes": 2442
      },
      {
        "_path": "include/gssrpc/pmap_clnt.h",
        "path_type": "hardlink",
        "sha256": "76a3d4c6f9d03a0d6fdf5dccbeeedfa60d4e59e7281dabfb403fa283670d578e",
        "sha256_in_prefix": "76a3d4c6f9d03a0d6fdf5dccbeeedfa60d4e59e7281dabfb403fa283670d578e",
        "size_in_bytes": 3429
      },
      {
        "_path": "include/gssrpc/pmap_prot.h",
        "path_type": "hardlink",
        "sha256": "4e60ca35f3f801c5ab8c25e327bcfc4637deac0615036d9ebe9bbca0242e74d2",
        "sha256_in_prefix": "4e60ca35f3f801c5ab8c25e327bcfc4637deac0615036d9ebe9bbca0242e74d2",
        "size_in_bytes": 3841
      },
      {
        "_path": "include/gssrpc/pmap_rmt.h",
        "path_type": "hardlink",
        "sha256": "105372661463f05652cb893535de7daa2f7cba2b107e14266c7ee6339077fe0f",
        "sha256_in_prefix": "105372661463f05652cb893535de7daa2f7cba2b107e14266c7ee6339077fe0f",
        "size_in_bytes": 2303
      },
      {
        "_path": "include/gssrpc/rename.h",
        "path_type": "hardlink",
        "sha256": "8928872ae491aa9bb06d6458898acce19360a01d3f5fbfbeecbda6f328466bb0",
        "sha256_in_prefix": "8928872ae491aa9bb06d6458898acce19360a01d3f5fbfbeecbda6f328466bb0",
        "size_in_bytes": 10034
      },
      {
        "_path": "include/gssrpc/rpc.h",
        "path_type": "hardlink",
        "sha256": "281063f97d45b39913e2f3f9149a36548e2fbe4bb60033e73b0bb61a440f7dff",
        "sha256_in_prefix": "281063f97d45b39913e2f3f9149a36548e2fbe4bb60033e73b0bb61a440f7dff",
        "size_in_bytes": 3143
      },
      {
        "_path": "include/gssrpc/rpc_msg.h",
        "path_type": "hardlink",
        "sha256": "7bcccb8567f43012f85a84da462f1e2f70caa19a48bf4e183d67f14155cc59af",
        "sha256_in_prefix": "7bcccb8567f43012f85a84da462f1e2f70caa19a48bf4e183d67f14155cc59af",
        "size_in_bytes": 5107
      },
      {
        "_path": "include/gssrpc/svc.h",
        "path_type": "hardlink",
        "sha256": "6c9ec7e5fea9e12529511a7d57cedebdd4da6b9d8ed18cb8fa70288d8ea0d758",
        "sha256_in_prefix": "6c9ec7e5fea9e12529511a7d57cedebdd4da6b9d8ed18cb8fa70288d8ea0d758",
        "size_in_bytes": 11402
      },
      {
        "_path": "include/gssrpc/svc_auth.h",
        "path_type": "hardlink",
        "sha256": "294373f6586daefe7fd8042817c9dfa41e842b2eb5436a211d469c87cdc3bc5e",
        "sha256_in_prefix": "294373f6586daefe7fd8042817c9dfa41e842b2eb5436a211d469c87cdc3bc5e",
        "size_in_bytes": 3976
      },
      {
        "_path": "include/gssrpc/types.h",
        "path_type": "hardlink",
        "sha256": "a0307c67818d05eda7a2b430cdd0ca7e05d2e31007afe65b57dc267080d2f43b",
        "sha256_in_prefix": "a0307c67818d05eda7a2b430cdd0ca7e05d2e31007afe65b57dc267080d2f43b",
        "size_in_bytes": 3592
      },
      {
        "_path": "include/gssrpc/xdr.h",
        "path_type": "hardlink",
        "sha256": "f8de3ce780f77e4f06c91cc7f77a8b06abd9f5605a7912f38c7df69da6c13dc3",
        "sha256_in_prefix": "f8de3ce780f77e4f06c91cc7f77a8b06abd9f5605a7912f38c7df69da6c13dc3",
        "size_in_bytes": 11781
      },
      {
        "_path": "include/kadm5/admin.h",
        "path_type": "hardlink",
        "sha256": "b461a44b339d72ef860e74b421f0edbafab21c6730e535e658fb6efaf4ca33cb",
        "sha256_in_prefix": "b461a44b339d72ef860e74b421f0edbafab21c6730e535e658fb6efaf4ca33cb",
        "size_in_bytes": 20575
      },
      {
        "_path": "include/kadm5/chpass_util_strings.h",
        "path_type": "hardlink",
        "sha256": "3b8a8166ab5b8862f92b7f97906c8f0e218937450888d95b15f27663fa774a1d",
        "sha256_in_prefix": "3b8a8166ab5b8862f92b7f97906c8f0e218937450888d95b15f27663fa774a1d",
        "size_in_bytes": 1572
      },
      {
        "_path": "include/kadm5/kadm_err.h",
        "path_type": "hardlink",
        "sha256": "f111fef80f84efadf82c3b455838da93983ae49146d6c30a4b97d3e243775ae5",
        "sha256_in_prefix": "f111fef80f84efadf82c3b455838da93983ae49146d6c30a4b97d3e243775ae5",
        "size_in_bytes": 4369
      },
      {
        "_path": "include/kdb.h",
        "path_type": "hardlink",
        "sha256": "125a8aff9deeeea0daab20319c76b5535210321e138a4ab19b5afbe0f5b66cf1",
        "sha256_in_prefix": "125a8aff9deeeea0daab20319c76b5535210321e138a4ab19b5afbe0f5b66cf1",
        "size_in_bytes": 64171
      },
      {
        "_path": "include/krad.h",
        "path_type": "hardlink",
        "sha256": "c16878d9b57669f68f2d55481bf963c32e7f3c659eda34d75f66b432536f90d6",
        "sha256_in_prefix": "c16878d9b57669f68f2d55481bf963c32e7f3c659eda34d75f66b432536f90d6",
        "size_in_bytes": 8933
      },
      {
        "_path": "include/krb5.h",
        "path_type": "hardlink",
        "sha256": "1fe239732636b4f9cbfd596542b77c5dd60af2d73a1d4df1eb30ba6ebcd9ec78",
        "sha256_in_prefix": "1fe239732636b4f9cbfd596542b77c5dd60af2d73a1d4df1eb30ba6ebcd9ec78",
        "size_in_bytes": 402
      },
      {
        "_path": "include/krb5/ccselect_plugin.h",
        "path_type": "hardlink",
        "sha256": "6eb76ad87680dee03796b0fa1d5fb3586a29668aaa8f71be2d7e4ba8a909c4b9",
        "sha256_in_prefix": "6eb76ad87680dee03796b0fa1d5fb3586a29668aaa8f71be2d7e4ba8a909c4b9",
        "size_in_bytes": 4213
      },
      {
        "_path": "include/krb5/certauth_plugin.h",
        "path_type": "hardlink",
        "sha256": "905fbfabea7f025eb3d221c2e2148189a43722241e0a3431f62dc0ef95c02739",
        "sha256_in_prefix": "905fbfabea7f025eb3d221c2e2148189a43722241e0a3431f62dc0ef95c02739",
        "size_in_bytes": 5508
      },
      {
        "_path": "include/krb5/clpreauth_plugin.h",
        "path_type": "hardlink",
        "sha256": "70678ee6705c2304c0074ab6909fac2df8baa47b1e52674b437a79f52a8d72ac",
        "sha256_in_prefix": "70678ee6705c2304c0074ab6909fac2df8baa47b1e52674b437a79f52a8d72ac",
        "size_in_bytes": 15529
      },
      {
        "_path": "include/krb5/hostrealm_plugin.h",
        "path_type": "hardlink",
        "sha256": "acd7ba4437c95d271e7c9cc19fd2097915b52576939c926a1f67837be0b99889",
        "sha256_in_prefix": "acd7ba4437c95d271e7c9cc19fd2097915b52576939c926a1f67837be0b99889",
        "size_in_bytes": 5460
      },
      {
        "_path": "include/krb5/kadm5_auth_plugin.h",
        "path_type": "hardlink",
        "sha256": "fca25eafd23fd91a86b80d5e1cef1b5d736787034385c6c235bfc5225304792c",
        "sha256_in_prefix": "fca25eafd23fd91a86b80d5e1cef1b5d736787034385c6c235bfc5225304792c",
        "size_in_bytes": 12482
      },
      {
        "_path": "include/krb5/kadm5_hook_plugin.h",
        "path_type": "hardlink",
        "sha256": "186d4520695bc55c894af072ae74472704d46b1359adf2e6103d52872b8a8019",
        "sha256_in_prefix": "186d4520695bc55c894af072ae74472704d46b1359adf2e6103d52872b8a8019",
        "size_in_bytes": 6161
      },
      {
        "_path": "include/krb5/kdcpolicy_plugin.h",
        "path_type": "hardlink",
        "sha256": "829dd07baf0d80cb1269d8e712612773f26609ef572b8df6297997c7f4f2b1f4",
        "sha256_in_prefix": "829dd07baf0d80cb1269d8e712612773f26609ef572b8df6297997c7f4f2b1f4",
        "size_in_bytes": 5320
      },
      {
        "_path": "include/krb5/kdcpreauth_plugin.h",
        "path_type": "hardlink",
        "sha256": "5aaef7581e1e4d4a7def48bca1b6108af1ced9c22cc4826a30d7d138b0575299",
        "sha256_in_prefix": "5aaef7581e1e4d4a7def48bca1b6108af1ced9c22cc4826a30d7d138b0575299",
        "size_in_bytes": 18241
      },
      {
        "_path": "include/krb5/krb5.h",
        "path_type": "hardlink",
        "sha256": "f44080d9a65a239832cccdceccd09dec0952b41894335ea77b54ff3d0523c219",
        "sha256_in_prefix": "f44080d9a65a239832cccdceccd09dec0952b41894335ea77b54ff3d0523c219",
        "size_in_bytes": 349408
      },
      {
        "_path": "include/krb5/localauth_plugin.h",
        "path_type": "hardlink",
        "sha256": "cdc4244abf61807bdfed95d1fe608cf925b4c4c3af4867ad6daced031c1cd8f3",
        "sha256_in_prefix": "cdc4244abf61807bdfed95d1fe608cf925b4c4c3af4867ad6daced031c1cd8f3",
        "size_in_bytes": 5881
      },
      {
        "_path": "include/krb5/locate_plugin.h",
        "path_type": "hardlink",
        "sha256": "d9707d6c03dbf93753d6885db67cd1cb996429563f1568f29adf8cb06f12f2b2",
        "sha256_in_prefix": "d9707d6c03dbf93753d6885db67cd1cb996429563f1568f29adf8cb06f12f2b2",
        "size_in_bytes": 2686
      },
      {
        "_path": "include/krb5/plugin.h",
        "path_type": "hardlink",
        "sha256": "5cdbdb19b61e841aa2fe593eb7a69ae1857728e04af15b3551a85c57d670c35d",
        "sha256_in_prefix": "5cdbdb19b61e841aa2fe593eb7a69ae1857728e04af15b3551a85c57d670c35d",
        "size_in_bytes": 2090
      },
      {
        "_path": "include/krb5/preauth_plugin.h",
        "path_type": "hardlink",
        "sha256": "ab64bd09cd8ebf5588e4445e5de75b8e9c411ef6035b0f4f04c8185df8abfbdf",
        "sha256_in_prefix": "ab64bd09cd8ebf5588e4445e5de75b8e9c411ef6035b0f4f04c8185df8abfbdf",
        "size_in_bytes": 1774
      },
      {
        "_path": "include/krb5/pwqual_plugin.h",
        "path_type": "hardlink",
        "sha256": "5f63d4365b584fd25dbfe565a6c37205ecdf34d6c565fe38b3e2834acae10b53",
        "sha256_in_prefix": "5f63d4365b584fd25dbfe565a6c37205ecdf34d6c565fe38b3e2834acae10b53",
        "size_in_bytes": 4426
      },
      {
        "_path": "include/profile.h",
        "path_type": "hardlink",
        "sha256": "adcc379f74cf3f758172d3521d31756e99bfb4749a2de00d345cfecea52e64c8",
        "sha256_in_prefix": "adcc379f74cf3f758172d3521d31756e99bfb4749a2de00d345cfecea52e64c8",
        "size_in_bytes": 12178
      },
      {
        "_path": "include/verto-module.h",
        "path_type": "hardlink",
        "sha256": "a0ca282f254efda89fae75a8d234d1b41a5f422422b5e37d2c56e863626557ca",
        "sha256_in_prefix": "a0ca282f254efda89fae75a8d234d1b41a5f422422b5e37d2c56e863626557ca",
        "size_in_bytes": 6640
      },
      {
        "_path": "include/verto.h",
        "path_type": "hardlink",
        "sha256": "65975020670bc6a59e96d4c42b4e66e60282696a11469ba85a3ae7bb42a5bc2d",
        "sha256_in_prefix": "65975020670bc6a59e96d4c42b4e66e60282696a11469ba85a3ae7bb42a5bc2d",
        "size_in_bytes": 19437
      },
      {
        "_path": "lib/krb5/plugins/kdb/db2.so",
        "file_mode": "binary",
        "path_type": "hardlink",
        "prefix_placeholder": "/Users/runner/miniforge3/conda-bld/krb5_1671091550592/_h_env_placehold_placehold_placehold_placehold_placehold_placehold_placehold_placehold_placehold_placehold_placehold_placehold_placehold_placehold_placehold_placehold_placehold_placehold_placehold_plac",
        "sha256": "877e4523557e35e53fd4635a8571b06b4e69c2d7ffe32c3220900a2df099ec52",
        "sha256_in_prefix": "a59e6bf553c9f29648560fb349600da8b678374e61b3de237bb6941aff96aaa1",
        "size_in_bytes": 98536
      },
      {
        "_path": "lib/krb5/plugins/preauth/otp.so",
        "file_mode": "binary",
        "path_type": "hardlink",
        "prefix_placeholder": "/Users/runner/miniforge3/conda-bld/krb5_1671091550592/_h_env_placehold_placehold_placehold_placehold_placehold_placehold_placehold_placehold_placehold_placehold_placehold_placehold_placehold_placehold_placehold_placehold_placehold_placehold_placehold_plac",
        "sha256": "8c845d5273cc504f838ad8da72549b0888df7a8a2c75e5fd6288b53cd0a930e0",
        "sha256_in_prefix": "96593f204d2d7e7e0fa1ac92afe73d5825bebf85be4681ff18d159749f5168ac",
        "size_in_bytes": 29344
      },
      {
        "_path": "lib/krb5/plugins/preauth/pkinit.so",
        "path_type": "hardlink",
        "sha256": "7b8481170f8b81d940c644353e16170609987f3440f69934da2a87b3c86cd404",
        "sha256_in_prefix": "7b8481170f8b81d940c644353e16170609987f3440f69934da2a87b3c86cd404",
        "size_in_bytes": 125600
      },
      {
        "_path": "lib/krb5/plugins/preauth/spake.so",
        "path_type": "hardlink",
        "sha256": "f10c6f0cdf07503bca70d47ad61d247e21cb8162640d45a34dcca55e3f99ef65",
        "sha256_in_prefix": "f10c6f0cdf07503bca70d47ad61d247e21cb8162640d45a34dcca55e3f99ef65",
        "size_in_bytes": 113776
      },
      {
        "_path": "lib/krb5/plugins/preauth/test.so",
        "path_type": "hardlink",
        "sha256": "23d8a600f07fe68f327c9b687dd78f5d3ca89f385fb204c767ad1541379ec975",
        "sha256_in_prefix": "23d8a600f07fe68f327c9b687dd78f5d3ca89f385fb204c767ad1541379ec975",
        "size_in_bytes": 18048
      },
      {
        "_path": "lib/krb5/plugins/tls/k5tls.so",
        "path_type": "hardlink",
        "sha256": "4ea3585c4b98d2403b90eac04d75d7024cfea2b4fa3229caf7d9506108983519",
        "sha256_in_prefix": "4ea3585c4b98d2403b90eac04d75d7024cfea2b4fa3229caf7d9506108983519",
        "size_in_bytes": 25712
      },
      {
        "_path": "lib/libcom_err.3.0.dylib",
        "path_type": "hardlink",
        "sha256": "393a119f13c318555a66f13df546f1788ee01328925f8edfc3761b0316f32ff0",
        "sha256_in_prefix": "393a119f13c318555a66f13df546f1788ee01328925f8edfc3761b0316f32ff0",
        "size_in_bytes": 18832
      },
      {
        "_path": "lib/libcom_err.3.dylib",
        "path_type": "softlink",
        "sha256": "393a119f13c318555a66f13df546f1788ee01328925f8edfc3761b0316f32ff0",
        "size_in_bytes": 18832
      },
      {
        "_path": "lib/libcom_err.dylib",
        "path_type": "softlink",
        "sha256": "393a119f13c318555a66f13df546f1788ee01328925f8edfc3761b0316f32ff0",
        "size_in_bytes": 18832
      },
      {
        "_path": "lib/libgssapi_krb5.2.2.dylib",
        "file_mode": "binary",
        "path_type": "hardlink",
        "prefix_placeholder": "/Users/runner/miniforge3/conda-bld/krb5_1671091550592/_h_env_placehold_placehold_placehold_placehold_placehold_placehold_placehold_placehold_placehold_placehold_placehold_placehold_placehold_placehold_placehold_placehold_placehold_placehold_placehold_plac",
        "sha256": "9c6e08439e4b3cd721ea383cd64b1e7075414a66a66e099fbde21ee242bd65d4",
        "sha256_in_prefix": "3f52fde2f2f987070b4d888e6a15dcab5030a6afd65b89b2fb89cf10b4718a9e",
        "size_in_bytes": 288144
      },
      {
        "_path": "lib/libgssapi_krb5.2.dylib",
        "path_type": "softlink",
        "sha256": "9c6e08439e4b3cd721ea383cd64b1e7075414a66a66e099fbde21ee242bd65d4",
        "size_in_bytes": 288144
      },
      {
        "_path": "lib/libgssapi_krb5.dylib",
        "path_type": "softlink",
        "sha256": "9c6e08439e4b3cd721ea383cd64b1e7075414a66a66e099fbde21ee242bd65d4",
        "size_in_bytes": 288144
      },
      {
        "_path": "lib/libgssrpc.4.2.dylib",
        "path_type": "hardlink",
        "sha256": "a58ca61b12a9490ccdc93bf7a5b9abf7e5c64b227ea3ca97e5062676458bbc3a",
        "sha256_in_prefix": "a58ca61b12a9490ccdc93bf7a5b9abf7e5c64b227ea3ca97e5062676458bbc3a",
        "size_in_bytes": 106064
      },
      {
        "_path": "lib/libgssrpc.4.dylib",
        "path_type": "softlink",
        "sha256": "a58ca61b12a9490ccdc93bf7a5b9abf7e5c64b227ea3ca97e5062676458bbc3a",
        "size_in_bytes": 106064
      },
      {
        "_path": "lib/libgssrpc.dylib",
        "path_type": "softlink",
        "sha256": "a58ca61b12a9490ccdc93bf7a5b9abf7e5c64b227ea3ca97e5062676458bbc3a",
        "size_in_bytes": 106064
      },
      {
        "_path": "lib/libk5crypto.3.1.dylib",
        "path_type": "hardlink",
        "sha256": "0220154015ed88438a035e39568565b4892f500bb776141714c201127eb426d5",
        "sha256_in_prefix": "0220154015ed88438a035e39568565b4892f500bb776141714c201127eb426d5",
        "size_in_bytes": 75584
      },
      {
        "_path": "lib/libk5crypto.3.dylib",
        "path_type": "softlink",
        "sha256": "0220154015ed88438a035e39568565b4892f500bb776141714c201127eb426d5",
        "size_in_bytes": 75584
      },
      {
        "_path": "lib/libk5crypto.dylib",
        "path_type": "softlink",
        "sha256": "0220154015ed88438a035e39568565b4892f500bb776141714c201127eb426d5",
        "size_in_bytes": 75584
      },
      {
        "_path": "lib/libkadm5clnt.dylib",
        "path_type": "softlink",
        "sha256": "1900545d1a76b80f42a4df7c2e087b8cc7cb53e7211f7439c3304e5d041e221c",
        "size_in_bytes": 86976
      },
      {
        "_path": "lib/libkadm5clnt_mit.12.0.dylib",
        "file_mode": "binary",
        "path_type": "hardlink",
        "prefix_placeholder": "/Users/runner/miniforge3/conda-bld/krb5_1671091550592/_h_env_placehold_placehold_placehold_placehold_placehold_placehold_placehold_placehold_placehold_placehold_placehold_placehold_placehold_placehold_placehold_placehold_placehold_placehold_placehold_plac",
        "sha256": "1900545d1a76b80f42a4df7c2e087b8cc7cb53e7211f7439c3304e5d041e221c",
        "sha256_in_prefix": "d64e154c39c465cfa72ad4b7445e12d1ff4fe54843c9027515d4c2ec9e570708",
        "size_in_bytes": 86976
      },
      {
        "_path": "lib/libkadm5clnt_mit.12.dylib",
        "path_type": "softlink",
        "sha256": "1900545d1a76b80f42a4df7c2e087b8cc7cb53e7211f7439c3304e5d041e221c",
        "size_in_bytes": 86976
      },
      {
        "_path": "lib/libkadm5clnt_mit.dylib",
        "path_type": "softlink",
        "sha256": "1900545d1a76b80f42a4df7c2e087b8cc7cb53e7211f7439c3304e5d041e221c",
        "size_in_bytes": 86976
      },
      {
        "_path": "lib/libkadm5srv.dylib",
        "path_type": "softlink",
        "sha256": "b49bf089be291c7facff3238ed9ba734f3393c15f468068ff6eb858b7c64161d",
        "size_in_bytes": 111016
      },
      {
        "_path": "lib/libkadm5srv_mit.12.0.dylib",
        "file_mode": "binary",
        "path_type": "hardlink",
        "prefix_placeholder": "/Users/runner/miniforge3/conda-bld/krb5_1671091550592/_h_env_placehold_placehold_placehold_placehold_placehold_placehold_placehold_placehold_placehold_placehold_placehold_placehold_placehold_placehold_placehold_placehold_placehold_placehold_placehold_plac",
        "sha256": "b49bf089be291c7facff3238ed9ba734f3393c15f468068ff6eb858b7c64161d",
        "sha256_in_prefix": "ac55085c029e46bcbcb557cbee7b24810d16d0e42607409c1b8a58e685a0e944",
        "size_in_bytes": 111016
      },
      {
        "_path": "lib/libkadm5srv_mit.12.dylib",
        "path_type": "softlink",
        "sha256": "b49bf089be291c7facff3238ed9ba734f3393c15f468068ff6eb858b7c64161d",
        "size_in_bytes": 111016
      },
      {
        "_path": "lib/libkadm5srv_mit.dylib",
        "path_type": "softlink",
        "sha256": "b49bf089be291c7facff3238ed9ba734f3393c15f468068ff6eb858b7c64161d",
        "size_in_bytes": 111016
      },
      {
        "_path": "lib/libkdb5.10.0.dylib",
        "file_mode": "binary",
        "path_type": "hardlink",
        "prefix_placeholder": "/Users/runner/miniforge3/conda-bld/krb5_1671091550592/_h_env_placehold_placehold_placehold_placehold_placehold_placehold_placehold_placehold_placehold_placehold_placehold_placehold_placehold_placehold_placehold_placehold_placehold_placehold_placehold_plac",
        "sha256": "8f475c63176b6f623b9044eab6f998cc78ed69b90f344b1dc98e08dbc27943d2",
        "sha256_in_prefix": "30018022dfa8846757eb4ae22e96e9a690ec7558e888dcbd5954a654334f0c48",
        "size_in_bytes": 76304
      },
      {
        "_path": "lib/libkdb5.10.dylib",
        "path_type": "softlink",
        "sha256": "8f475c63176b6f623b9044eab6f998cc78ed69b90f344b1dc98e08dbc27943d2",
        "size_in_bytes": 76304
      },
      {
        "_path": "lib/libkdb5.dylib",
        "path_type": "softlink",
        "sha256": "8f475c63176b6f623b9044eab6f998cc78ed69b90f344b1dc98e08dbc27943d2",
        "size_in_bytes": 76304
      },
      {
        "_path": "lib/libkrad.0.0.dylib",
        "path_type": "hardlink",
        "sha256": "87c66125bae8410314a2b55ffd943fe7b42ae775ca9f2750d95715f9f9fcaad7",
        "sha256_in_prefix": "87c66125bae8410314a2b55ffd943fe7b42ae775ca9f2750d95715f9f9fcaad7",
        "size_in_bytes": 41152
      },
      {
        "_path": "lib/libkrad.0.dylib",
        "path_type": "softlink",
        "sha256": "87c66125bae8410314a2b55ffd943fe7b42ae775ca9f2750d95715f9f9fcaad7",
        "size_in_bytes": 41152
      },
      {
        "_path": "lib/libkrad.dylib",
        "path_type": "softlink",
        "sha256": "87c66125bae8410314a2b55ffd943fe7b42ae775ca9f2750d95715f9f9fcaad7",
        "size_in_bytes": 41152
      },
      {
        "_path": "lib/libkrb5.3.3.dylib",
        "file_mode": "binary",
        "path_type": "hardlink",
        "prefix_placeholder": "/Users/runner/miniforge3/conda-bld/krb5_1671091550592/_h_env_placehold_placehold_placehold_placehold_placehold_placehold_placehold_placehold_placehold_placehold_placehold_placehold_placehold_placehold_placehold_placehold_placehold_placehold_placehold_plac",
        "sha256": "87875d09ba7697a162025780672614baa00c5be0e05690a6badc3c622e84d416",
        "sha256_in_prefix": "bbd105e9d180e5eda6f8ac45a7dd60a55cf2f11f4166ed414efd0c7c067272bd",
        "size_in_bytes": 793672
      },
      {
        "_path": "lib/libkrb5.3.dylib",
        "path_type": "softlink",
        "sha256": "87875d09ba7697a162025780672614baa00c5be0e05690a6badc3c622e84d416",
        "size_in_bytes": 793672
      },
      {
        "_path": "lib/libkrb5.dylib",
        "path_type": "softlink",
        "sha256": "87875d09ba7697a162025780672614baa00c5be0e05690a6badc3c622e84d416",
        "size_in_bytes": 793672
      },
      {
        "_path": "lib/libkrb5support.1.1.dylib",
        "path_type": "hardlink",
        "sha256": "4e89b7d0912cc40bd987a09a1819d637fbbeb1f9e352fd04b6f114744ac1b11c",
        "sha256_in_prefix": "4e89b7d0912cc40bd987a09a1819d637fbbeb1f9e352fd04b6f114744ac1b11c",
        "size_in_bytes": 46992
      },
      {
        "_path": "lib/libkrb5support.1.dylib",
        "path_type": "softlink",
        "sha256": "4e89b7d0912cc40bd987a09a1819d637fbbeb1f9e352fd04b6f114744ac1b11c",
        "size_in_bytes": 46992
      },
      {
        "_path": "lib/libkrb5support.dylib",
        "path_type": "softlink",
        "sha256": "4e89b7d0912cc40bd987a09a1819d637fbbeb1f9e352fd04b6f114744ac1b11c",
        "size_in_bytes": 46992
      },
      {
        "_path": "lib/libverto.0.0.dylib",
        "path_type": "hardlink",
        "sha256": "f3d2fecb0ab9380dc1d24f8831634dc155d675bdcd935e78fff0daa52b7585e2",
        "sha256_in_prefix": "f3d2fecb0ab9380dc1d24f8831634dc155d675bdcd935e78fff0daa52b7585e2",
        "size_in_bytes": 33912
      },
      {
        "_path": "lib/libverto.0.dylib",
        "path_type": "softlink",
        "sha256": "f3d2fecb0ab9380dc1d24f8831634dc155d675bdcd935e78fff0daa52b7585e2",
        "size_in_bytes": 33912
      },
      {
        "_path": "lib/libverto.dylib",
        "path_type": "softlink",
        "sha256": "f3d2fecb0ab9380dc1d24f8831634dc155d675bdcd935e78fff0daa52b7585e2",
        "size_in_bytes": 33912
      },
      {
        "_path": "lib/pkgconfig/gssrpc.pc",
        "file_mode": "text",
        "path_type": "hardlink",
        "prefix_placeholder": "/Users/runner/miniforge3/conda-bld/krb5_1671091550592/_h_env_placehold_placehold_placehold_placehold_placehold_placehold_placehold_placehold_placehold_placehold_placehold_placehold_placehold_placehold_placehold_placehold_placehold_placehold_placehold_plac",
        "sha256": "218cd9cd56c78133480737a28f788a5a79520cf603d3f039a4cf926fcb4c71cb",
        "sha256_in_prefix": "bd5615565dba162662c207ccdb0a4ef12da6c7656e96ddc1c496cc7accd9b651",
        "size_in_bytes": 505
      },
      {
        "_path": "lib/pkgconfig/kadm-client.pc",
        "file_mode": "text",
        "path_type": "hardlink",
        "prefix_placeholder": "/Users/runner/miniforge3/conda-bld/krb5_1671091550592/_h_env_placehold_placehold_placehold_placehold_placehold_placehold_placehold_placehold_placehold_placehold_placehold_placehold_placehold_placehold_placehold_placehold_placehold_placehold_placehold_plac",
        "sha256": "0db6e71de3a7e6a6e06828f7f8dc9d1da8ef504a4e068644f3c13abde875b3ea",
        "sha256_in_prefix": "aab030cdf54592f11aea6fe14b7ff1130a506cb0cc1a58326965bc577846cb22",
        "size_in_bytes": 526
      },
      {
        "_path": "lib/pkgconfig/kadm-server.pc",
        "file_mode": "text",
        "path_type": "hardlink",
        "prefix_placeholder": "/Users/runner/miniforge3/conda-bld/krb5_1671091550592/_h_env_placehold_placehold_placehold_placehold_placehold_placehold_placehold_placehold_placehold_placehold_placehold_placehold_placehold_placehold_placehold_placehold_placehold_placehold_placehold_plac",
        "sha256": "7944115cf994a025eb4a1f9ec69ad36a70b294aa9a1ba636be75ce421419d225",
        "sha256_in_prefix": "8cb4fac524d199cb177b6091d1b1918153dd1508e6af65292deded1c8700cf35",
        "size_in_bytes": 522
      },
      {
        "_path": "lib/pkgconfig/kdb.pc",
        "file_mode": "text",
        "path_type": "hardlink",
        "prefix_placeholder": "/Users/runner/miniforge3/conda-bld/krb5_1671091550592/_h_env_placehold_placehold_placehold_placehold_placehold_placehold_placehold_placehold_placehold_placehold_placehold_placehold_placehold_placehold_placehold_placehold_placehold_placehold_placehold_plac",
        "sha256": "53f32fe2ee3f0832d527ba384384278c3bc31fb90da8f295dd564310daf2f443",
        "sha256_in_prefix": "b527bc005c4cb2917b82c55dc39822a553fd7a3e039ae091ce5c76ed98294996",
        "size_in_bytes": 557
      },
      {
        "_path": "lib/pkgconfig/krb5-gssapi.pc",
        "file_mode": "text",
        "path_type": "hardlink",
        "prefix_placeholder": "/Users/runner/miniforge3/conda-bld/krb5_1671091550592/_h_env_placehold_placehold_placehold_placehold_placehold_placehold_placehold_placehold_placehold_placehold_placehold_placehold_placehold_placehold_placehold_placehold_placehold_placehold_placehold_plac",
        "sha256": "4aeca5ad8d7aacac27d628aa863e382abf5fb52777c7cdc190510c36d528dde8",
        "sha256_in_prefix": "9a12754171dfc5df272ffc488a3d82cc47025b2060bdc5c2a013924e8cfca42b",
        "size_in_bytes": 463
      },
      {
        "_path": "lib/pkgconfig/krb5.pc",
        "file_mode": "text",
        "path_type": "hardlink",
        "prefix_placeholder": "/Users/runner/miniforge3/conda-bld/krb5_1671091550592/_h_env_placehold_placehold_placehold_placehold_placehold_placehold_placehold_placehold_placehold_placehold_placehold_placehold_placehold_placehold_placehold_placehold_placehold_placehold_placehold_plac",
        "sha256": "bb094e868e9972401a4d3381e317279a5234af65796b9dd6955e780e9516a701",
        "sha256_in_prefix": "567ab718ad9e021a9a150c5b70c9cea6b7271fc5d1ff85da896a0fa1e17f5b9c",
        "size_in_bytes": 589
      },
      {
        "_path": "lib/pkgconfig/mit-krb5-gssapi.pc",
        "file_mode": "text",
        "path_type": "hardlink",
        "prefix_placeholder": "/Users/runner/miniforge3/conda-bld/krb5_1671091550592/_h_env_placehold_placehold_placehold_placehold_placehold_placehold_placehold_placehold_placehold_placehold_placehold_placehold_placehold_placehold_placehold_placehold_placehold_placehold_placehold_plac",
        "sha256": "6222fe2602a94d1c5a1165979fd764012dceb3926b07601b36bd38f51b2060fa",
        "sha256_in_prefix": "9b440f89c42cf964294376c66456c399035e559ba11862a2b9cfc7c1bd9adb60",
        "size_in_bytes": 513
      },
      {
        "_path": "lib/pkgconfig/mit-krb5.pc",
        "file_mode": "text",
        "path_type": "hardlink",
        "prefix_placeholder": "/Users/runner/miniforge3/conda-bld/krb5_1671091550592/_h_env_placehold_placehold_placehold_placehold_placehold_placehold_placehold_placehold_placehold_placehold_placehold_placehold_placehold_placehold_placehold_placehold_placehold_placehold_placehold_plac",
        "sha256": "b3ceb2e4632a2f8aa10dfcb4e990cf9c0269072b14ef9d3c62178fb9a6e1fdeb",
        "sha256_in_prefix": "98f3dc22b7d9d43b6cca865ef70f1528e503bbd8d89fd0e04da2f5cebc9e14cb",
        "size_in_bytes": 661
      },
      {
        "_path": "sbin/gss-server",
        "path_type": "hardlink",
        "sha256": "7240fd3a9b12e1fc217f65a6e620a3036c761e50f785900beada5fc6e0c0621d",
        "sha256_in_prefix": "7240fd3a9b12e1fc217f65a6e620a3036c761e50f785900beada5fc6e0c0621d",
        "size_in_bytes": 24520
      },
      {
        "_path": "sbin/kadmin.local",
        "path_type": "hardlink",
        "sha256": "48f6287851c093dee4e20e3cc0f4e0f5500dc91e24f713f3f6dd9b62dcb27256",
        "sha256_in_prefix": "48f6287851c093dee4e20e3cc0f4e0f5500dc91e24f713f3f6dd9b62dcb27256",
        "size_in_bytes": 84456
      },
      {
        "_path": "sbin/kadmind",
        "file_mode": "binary",
        "path_type": "hardlink",
        "prefix_placeholder": "/Users/runner/miniforge3/conda-bld/krb5_1671091550592/_h_env_placehold_placehold_placehold_placehold_placehold_placehold_placehold_placehold_placehold_placehold_placehold_placehold_placehold_placehold_placehold_placehold_placehold_placehold_placehold_plac",
        "sha256": "285f429504f5e99d9a0b7d68d71165019a2a9000cdbea98b98d114ebf5118565",
        "sha256_in_prefix": "2401a69b52326c251f3c19e97bb4a43702923c3e02522a6cbf3a63d5ccae2692",
        "size_in_bytes": 116056
      },
      {
        "_path": "sbin/kdb5_util",
        "path_type": "hardlink",
        "sha256": "754000cf8b98931ad1dad8d12103bac6ec280be6c2ea2c8cf7673e7abde12eac",
        "sha256_in_prefix": "754000cf8b98931ad1dad8d12103bac6ec280be6c2ea2c8cf7673e7abde12eac",
        "size_in_bytes": 95112
      },
      {
        "_path": "sbin/kprop",
        "file_mode": "binary",
        "path_type": "hardlink",
        "prefix_placeholder": "/Users/runner/miniforge3/conda-bld/krb5_1671091550592/_h_env_placehold_placehold_placehold_placehold_placehold_placehold_placehold_placehold_placehold_placehold_placehold_placehold_placehold_placehold_placehold_placehold_placehold_placehold_placehold_plac",
        "sha256": "da684282e28f650c79252ef10cb8ade496ec8eb7fab4d7b7b50bbddc9e8cd5e1",
        "sha256_in_prefix": "7ae53ece032625fee34972ab7bb66b9a86cedac20d23f35ac08955316fc3cf5b",
        "size_in_bytes": 25368
      },
      {
        "_path": "sbin/kpropd",
        "file_mode": "binary",
        "path_type": "hardlink",
        "prefix_placeholder": "/Users/runner/miniforge3/conda-bld/krb5_1671091550592/_h_env_placehold_placehold_placehold_placehold_placehold_placehold_placehold_placehold_placehold_placehold_placehold_placehold_placehold_placehold_placehold_placehold_placehold_placehold_placehold_plac",
        "sha256": "6f790018eac032cffed1b57c48cd9eb257a2fe383ea3af5a2dd9dde2647732bb",
        "sha256_in_prefix": "a5afe7d5f48e59f065ffd9f79472206269d297e284a3876b9d217ae45cf59e46",
        "size_in_bytes": 45616
      },
      {
        "_path": "sbin/kproplog",
        "path_type": "hardlink",
        "sha256": "2b2848ef7d7c70c31e631d5d8d3aab3444f20fea22eaae4ad0feadcd87e7cec9",
        "sha256_in_prefix": "2b2848ef7d7c70c31e631d5d8d3aab3444f20fea22eaae4ad0feadcd87e7cec9",
        "size_in_bytes": 22856
      },
      {
        "_path": "sbin/krb5-send-pr",
        "path_type": "hardlink",
        "sha256": "b2f471f0c9c664989814fee1a3e928814a26fad235c985257228b32512f8a148",
        "sha256_in_prefix": "b2f471f0c9c664989814fee1a3e928814a26fad235c985257228b32512f8a148",
        "size_in_bytes": 347
      },
      {
        "_path": "sbin/krb5kdc",
        "file_mode": "binary",
        "path_type": "hardlink",
        "prefix_placeholder": "/Users/runner/miniforge3/conda-bld/krb5_1671091550592/_h_env_placehold_placehold_placehold_placehold_placehold_placehold_placehold_placehold_placehold_placehold_placehold_placehold_placehold_placehold_placehold_placehold_placehold_placehold_placehold_plac",
        "sha256": "d7f242e8681273243e5665ee3a068504540eb633c959efc8e4784b70494838e3",
        "sha256_in_prefix": "3b2fbde7cec34e91c7bac0c83c1d1d9941ae23de0651067447e7c63b2a25c9c4",
        "size_in_bytes": 155776
      },
      {
        "_path": "sbin/sim_server",
        "path_type": "hardlink",
        "sha256": "65b6424d308f60cfbce0c706a44a1cf7f51db2145d13e98330d47de80148d732",
        "sha256_in_prefix": "65b6424d308f60cfbce0c706a44a1cf7f51db2145d13e98330d47de80148d732",
        "size_in_bytes": 14176
      },
      {
        "_path": "sbin/sserver",
        "path_type": "hardlink",
        "sha256": "0702d1e6c0518e75a20ed171c65e812c3f7555442e9c2ab9eeb48edf3e9a26be",
        "sha256_in_prefix": "0702d1e6c0518e75a20ed171c65e812c3f7555442e9c2ab9eeb48edf3e9a26be",
        "size_in_bytes": 14512
      },
      {
        "_path": "sbin/uuserver",
        "path_type": "hardlink",
        "sha256": "5787db452809214984868988bf3d4d3d86cf42d72a7a3b77c5b58d0d5ff5c620",
        "sha256_in_prefix": "5787db452809214984868988bf3d4d3d86cf42d72a7a3b77c5b58d0d5ff5c620",
        "size_in_bytes": 14744
      },
      {
        "_path": "share/et/et_c.awk",
        "path_type": "hardlink",
        "sha256": "2187fea4d5d68f2341e44040e3bafb83a52aa3b7697fd1ec13ddcc57b565d274",
        "sha256_in_prefix": "2187fea4d5d68f2341e44040e3bafb83a52aa3b7697fd1ec13ddcc57b565d274",
        "size_in_bytes": 5212
      },
      {
        "_path": "share/et/et_h.awk",
        "path_type": "hardlink",
        "sha256": "2a3b200cf0f767df8a1c595cbdb3a9151dfd682bf27443590074c984ca38944e",
        "sha256_in_prefix": "2a3b200cf0f767df8a1c595cbdb3a9151dfd682bf27443590074c984ca38944e",
        "size_in_bytes": 3918
      },
      {
        "_path": "share/examples/krb5/kdc.conf",
        "path_type": "hardlink",
        "sha256": "db1f1149b17b5d2ffd892d74e602be07224f300da1041a2724770d5d8dfc008f",
        "sha256_in_prefix": "db1f1149b17b5d2ffd892d74e602be07224f300da1041a2724770d5d8dfc008f",
        "size_in_bytes": 341
      },
      {
        "_path": "share/examples/krb5/krb5.conf",
        "path_type": "hardlink",
        "sha256": "ac5ea37381e4ce97d946f13fbebfa635c38975c0fbd780864775b86fb1e66ffe",
        "sha256_in_prefix": "ac5ea37381e4ce97d946f13fbebfa635c38975c0fbd780864775b86fb1e66ffe",
        "size_in_bytes": 369
      },
      {
        "_path": "share/examples/krb5/services.append",
        "path_type": "hardlink",
        "sha256": "4e8f694996021b0ffd0edc2ef7f36ebc202e697c5ee919f05a9e1d43120db2be",
        "sha256_in_prefix": "4e8f694996021b0ffd0edc2ef7f36ebc202e697c5ee919f05a9e1d43120db2be",
        "size_in_bytes": 598
      },
      {
        "_path": "share/locale/de/LC_MESSAGES/mit-krb5.mo",
        "path_type": "hardlink",
        "sha256": "20055d170bf3f0568266bffcfb845103bd7df2ede9f0cde37bd89d987ccd5b07",
        "sha256_in_prefix": "20055d170bf3f0568266bffcfb845103bd7df2ede9f0cde37bd89d987ccd5b07",
        "size_in_bytes": 199295
      },
      {
        "_path": "share/locale/en_US/LC_MESSAGES/mit-krb5.mo",
        "path_type": "hardlink",
        "sha256": "482c44fc8f43c1cd7bd5cf58675bbff7b1f7171f24945b2fdbb4335fc55c890c",
        "sha256_in_prefix": "482c44fc8f43c1cd7bd5cf58675bbff7b1f7171f24945b2fdbb4335fc55c890c",
        "size_in_bytes": 369
      },
      {
        "_path": "share/man/man1/compile_et.1",
        "path_type": "hardlink",
        "sha256": "f31c861f180c6397b7796c8c86016ced1b6cef519f76ee26bc3bf5a23665fde7",
        "sha256_in_prefix": "f31c861f180c6397b7796c8c86016ced1b6cef519f76ee26bc3bf5a23665fde7",
        "size_in_bytes": 2549
      },
      {
        "_path": "share/man/man1/k5srvutil.1",
        "path_type": "hardlink",
        "sha256": "60b5a3bccd1ffae4f3f1315910dafcdb7f404294a315d25a07cdaea5337ad37b",
        "sha256_in_prefix": "60b5a3bccd1ffae4f3f1315910dafcdb7f404294a315d25a07cdaea5337ad37b",
        "size_in_bytes": 2868
      },
      {
        "_path": "share/man/man1/kadmin.1",
        "path_type": "hardlink",
        "sha256": "75c6370fba2c891b85ad5c1cc2487ca50cf9b096fcbf71a2c99f085a2cb8ca7b",
        "sha256_in_prefix": "75c6370fba2c891b85ad5c1cc2487ca50cf9b096fcbf71a2c99f085a2cb8ca7b",
        "size_in_bytes": 32388
      },
      {
        "_path": "share/man/man1/kdestroy.1",
        "path_type": "hardlink",
        "sha256": "af507fef406e4daa0f730f07523a88258822473ff5a30eceee5c5b9f1017ebe1",
        "sha256_in_prefix": "af507fef406e4daa0f730f07523a88258822473ff5a30eceee5c5b9f1017ebe1",
        "size_in_bytes": 2549
      },
      {
        "_path": "share/man/man1/kinit.1",
        "path_type": "hardlink",
        "sha256": "f34d55cb1c0917542bdebb3ad77c19eba8be0d27451358163cc76c0ff124aa71",
        "sha256_in_prefix": "f34d55cb1c0917542bdebb3ad77c19eba8be0d27451358163cc76c0ff124aa71",
        "size_in_bytes": 8468
      },
      {
        "_path": "share/man/man1/klist.1",
        "path_type": "hardlink",
        "sha256": "6457a9e7b6016002d465a7997d9eab343c91dad9111c7a3ecd26e4bf312b12f7",
        "sha256_in_prefix": "6457a9e7b6016002d465a7997d9eab343c91dad9111c7a3ecd26e4bf312b12f7",
        "size_in_bytes": 3774
      },
      {
        "_path": "share/man/man1/kpasswd.1",
        "path_type": "hardlink",
        "sha256": "f4c5eb818265ac5b161f8f4e3c52f3491d1f515c922b5258ad4c05ad0c36ed55",
        "sha256_in_prefix": "f4c5eb818265ac5b161f8f4e3c52f3491d1f515c922b5258ad4c05ad0c36ed55",
        "size_in_bytes": 1866
      },
      {
        "_path": "share/man/man1/krb5-config.1",
        "path_type": "hardlink",
        "sha256": "5740ce1ba2fbf1db88c9925c1f5c0586b2a633751a71b2f39b676dea9327edd1",
        "sha256_in_prefix": "5740ce1ba2fbf1db88c9925c1f5c0586b2a633751a71b2f39b676dea9327edd1",
        "size_in_bytes": 3337
      },
      {
        "_path": "share/man/man1/ksu.1",
        "path_type": "hardlink",
        "sha256": "6d3ab1cf54e627e16ca4331eebe89847488298d24e732acb53d37c74c04a27b8",
        "sha256_in_prefix": "6d3ab1cf54e627e16ca4331eebe89847488298d24e732acb53d37c74c04a27b8",
        "size_in_bytes": 17258
      },
      {
        "_path": "share/man/man1/kswitch.1",
        "path_type": "hardlink",
        "sha256": "f8ba451ec8d51852455560b6031533e8ebb5b1ca06966b77981f70cbc538f6e1",
        "sha256_in_prefix": "f8ba451ec8d51852455560b6031533e8ebb5b1ca06966b77981f70cbc538f6e1",
        "size_in_bytes": 1641
      },
      {
        "_path": "share/man/man1/ktutil.1",
        "path_type": "hardlink",
        "sha256": "b6a8228e5fdf07e2288781e57a9b2aa86a76571b868590670720ce67dd9260b4",
        "sha256_in_prefix": "b6a8228e5fdf07e2288781e57a9b2aa86a76571b868590670720ce67dd9260b4",
        "size_in_bytes": 3532
      },
      {
        "_path": "share/man/man1/kvno.1",
        "path_type": "hardlink",
        "sha256": "a54da86d9305259a6b4a2d274e7eed8e97cf87745b856f7170f1ec2e4bf18b53",
        "sha256_in_prefix": "a54da86d9305259a6b4a2d274e7eed8e97cf87745b856f7170f1ec2e4bf18b53",
        "size_in_bytes": 4286
      },
      {
        "_path": "share/man/man1/sclient.1",
        "path_type": "hardlink",
        "sha256": "a57df6f94a3da504d0ea6291e14c346a1c94b98d97815fe9dc398058c493c6af",
        "sha256_in_prefix": "a57df6f94a3da504d0ea6291e14c346a1c94b98d97815fe9dc398058c493c6af",
        "size_in_bytes": 1284
      },
      {
        "_path": "share/man/man5/.k5identity.5",
        "path_type": "hardlink",
        "sha256": "a27b58476a353f8701f12c453eb5621e17df622d26fc77bd343ef5b60bb66a4d",
        "sha256_in_prefix": "a27b58476a353f8701f12c453eb5621e17df622d26fc77bd343ef5b60bb66a4d",
        "size_in_bytes": 22
      },
      {
        "_path": "share/man/man5/.k5login.5",
        "path_type": "hardlink",
        "sha256": "251f58277a1ccfb7190717eb6890c4f94e6e65467b306ac422c3bbdc21160259",
        "sha256_in_prefix": "251f58277a1ccfb7190717eb6890c4f94e6e65467b306ac422c3bbdc21160259",
        "size_in_bytes": 19
      },
      {
        "_path": "share/man/man5/k5identity.5",
        "path_type": "hardlink",
        "sha256": "8a01c3cf5c9a00e3e4b8f0425d5d6ec3d1ecbff9e7bb3ff4d6e9cf258b88ac4f",
        "sha256_in_prefix": "8a01c3cf5c9a00e3e4b8f0425d5d6ec3d1ecbff9e7bb3ff4d6e9cf258b88ac4f",
        "size_in_bytes": 3064
      },
      {
        "_path": "share/man/man5/k5login.5",
        "path_type": "hardlink",
        "sha256": "1b03b4ac5b77acd168b9edc88b07d7e0b2cc50c0f180f9d01d53c1508de7647a",
        "sha256_in_prefix": "1b03b4ac5b77acd168b9edc88b07d7e0b2cc50c0f180f9d01d53c1508de7647a",
        "size_in_bytes": 2833
      },
      {
        "_path": "share/man/man5/kadm5.acl.5",
        "file_mode": "text",
        "path_type": "hardlink",
        "prefix_placeholder": "/Users/runner/miniforge3/conda-bld/krb5_1671091550592/_h_env_placehold_placehold_placehold_placehold_placehold_placehold_placehold_placehold_placehold_placehold_placehold_placehold_placehold_placehold_placehold_placehold_placehold_placehold_placehold_plac",
        "sha256": "faff32a3ff60aa89f9743a8b97faee7b7aac5cd74871c7d5e1f3036cd200cb20",
        "sha256_in_prefix": "4821279f3d208835772aef29c6a080d681911471113f4fdaa121274217184392",
        "size_in_bytes": 7696
      },
      {
        "_path": "share/man/man5/kdc.conf.5",
        "file_mode": "text",
        "path_type": "hardlink",
        "prefix_placeholder": "/Users/runner/miniforge3/conda-bld/krb5_1671091550592/_h_env_placehold_placehold_placehold_placehold_placehold_placehold_placehold_placehold_placehold_placehold_placehold_placehold_placehold_placehold_placehold_placehold_placehold_placehold_placehold_plac",
        "sha256": "2f068bc69f2c1fabf0ab85e0fcd92f6c37415d3dde94ec3a9753909287286a55",
        "sha256_in_prefix": "6fe4e5a1a41f86c74639f808577e63e545c0c57c8036b609e9804134dac1c275",
        "size_in_bytes": 41908
      },
      {
        "_path": "share/man/man5/krb5.conf.5",
        "path_type": "hardlink",
        "sha256": "305f5ec542a24fec30714d04111e208c4d65a16f74b822a603007bf86181625a",
        "sha256_in_prefix": "305f5ec542a24fec30714d04111e208c4d65a16f74b822a603007bf86181625a",
        "size_in_bytes": 49570
      },
      {
        "_path": "share/man/man7/kerberos.7",
        "file_mode": "text",
        "path_type": "hardlink",
        "prefix_placeholder": "/Users/runner/miniforge3/conda-bld/krb5_1671091550592/_h_env_placehold_placehold_placehold_placehold_placehold_placehold_placehold_placehold_placehold_placehold_placehold_placehold_placehold_placehold_placehold_placehold_placehold_placehold_placehold_plac",
        "sha256": "3e76751fc8865846b0babd56b729d0ce4b3f64cff71d51f8dca89a5c314955ff",
        "sha256_in_prefix": "530b7879dc253b0c9a9565c69e315756808b9019ef561f398cd6e7337bba85ba",
        "size_in_bytes": 9098
      },
      {
        "_path": "share/man/man8/kadmin.local.8",
        "path_type": "hardlink",
        "sha256": "5ca50e711339491b407438689b8781e86c0e43a885ace7a93dca694246cc20be",
        "sha256_in_prefix": "5ca50e711339491b407438689b8781e86c0e43a885ace7a93dca694246cc20be",
        "size_in_bytes": 18
      },
      {
        "_path": "share/man/man8/kadmind.8",
        "file_mode": "text",
        "path_type": "hardlink",
        "prefix_placeholder": "/Users/runner/miniforge3/conda-bld/krb5_1671091550592/_h_env_placehold_placehold_placehold_placehold_placehold_placehold_placehold_placehold_placehold_placehold_placehold_placehold_placehold_placehold_placehold_placehold_placehold_placehold_placehold_plac",
        "sha256": "afda4b8ffb50e3ef0e06926ecd90781e44d0249064feb4576e629e35b4dcf216",
        "sha256_in_prefix": "bab56a512bc0dec1f23c23269b5870131291464fa726eb7aae2e267869d34e7d",
        "size_in_bytes": 5417
      },
      {
        "_path": "share/man/man8/kdb5_ldap_util.8",
        "path_type": "hardlink",
        "sha256": "146f275d73bb1e6eade27538a47c7ce5bbccc2567542717f2e666db5307d00c1",
        "sha256_in_prefix": "146f275d73bb1e6eade27538a47c7ce5bbccc2567542717f2e666db5307d00c1",
        "size_in_bytes": 12708
      },
      {
        "_path": "share/man/man8/kdb5_util.8",
        "path_type": "hardlink",
        "sha256": "21288d4393e6e62a4740bd91ae4037537b3547c21f1feca9d49b5c48fa91130d",
        "sha256_in_prefix": "21288d4393e6e62a4740bd91ae4037537b3547c21f1feca9d49b5c48fa91130d",
        "size_in_bytes": 16272
      },
      {
        "_path": "share/man/man8/kprop.8",
        "file_mode": "text",
        "path_type": "hardlink",
        "prefix_placeholder": "/Users/runner/miniforge3/conda-bld/krb5_1671091550592/_h_env_placehold_placehold_placehold_placehold_placehold_placehold_placehold_placehold_placehold_placehold_placehold_placehold_placehold_placehold_placehold_placehold_placehold_placehold_placehold_plac",
        "sha256": "e96ef21e6c748ec1b5a1316e1e2616ffe2b7cff60392b2ac95210b57d51e39e1",
        "sha256_in_prefix": "1e5c1c4758fcd4d98adaafac7b84e09fdb04c359fbe953b53015ac7899ed6389",
        "size_in_bytes": 2228
      },
      {
        "_path": "share/man/man8/kpropd.8",
        "file_mode": "text",
        "path_type": "hardlink",
        "prefix_placeholder": "/Users/runner/miniforge3/conda-bld/krb5_1671091550592/_h_env_placehold_placehold_placehold_placehold_placehold_placehold_placehold_placehold_placehold_placehold_placehold_placehold_placehold_placehold_placehold_placehold_placehold_placehold_placehold_plac",
        "sha256": "559060f29c05264156c4a3e7c0c0b88a330b3c4e61e448201f184001c97aca7b",
        "sha256_in_prefix": "c77dd11d0582d43a5e39d80a3dce6c0b5504da4f6751d4effd533bf314299ab5",
        "size_in_bytes": 6367
      },
      {
        "_path": "share/man/man8/kproplog.8",
        "path_type": "hardlink",
        "sha256": "6e8f097ee8758c19516332678566234428f711b5640c3a646c7f486575ccd1b5",
        "sha256_in_prefix": "6e8f097ee8758c19516332678566234428f711b5640c3a646c7f486575ccd1b5",
        "size_in_bytes": 3372
      },
      {
        "_path": "share/man/man8/krb5kdc.8",
        "path_type": "hardlink",
        "sha256": "01c60f668ff77de12e02e0b3e5f11048953e9b9478b19646fdb83ceb729c7864",
        "sha256_in_prefix": "01c60f668ff77de12e02e0b3e5f11048953e9b9478b19646fdb83ceb729c7864",
        "size_in_bytes": 4721
      },
      {
        "_path": "share/man/man8/sserver.8",
        "path_type": "hardlink",
        "sha256": "2dec29069971251c4118ccf64fe5943644f88dada2c4d63e74b8d448070ef04d",
        "sha256_in_prefix": "2dec29069971251c4118ccf64fe5943644f88dada2c4d63e74b8d448070ef04d",
        "size_in_bytes": 4536
      }
    ],
    "paths_version": 1
  },
  "requested_spec": "None",
  "sha256": "41cfbf4c5cdb4a32eb5319943113d7ef1edb894ea0a5464233e510b59450c824",
  "size": 1127291,
  "subdir": "osx-64",
  "timestamp": 1671092045705,
  "track_features": "",
  "url": "https://conda.anaconda.org/conda-forge/osx-64/krb5-1.20.1-h049b76e_0.conda",
  "version": "1.20.1"
}