{
  "build": "h775f41a_0",
  "build_number": 0,
  "channel": "https://conda.anaconda.org/conda-forge/osx-64",
  "constrains": [
    "libwebp 1.2.4"
  ],
  "depends": [],
  "extracted_package_dir": "/Users/grokkingstuff/miniforge3/pkgs/libwebp-base-1.2.4-h775f41a_0",
  "features": "",
  "files": [
    "include/webp/decode.h",
    "include/webp/demux.h",
    "include/webp/encode.h",
    "include/webp/mux.h",
    "include/webp/mux_types.h",
    "include/webp/types.h",
    "lib/libwebp.7.dylib",
    "lib/libwebp.dylib",
    "lib/libwebpdecoder.3.dylib",
    "lib/libwebpdecoder.dylib",
    "lib/libwebpdemux.2.dylib",
    "lib/libwebpdemux.dylib",
    "lib/libwebpmux.3.dylib",
    "lib/libwebpmux.dylib",
    "lib/pkgconfig/libwebp.pc",
    "lib/pkgconfig/libwebpdecoder.pc",
    "lib/pkgconfig/libwebpdemux.pc",
    "lib/pkgconfig/libwebpmux.pc",
    "share/man/man1/cwebp.1",
    "share/man/man1/dwebp.1",
    "share/man/man1/img2webp.1",
    "share/man/man1/webpinfo.1",
    "share/man/man1/webpmux.1"
  ],
  "fn": "libwebp-base-1.2.4-h775f41a_0.tar.bz2",
  "license": "BSD-3-Clause",
  "license_family": "BSD",
  "link": {
    "source": "/Users/grokkingstuff/miniforge3/pkgs/libwebp-base-1.2.4-h775f41a_0",
    "type": 1
  },
  "md5": "28807bef802a354f9c164e7ab242c5cb",
  "name": "libwebp-base",
  "package_tarball_full_path": "/Users/grokkingstuff/miniforge3/pkgs/libwebp-base-1.2.4-h775f41a_0.tar.bz2",
  "paths_data": {
    "paths": [
      {
        "_path": "include/webp/decode.h",
        "path_type": "hardlink",
        "sha256": "8bfc41523c5beb70c1c34c8f538132426062826801b4dca4ff6f9d788bd3360f",
        "sha256_in_prefix": "8bfc41523c5beb70c1c34c8f538132426062826801b4dca4ff6f9d788bd3360f",
        "size_in_bytes": 23710
      },
      {
        "_path": "include/webp/demux.h",
        "path_type": "hardlink",
        "sha256": "c37bd27299d984b7d9ee564bf25873f6620a0a6a0975e44adf0abeed628999af",
        "sha256_in_prefix": "c37bd27299d984b7d9ee564bf25873f6620a0a6a0975e44adf0abeed628999af",
        "size_in_bytes": 15603
      },
      {
        "_path": "include/webp/encode.h",
        "path_type": "hardlink",
        "sha256": "f5c2b687b7be49635afb07ddc3fb69402eb9ab990449c6a5400537537bacf9c4",
        "sha256_in_prefix": "f5c2b687b7be49635afb07ddc3fb69402eb9ab990449c6a5400537537bacf9c4",
        "size_in_bytes": 28010
      },
      {
        "_path": "include/webp/mux.h",
        "path_type": "hardlink",
        "sha256": "3c1db467a27b7bc26f1848f493af1a36366cbc488535b7d84779cc78e60c9f95",
        "sha256_in_prefix": "3c1db467a27b7bc26f1848f493af1a36366cbc488535b7d84779cc78e60c9f95",
        "size_in_bytes": 22833
      },
      {
        "_path": "include/webp/mux_types.h",
        "path_type": "hardlink",
        "sha256": "624d40af94f4b842ccdd8dcc14a198b40703e167e4323719d2d16320c941f81b",
        "sha256_in_prefix": "624d40af94f4b842ccdd8dcc14a198b40703e167e4323719d2d16320c941f81b",
        "size_in_bytes": 3193
      },
      {
        "_path": "include/webp/types.h",
        "path_type": "hardlink",
        "sha256": "4024d5cf933f270cd8f58aebc4c08c4a1480281a166fb7633b5785f2acc2944a",
        "sha256_in_prefix": "4024d5cf933f270cd8f58aebc4c08c4a1480281a166fb7633b5785f2acc2944a",
        "size_in_bytes": 2106
      },
      {
        "_path": "lib/libwebp.7.dylib",
        "path_type": "hardlink",
        "sha256": "a23405bf82e6d32bb45f1bd0fd4b668ac04abaf4be2d869ef19b67e627ad4c8b",
        "sha256_in_prefix": "a23405bf82e6d32bb45f1bd0fd4b668ac04abaf4be2d869ef19b67e627ad4c8b",
        "size_in_bytes": 583312
      },
      {
        "_path": "lib/libwebp.dylib",
        "path_type": "softlink",
        "sha256": "a23405bf82e6d32bb45f1bd0fd4b668ac04abaf4be2d869ef19b67e627ad4c8b",
        "size_in_bytes": 583312
      },
      {
        "_path": "lib/libwebpdecoder.3.dylib",
        "path_type": "hardlink",
        "sha256": "d9646be45d20de1dc0e47682e19f036f9634631d548bde89d1cb415997aba4ab",
        "sha256_in_prefix": "d9646be45d20de1dc0e47682e19f036f9634631d548bde89d1cb415997aba4ab",
        "size_in_bytes": 290448
      },
      {
        "_path": "lib/libwebpdecoder.dylib",
        "path_type": "softlink",
        "sha256": "d9646be45d20de1dc0e47682e19f036f9634631d548bde89d1cb415997aba4ab",
        "size_in_bytes": 290448
      },
      {
        "_path": "lib/libwebpdemux.2.dylib",
        "path_type": "hardlink",
        "sha256": "96e4b72b5beac7dbbabb3d5a3e98cf15638021b484fe83af2e2c465030eadcbb",
        "sha256_in_prefix": "96e4b72b5beac7dbbabb3d5a3e98cf15638021b484fe83af2e2c465030eadcbb",
        "size_in_bytes": 22728
      },
      {
        "_path": "lib/libwebpdemux.dylib",
        "path_type": "softlink",
        "sha256": "96e4b72b5beac7dbbabb3d5a3e98cf15638021b484fe83af2e2c465030eadcbb",
        "size_in_bytes": 22728
      },
      {
        "_path": "lib/libwebpmux.3.dylib",
        "path_type": "hardlink",
        "sha256": "aa677f6670f8748944b89669bad2e7e1584ec462be43569435e3e4a04fb5703c",
        "sha256_in_prefix": "aa677f6670f8748944b89669bad2e7e1584ec462be43569435e3e4a04fb5703c",
        "size_in_bytes": 46280
      },
      {
        "_path": "lib/libwebpmux.dylib",
        "path_type": "softlink",
        "sha256": "aa677f6670f8748944b89669bad2e7e1584ec462be43569435e3e4a04fb5703c",
        "size_in_bytes": 46280
      },
      {
        "_path": "lib/pkgconfig/libwebp.pc",
        "file_mode": "text",
        "path_type": "hardlink",
        "prefix_placeholder": "/Users/runner/miniforge3/conda-bld/libwebp-base_1659983972535/_h_env_placehold_placehold_placehold_placehold_placehold_placehold_placehold_placehold_placehold_placehold_placehold_placehold_placehold_placehold_placehold_placehold_placehold_placehold_placeh",
        "sha256": "119eb3525dbe26a57a73004efe51336c02734dc76da5059c70c93a1c0fcbd5b7",
        "sha256_in_prefix": "a457c90e8b83ef552eb5707d2d68a69fd6076b280a9096b7823a7ad745315acb",
        "size_in_bytes": 512
      },
      {
        "_path": "lib/pkgconfig/libwebpdecoder.pc",
        "file_mode": "text",
        "path_type": "hardlink",
        "prefix_placeholder": "/Users/runner/miniforge3/conda-bld/libwebp-base_1659983972535/_h_env_placehold_placehold_placehold_placehold_placehold_placehold_placehold_placehold_placehold_placehold_placehold_placehold_placehold_placehold_placehold_placehold_placehold_placehold_placeh",
        "sha256": "76939a38ce5ed8096f6e45fe047ede9f78a67f6df8e202efffa8497c93350cfc",
        "sha256_in_prefix": "a73d68b0f949804ab56bcbaa5a3e52f83a9659bd21f9793a01af8e16b3f6f430",
        "size_in_bytes": 540
      },
      {
        "_path": "lib/pkgconfig/libwebpdemux.pc",
        "file_mode": "text",
        "path_type": "hardlink",
        "prefix_placeholder": "/Users/runner/miniforge3/conda-bld/libwebp-base_1659983972535/_h_env_placehold_placehold_placehold_placehold_placehold_placehold_placehold_placehold_placehold_placehold_placehold_placehold_placehold_placehold_placehold_placehold_placehold_placehold_placeh",
        "sha256": "5d45ff4486cb23e193ba89641a9288ac4401d39fcbb32f9fd755b9be5a11a02b",
        "sha256_in_prefix": "ba4cc280a61fce76ab2982ea819e1b8e551f50f8422475837e50f96b24ac9adc",
        "size_in_bytes": 524
      },
      {
        "_path": "lib/pkgconfig/libwebpmux.pc",
        "file_mode": "text",
        "path_type": "hardlink",
        "prefix_placeholder": "/Users/runner/miniforge3/conda-bld/libwebp-base_1659983972535/_h_env_placehold_placehold_placehold_placehold_placehold_placehold_placehold_placehold_placehold_placehold_placehold_placehold_placehold_placehold_placehold_placehold_placehold_placehold_placeh",
        "sha256": "2ed118ab382fb80d1e7741474a230f5901f84d0e194b14e112136376c6204b13",
        "sha256_in_prefix": "bc823fddd8516aada37e0249e7e6cb37b6c06edccdc009bf8779c72a6d881c07",
        "size_in_bytes": 543
      },
      {
        "_path": "share/man/man1/cwebp.1",
        "path_type": "hardlink",
        "sha256": "b0b4389200aa68d1f49762c90c197d66dac985bb5470f3cdb247bf5f86c149e5",
        "sha256_in_prefix": "b0b4389200aa68d1f49762c90c197d66dac985bb5470f3cdb247bf5f86c149e5",
        "size_in_bytes": 13215
      },
      {
        "_path": "share/man/man1/dwebp.1",
        "path_type": "hardlink",
        "sha256": "b0951bc475a04eca23df4586f5ef8468d50b368bbfd139b4f251a7ee794b8887",
        "sha256_in_prefix": "b0951bc475a04eca23df4586f5ef8468d50b368bbfd139b4f251a7ee794b8887",
        "size_in_bytes": 4824
      },
      {
        "_path": "share/man/man1/img2webp.1",
        "path_type": "hardlink",
        "sha256": "ccc475f73c52e7b4f43917f9e65c7cb0d3cd4376bb057d8d9a812d2383bcde82",
        "sha256_in_prefix": "ccc475f73c52e7b4f43917f9e65c7cb0d3cd4376bb057d8d9a812d2383bcde82",
        "size_in_bytes": 3385
      },
      {
        "_path": "share/man/man1/webpinfo.1",
        "path_type": "hardlink",
        "sha256": "853501b8ecd65e25e4408c5e9011aa154968ac7fda9fcf44ed7e7967d171177b",
        "sha256_in_prefix": "853501b8ecd65e25e4408c5e9011aa154968ac7fda9fcf44ed7e7967d171177b",
        "size_in_bytes": 1825
      },
      {
        "_path": "share/man/man1/webpmux.1",
        "path_type": "hardlink",
        "sha256": "928d14c35f09854a5fa9f62beb7b0069eebb5b40538e1370c530bfc8e8b7c91f",
        "sha256_in_prefix": "928d14c35f09854a5fa9f62beb7b0069eebb5b40538e1370c530bfc8e8b7c91f",
        "size_in_bytes": 6599
      }
    ],
    "paths_version": 1
  },
  "requested_spec": "None",
  "sha256": "ca3eb817054ac2942802b6b51dc671ab2af6564da329bebcb2538cdb31b59fa1",
  "size": 393830,
  "subdir": "osx-64",
  "timestamp": 1659984180146,
  "track_features": "",
  "url": "https://conda.anaconda.org/conda-forge/osx-64/libwebp-base-1.2.4-h775f41a_0.tar.bz2",
  "version": "1.2.4"
}