{
  "build": "h61d9ccf_0",
  "build_number": 0,
  "channel": "https://conda.anaconda.org/conda-forge/osx-64",
  "constrains": [
    "openmp 15.0.7|15.0.7.*"
  ],
  "depends": [],
  "extracted_package_dir": "/Users/grokkingstuff/miniforge3/pkgs/llvm-openmp-15.0.7-h61d9ccf_0",
  "features": "",
  "files": [
    "include/omp-tools.h",
    "include/omp.h",
    "include/ompt.h",
    "lib/clang/15.0.7/include/omp.h",
    "lib/libiomp5.dylib",
    "lib/libomp.dylib"
  ],
  "fn": "llvm-openmp-15.0.7-h61d9ccf_0.conda",
  "license": "Apache-2.0 WITH LLVM-exception",
  "license_family": "APACHE",
  "link": {
    "source": "/Users/grokkingstuff/miniforge3/pkgs/llvm-openmp-15.0.7-h61d9ccf_0",
    "type": 1
  },
  "md5": "3faa9933dff6e96333b5ca5274674b63",
  "name": "llvm-openmp",
  "package_tarball_full_path": "/Users/grokkingstuff/miniforge3/pkgs/llvm-openmp-15.0.7-h61d9ccf_0.conda",
  "paths_data": {
    "paths": [
      {
        "_path": "include/omp-tools.h",
        "path_type": "hardlink",
        "sha256": "0132e7f08838a2d4c4d257cf0290c7b9d84c695fef90dd70c14a1b7127433c13",
        "sha256_in_prefix": "0132e7f08838a2d4c4d257cf0290c7b9d84c695fef90dd70c14a1b7127433c13",
        "size_in_bytes": 49347
      },
      {
        "_path": "include/omp.h",
        "path_type": "hardlink",
        "sha256": "f89e27f907b6017cdb65657f2131d4ca2bf79ce797ed2b90c1386a7c91c80f4a",
        "sha256_in_prefix": "f89e27f907b6017cdb65657f2131d4ca2bf79ce797ed2b90c1386a7c91c80f4a",
        "size_in_bytes": 23548
      },
      {
        "_path": "include/ompt.h",
        "path_type": "hardlink",
        "sha256": "0132e7f08838a2d4c4d257cf0290c7b9d84c695fef90dd70c14a1b7127433c13",
        "sha256_in_prefix": "0132e7f08838a2d4c4d257cf0290c7b9d84c695fef90dd70c14a1b7127433c13",
        "size_in_bytes": 49347
      },
      {
        "_path": "lib/clang/15.0.7/include/omp.h",
        "path_type": "hardlink",
        "sha256": "f89e27f907b6017cdb65657f2131d4ca2bf79ce797ed2b90c1386a7c91c80f4a",
        "sha256_in_prefix": "f89e27f907b6017cdb65657f2131d4ca2bf79ce797ed2b90c1386a7c91c80f4a",
        "size_in_bytes": 23548
      },
      {
        "_path": "lib/libiomp5.dylib",
        "path_type": "softlink",
        "sha256": "23f3d04dbcad47d827ac57feeca70bbfc3ef1e6688ec70733225dc1288341289",
        "size_in_bytes": 814224
      },
      {
        "_path": "lib/libomp.dylib",
        "path_type": "hardlink",
        "sha256": "23f3d04dbcad47d827ac57feeca70bbfc3ef1e6688ec70733225dc1288341289",
        "sha256_in_prefix": "23f3d04dbcad47d827ac57feeca70bbfc3ef1e6688ec70733225dc1288341289",
        "size_in_bytes": 814224
      }
    ],
    "paths_version": 1
  },
  "requested_spec": "None",
  "sha256": "cc1586b43b757890b7d1cd24e1582345a36c40acd6cb6f9d9affb91de3c62015",
  "size": 293663,
  "subdir": "osx-64",
  "timestamp": 1673584734412,
  "track_features": "",
  "url": "https://conda.anaconda.org/conda-forge/osx-64/llvm-openmp-15.0.7-h61d9ccf_0.conda",
  "version": "15.0.7"
}