{
  "build": "py310h90acd4f_0",
  "build_number": 0,
  "channel": "https://conda.anaconda.org/conda-forge/osx-64",
  "constrains": [],
  "depends": [
    "python >=3.10,<3.11.0a0",
    "python_abi 3.10.* *_cp310"
  ],
  "extracted_package_dir": "/Users/grokkingstuff/miniforge3/pkgs/multidict-6.0.4-py310h90acd4f_0",
  "features": "",
  "files": [
    "lib/python3.10/site-packages/multidict-6.0.4.dist-info/INSTALLER",
    "lib/python3.10/site-packages/multidict-6.0.4.dist-info/LICENSE",
    "lib/python3.10/site-packages/multidict-6.0.4.dist-info/METADATA",
    "lib/python3.10/site-packages/multidict-6.0.4.dist-info/RECORD",
    "lib/python3.10/site-packages/multidict-6.0.4.dist-info/REQUESTED",
    "lib/python3.10/site-packages/multidict-6.0.4.dist-info/WHEEL",
    "lib/python3.10/site-packages/multidict-6.0.4.dist-info/direct_url.json",
    "lib/python3.10/site-packages/multidict-6.0.4.dist-info/top_level.txt",
    "lib/python3.10/site-packages/multidict/__init__.py",
    "lib/python3.10/site-packages/multidict/__init__.pyi",
    "lib/python3.10/site-packages/multidict/__pycache__/__init__.cpython-310.pyc",
    "lib/python3.10/site-packages/multidict/__pycache__/_abc.cpython-310.pyc",
    "lib/python3.10/site-packages/multidict/__pycache__/_compat.cpython-310.pyc",
    "lib/python3.10/site-packages/multidict/__pycache__/_multidict_base.cpython-310.pyc",
    "lib/python3.10/site-packages/multidict/__pycache__/_multidict_py.cpython-310.pyc",
    "lib/python3.10/site-packages/multidict/_abc.py",
    "lib/python3.10/site-packages/multidict/_compat.py",
    "lib/python3.10/site-packages/multidict/_multidict.cpython-310-darwin.so",
    "lib/python3.10/site-packages/multidict/_multidict_base.py",
    "lib/python3.10/site-packages/multidict/_multidict_py.py",
    "lib/python3.10/site-packages/multidict/py.typed"
  ],
  "fn": "multidict-6.0.4-py310h90acd4f_0.conda",
  "license": "Apache-2.0",
  "license_family": "APACHE",
  "link": {
    "source": "/Users/grokkingstuff/miniforge3/pkgs/multidict-6.0.4-py310h90acd4f_0",
    "type": 1
  },
  "md5": "0324181c4442d94c865cf9ae3b6a7fea",
  "name": "multidict",
  "package_tarball_full_path": "/Users/grokkingstuff/miniforge3/pkgs/multidict-6.0.4-py310h90acd4f_0.conda",
  "paths_data": {
    "paths": [
      {
        "_path": "lib/python3.10/site-packages/multidict-6.0.4.dist-info/INSTALLER",
        "path_type": "hardlink",
        "sha256": "d0edee15f91b406f3f99726e44eb990be6e34fd0345b52b910c568e0eef6a2a8",
        "sha256_in_prefix": "d0edee15f91b406f3f99726e44eb990be6e34fd0345b52b910c568e0eef6a2a8",
        "size_in_bytes": 5
      },
      {
        "_path": "lib/python3.10/site-packages/multidict-6.0.4.dist-info/LICENSE",
        "path_type": "hardlink",
        "sha256": "06a240ea10ba868fda2de58df859886961df873aa74bbab1e0f13eaf99f92b7b",
        "sha256_in_prefix": "06a240ea10ba868fda2de58df859886961df873aa74bbab1e0f13eaf99f92b7b",
        "size_in_bytes": 608
      },
      {
        "_path": "lib/python3.10/site-packages/multidict-6.0.4.dist-info/METADATA",
        "path_type": "hardlink",
        "sha256": "dc1e6552a8e6a24414294bd615d741ff6a2b958c732371cd7263abd6f56562c7",
        "sha256_in_prefix": "dc1e6552a8e6a24414294bd615d741ff6a2b958c732371cd7263abd6f56562c7",
        "size_in_bytes": 4140
      },
      {
        "_path": "lib/python3.10/site-packages/multidict-6.0.4.dist-info/RECORD",
        "path_type": "hardlink",
        "sha256": "c09a362392f1b388a4e307dbf34179397d74c60e95e185215fea52ff68325084",
        "sha256_in_prefix": "c09a362392f1b388a4e307dbf34179397d74c60e95e185215fea52ff68325084",
        "size_in_bytes": 1591
      },
      {
        "_path": "lib/python3.10/site-packages/multidict-6.0.4.dist-info/REQUESTED",
        "path_type": "hardlink",
        "sha256": "e3b0c44298fc1c149afbf4c8996fb92427ae41e4649b934ca495991b7852b855",
        "sha256_in_prefix": "e3b0c44298fc1c149afbf4c8996fb92427ae41e4649b934ca495991b7852b855",
        "size_in_bytes": 0
      },
      {
        "_path": "lib/python3.10/site-packages/multidict-6.0.4.dist-info/WHEEL",
        "path_type": "hardlink",
        "sha256": "f395f1a949992c2a4051bc8de5588bdeb800e43c346f59279c2e20b6baed0e31",
        "sha256_in_prefix": "f395f1a949992c2a4051bc8de5588bdeb800e43c346f59279c2e20b6baed0e31",
        "size_in_bytes": 111
      },
      {
        "_path": "lib/python3.10/site-packages/multidict-6.0.4.dist-info/direct_url.json",
        "path_type": "hardlink",
        "sha256": "bfd1df4cc335e4682533c3d24ebfdb4a140d7e63d1d484b90edbc3ba306a80cf",
        "sha256_in_prefix": "bfd1df4cc335e4682533c3d24ebfdb4a140d7e63d1d484b90edbc3ba306a80cf",
        "size_in_bytes": 97
      },
      {
        "_path": "lib/python3.10/site-packages/multidict-6.0.4.dist-info/top_level.txt",
        "path_type": "hardlink",
        "sha256": "f9eb83125924e7faa499f209ed68aa09a6f4d999521595b29de8ca839f6a6504",
        "sha256_in_prefix": "f9eb83125924e7faa499f209ed68aa09a6f4d999521595b29de8ca839f6a6504",
        "size_in_bytes": 10
      },
      {
        "_path": "lib/python3.10/site-packages/multidict/__init__.py",
        "path_type": "hardlink",
        "sha256": "417484046e3c4a30f7cefc70635faa46f31b74570f9f9f657a4ccc45bb07b191",
        "sha256_in_prefix": "417484046e3c4a30f7cefc70635faa46f31b74570f9f9f657a4ccc45bb07b191",
        "size_in_bytes": 928
      },
      {
        "_path": "lib/python3.10/site-packages/multidict/__init__.pyi",
        "path_type": "hardlink",
        "sha256": "9243cf3d6d96c414ff39aaf5d681687103094452ae7851d4ddf0e87820dd688d",
        "sha256_in_prefix": "9243cf3d6d96c414ff39aaf5d681687103094452ae7851d4ddf0e87820dd688d",
        "size_in_bytes": 4853
      },
      {
        "_path": "lib/python3.10/site-packages/multidict/__pycache__/__init__.cpython-310.pyc",
        "path_type": "hardlink",
        "sha256": "88e50f6d5fe197753e270f3d0fd5e3b4a7879752504efe08eca457323809f80e",
        "sha256_in_prefix": "88e50f6d5fe197753e270f3d0fd5e3b4a7879752504efe08eca457323809f80e",
        "size_in_bytes": 826
      },
      {
        "_path": "lib/python3.10/site-packages/multidict/__pycache__/_abc.cpython-310.pyc",
        "path_type": "hardlink",
        "sha256": "357eae520310965841ffe491ddb8dcf16b1d2e75e7ccc7e4234023db27e2fee0",
        "sha256_in_prefix": "357eae520310965841ffe491ddb8dcf16b1d2e75e7ccc7e4234023db27e2fee0",
        "size_in_bytes": 1904
      },
      {
        "_path": "lib/python3.10/site-packages/multidict/__pycache__/_compat.cpython-310.pyc",
        "path_type": "hardlink",
        "sha256": "c6763af9f08eec96a92741f708b89afdc2d7dc422be162f6e264d724aa61b01b",
        "sha256_in_prefix": "c6763af9f08eec96a92741f708b89afdc2d7dc422be162f6e264d724aa61b01b",
        "size_in_bytes": 435
      },
      {
        "_path": "lib/python3.10/site-packages/multidict/__pycache__/_multidict_base.cpython-310.pyc",
        "path_type": "hardlink",
        "sha256": "b3347c4fe9633fa48561e361d731dd38a8c5fb3fa0c463500c69488f4eeb8752",
        "sha256_in_prefix": "b3347c4fe9633fa48561e361d731dd38a8c5fb3fa0c463500c69488f4eeb8752",
        "size_in_bytes": 3228
      },
      {
        "_path": "lib/python3.10/site-packages/multidict/__pycache__/_multidict_py.cpython-310.pyc",
        "path_type": "hardlink",
        "sha256": "c425dbba728426a5ed6eaab6079c99c72c9364b897cdad4744c1ce4fa65bed42",
        "sha256_in_prefix": "c425dbba728426a5ed6eaab6079c99c72c9364b897cdad4744c1ce4fa65bed42",
        "size_in_bytes": 16343
      },
      {
        "_path": "lib/python3.10/site-packages/multidict/_abc.py",
        "path_type": "hardlink",
        "sha256": "66f9eb9f848192bbf84130fbf99cea35ca31c347fc292b4b30fcc6bc1b864f6c",
        "sha256_in_prefix": "66f9eb9f848192bbf84130fbf99cea35ca31c347fc292b4b30fcc6bc1b864f6c",
        "size_in_bytes": 1190
      },
      {
        "_path": "lib/python3.10/site-packages/multidict/_compat.py",
        "path_type": "hardlink",
        "sha256": "b6350674ff68a221fa736289aef51b3d1c1cbe359eaca94a53a22722f8b087bc",
        "sha256_in_prefix": "b6350674ff68a221fa736289aef51b3d1c1cbe359eaca94a53a22722f8b087bc",
        "size_in_bytes": 316
      },
      {
        "_path": "lib/python3.10/site-packages/multidict/_multidict.cpython-310-darwin.so",
        "path_type": "hardlink",
        "sha256": "54a00a10644692b2d6b77613f77ea47a4c8549c29ead9f3b168433534d04ce2c",
        "sha256_in_prefix": "54a00a10644692b2d6b77613f77ea47a4c8549c29ead9f3b168433534d04ce2c",
        "size_in_bytes": 50128
      },
      {
        "_path": "lib/python3.10/site-packages/multidict/_multidict_base.py",
        "path_type": "hardlink",
        "sha256": "5ee82413bf1f5c19adcc3760d988bd4eb1210dec662feeaa25b1481b4be22cc8",
        "sha256_in_prefix": "5ee82413bf1f5c19adcc3760d988bd4eb1210dec662feeaa25b1481b4be22cc8",
        "size_in_bytes": 3791
      },
      {
        "_path": "lib/python3.10/site-packages/multidict/_multidict_py.py",
        "path_type": "hardlink",
        "sha256": "820016e2273d562b5f81122c1e59d87954e1e81e6c6d6af5dc953853ce2ce829",
        "sha256_in_prefix": "820016e2273d562b5f81122c1e59d87954e1e81e6c6d6af5dc953853ce2ce829",
        "size_in_bytes": 15049
      },
      {
        "_path": "lib/python3.10/site-packages/multidict/py.typed",
        "path_type": "hardlink",
        "sha256": "7bd6e66c7dd4171b1a6d0ae73453c6f6ac485f3b706dc33a20a0d89ef670a6b6",
        "sha256_in_prefix": "7bd6e66c7dd4171b1a6d0ae73453c6f6ac485f3b706dc33a20a0d89ef670a6b6",
        "size_in_bytes": 15
      }
    ],
    "paths_version": 1
  },
  "requested_spec": "None",
  "sha256": "27d1eed1ba91e6e7ea6221ef7abe020924ac4d7c55d98f40c7841aa492744696",
  "size": 45913,
  "subdir": "osx-64",
  "timestamp": 1672339676290,
  "track_features": "",
  "url": "https://conda.anaconda.org/conda-forge/osx-64/multidict-6.0.4-py310h90acd4f_0.conda",
  "version": "6.0.4"
}