{
  "build": "pyhd8ed1ab_0",
  "build_number": 0,
  "channel": "https://conda.anaconda.org/conda-forge/noarch",
  "constrains": [],
  "depends": [
    "python >=3.5"
  ],
  "extracted_package_dir": "/Users/grokkingstuff/miniforge3/pkgs/nest-asyncio-1.5.6-pyhd8ed1ab_0",
  "features": "",
  "files": [
    "lib/python3.10/site-packages/nest_asyncio-1.5.6.dist-info/INSTALLER",
    "lib/python3.10/site-packages/nest_asyncio-1.5.6.dist-info/LICENSE",
    "lib/python3.10/site-packages/nest_asyncio-1.5.6.dist-info/METADATA",
    "lib/python3.10/site-packages/nest_asyncio-1.5.6.dist-info/RECORD",
    "lib/python3.10/site-packages/nest_asyncio-1.5.6.dist-info/REQUESTED",
    "lib/python3.10/site-packages/nest_asyncio-1.5.6.dist-info/WHEEL",
    "lib/python3.10/site-packages/nest_asyncio-1.5.6.dist-info/direct_url.json",
    "lib/python3.10/site-packages/nest_asyncio-1.5.6.dist-info/top_level.txt",
    "lib/python3.10/site-packages/nest_asyncio.py",
    "lib/python3.10/site-packages/__pycache__/nest_asyncio.cpython-310.pyc"
  ],
  "fn": "nest-asyncio-1.5.6-pyhd8ed1ab_0.tar.bz2",
  "license": "BSD-2-Clause",
  "license_family": "BSD",
  "link": {
    "source": "/Users/grokkingstuff/miniforge3/pkgs/nest-asyncio-1.5.6-pyhd8ed1ab_0",
    "type": 1
  },
  "md5": "7b868f21adde0d9b8b38f9c16836589b",
  "name": "nest-asyncio",
  "noarch": "python",
  "package_tarball_full_path": "/Users/grokkingstuff/miniforge3/pkgs/nest-asyncio-1.5.6-pyhd8ed1ab_0.tar.bz2",
  "package_type": "noarch_python",
  "paths_data": {
    "paths": [
      {
        "_path": "site-packages/nest_asyncio-1.5.6.dist-info/INSTALLER",
        "path_type": "hardlink",
        "sha256": "d0edee15f91b406f3f99726e44eb990be6e34fd0345b52b910c568e0eef6a2a8",
        "sha256_in_prefix": "d0edee15f91b406f3f99726e44eb990be6e34fd0345b52b910c568e0eef6a2a8",
        "size_in_bytes": 5
      },
      {
        "_path": "site-packages/nest_asyncio-1.5.6.dist-info/LICENSE",
        "path_type": "hardlink",
        "sha256": "bece9f68655ff23b77413246c0650386b87da7c3682303dd0ee8e3ea7630e85b",
        "sha256_in_prefix": "bece9f68655ff23b77413246c0650386b87da7c3682303dd0ee8e3ea7630e85b",
        "size_in_bytes": 1322
      },
      {
        "_path": "site-packages/nest_asyncio-1.5.6.dist-info/METADATA",
        "path_type": "hardlink",
        "sha256": "4aa9b98bdbf62cec809e311cbf2e8e3f1e6b36b7abbbcf588e457862bcd618e2",
        "sha256_in_prefix": "4aa9b98bdbf62cec809e311cbf2e8e3f1e6b36b7abbbcf588e457862bcd618e2",
        "size_in_bytes": 2730
      },
      {
        "_path": "site-packages/nest_asyncio-1.5.6.dist-info/RECORD",
        "path_type": "hardlink",
        "sha256": "387dee77feb27862cc6f54c8fda1f20c1ff282cb9a9c299b34ab6ba62bdf71d9",
        "sha256_in_prefix": "387dee77feb27862cc6f54c8fda1f20c1ff282cb9a9c299b34ab6ba62bdf71d9",
        "size_in_bytes": 820
      },
      {
        "_path": "site-packages/nest_asyncio-1.5.6.dist-info/REQUESTED",
        "path_type": "hardlink",
        "sha256": "e3b0c44298fc1c149afbf4c8996fb92427ae41e4649b934ca495991b7852b855",
        "sha256_in_prefix": "e3b0c44298fc1c149afbf4c8996fb92427ae41e4649b934ca495991b7852b855",
        "size_in_bytes": 0
      },
      {
        "_path": "site-packages/nest_asyncio-1.5.6.dist-info/WHEEL",
        "path_type": "hardlink",
        "sha256": "1b5e87e00dc87a84269cead8578b9e6462928e18a95f1f3373c9eef451a5bcc0",
        "sha256_in_prefix": "1b5e87e00dc87a84269cead8578b9e6462928e18a95f1f3373c9eef451a5bcc0",
        "size_in_bytes": 92
      },
      {
        "_path": "site-packages/nest_asyncio-1.5.6.dist-info/direct_url.json",
        "path_type": "hardlink",
        "sha256": "834d6ed00231c00c8cc87b89c42b05e7e9c88b9c0c6dbd1f32380f21d1a077d9",
        "sha256_in_prefix": "834d6ed00231c00c8cc87b89c42b05e7e9c88b9c0c6dbd1f32380f21d1a077d9",
        "size_in_bytes": 108
      },
      {
        "_path": "site-packages/nest_asyncio-1.5.6.dist-info/top_level.txt",
        "path_type": "hardlink",
        "sha256": "71014133f7cf6c37615558a15b04bedbd5a25b5ecb677af89525f2bf0173373b",
        "sha256_in_prefix": "71014133f7cf6c37615558a15b04bedbd5a25b5ecb677af89525f2bf0173373b",
        "size_in_bytes": 13
      },
      {
        "_path": "site-packages/nest_asyncio.py",
        "path_type": "hardlink",
        "sha256": "f31ba13b62b41efb3b4e0b558197e83f3d83ec8067396b6daf8540f092386ec2",
        "sha256_in_prefix": "f31ba13b62b41efb3b4e0b558197e83f3d83ec8067396b6daf8540f092386ec2",
        "size_in_bytes": 7779
      },
      {
        "_path": "lib/python3.10/site-packages/__pycache__/nest_asyncio.cpython-310.pyc",
        "path_type": "pyc_file"
      }
    ],
    "paths_version": 1
  },
  "requested_spec": "None",
  "sha256": "594d240d8be933b6e47b78b786269cc89ffa34874544d9dbed1c6afc9213869b",
  "size": 9739,
  "subdir": "noarch",
  "timestamp": 1664685092387,
  "track_features": "",
  "url": "https://conda.anaconda.org/conda-forge/noarch/nest-asyncio-1.5.6-pyhd8ed1ab_0.tar.bz2",
  "version": "1.5.6"
}