{
  "build": "pyhd8ed1ab_0",
  "build_number": 0,
  "channel": "https://conda.anaconda.org/conda-forge/noarch",
  "constrains": [],
  "depends": [
    "python >=3.3"
  ],
  "extracted_package_dir": "/Users/grokkingstuff/miniforge3/pkgs/python-fastjsonschema-2.16.2-pyhd8ed1ab_0",
  "features": "",
  "files": [
    "lib/python3.10/site-packages/fastjsonschema-2.16.2.dist-info/INSTALLER",
    "lib/python3.10/site-packages/fastjsonschema-2.16.2.dist-info/LICENSE",
    "lib/python3.10/site-packages/fastjsonschema-2.16.2.dist-info/METADATA",
    "lib/python3.10/site-packages/fastjsonschema-2.16.2.dist-info/RECORD",
    "lib/python3.10/site-packages/fastjsonschema-2.16.2.dist-info/REQUESTED",
    "lib/python3.10/site-packages/fastjsonschema-2.16.2.dist-info/WHEEL",
    "lib/python3.10/site-packages/fastjsonschema-2.16.2.dist-info/direct_url.json",
    "lib/python3.10/site-packages/fastjsonschema-2.16.2.dist-info/top_level.txt",
    "lib/python3.10/site-packages/fastjsonschema/__init__.py",
    "lib/python3.10/site-packages/fastjsonschema/__main__.py",
    "lib/python3.10/site-packages/fastjsonschema/draft04.py",
    "lib/python3.10/site-packages/fastjsonschema/draft06.py",
    "lib/python3.10/site-packages/fastjsonschema/draft07.py",
    "lib/python3.10/site-packages/fastjsonschema/exceptions.py",
    "lib/python3.10/site-packages/fastjsonschema/generator.py",
    "lib/python3.10/site-packages/fastjsonschema/indent.py",
    "lib/python3.10/site-packages/fastjsonschema/ref_resolver.py",
    "lib/python3.10/site-packages/fastjsonschema/version.py",
    "lib/python3.10/site-packages/fastjsonschema/__pycache__/__init__.cpython-310.pyc",
    "lib/python3.10/site-packages/fastjsonschema/__pycache__/__main__.cpython-310.pyc",
    "lib/python3.10/site-packages/fastjsonschema/__pycache__/draft04.cpython-310.pyc",
    "lib/python3.10/site-packages/fastjsonschema/__pycache__/draft06.cpython-310.pyc",
    "lib/python3.10/site-packages/fastjsonschema/__pycache__/draft07.cpython-310.pyc",
    "lib/python3.10/site-packages/fastjsonschema/__pycache__/exceptions.cpython-310.pyc",
    "lib/python3.10/site-packages/fastjsonschema/__pycache__/generator.cpython-310.pyc",
    "lib/python3.10/site-packages/fastjsonschema/__pycache__/indent.cpython-310.pyc",
    "lib/python3.10/site-packages/fastjsonschema/__pycache__/ref_resolver.cpython-310.pyc",
    "lib/python3.10/site-packages/fastjsonschema/__pycache__/version.cpython-310.pyc"
  ],
  "fn": "python-fastjsonschema-2.16.2-pyhd8ed1ab_0.tar.bz2",
  "license": "BSD-3-Clause",
  "license_family": "BSD",
  "link": {
    "source": "/Users/grokkingstuff/miniforge3/pkgs/python-fastjsonschema-2.16.2-pyhd8ed1ab_0",
    "type": 1
  },
  "md5": "5fe4b6002f505336734ce92961b3e6a0",
  "name": "python-fastjsonschema",
  "noarch": "python",
  "package_tarball_full_path": "/Users/grokkingstuff/miniforge3/pkgs/python-fastjsonschema-2.16.2-pyhd8ed1ab_0.tar.bz2",
  "package_type": "noarch_python",
  "paths_data": {
    "paths": [
      {
        "_path": "site-packages/fastjsonschema-2.16.2.dist-info/INSTALLER",
        "path_type": "hardlink",
        "sha256": "d0edee15f91b406f3f99726e44eb990be6e34fd0345b52b910c568e0eef6a2a8",
        "sha256_in_prefix": "d0edee15f91b406f3f99726e44eb990be6e34fd0345b52b910c568e0eef6a2a8",
        "size_in_bytes": 5
      },
      {
        "_path": "site-packages/fastjsonschema-2.16.2.dist-info/LICENSE",
        "path_type": "hardlink",
        "sha256": "9ccddf69eb3998a60148debe85b94c5afed53691b6474692e78abcc0a0e544f1",
        "sha256_in_prefix": "9ccddf69eb3998a60148debe85b94c5afed53691b6474692e78abcc0a0e544f1",
        "size_in_bytes": 1518
      },
      {
        "_path": "site-packages/fastjsonschema-2.16.2.dist-info/METADATA",
        "path_type": "hardlink",
        "sha256": "1a6d703a61efa19141b4cf443b2d393330b8647b8a04d528feb7e51bf278c254",
        "sha256_in_prefix": "1a6d703a61efa19141b4cf443b2d393330b8647b8a04d528feb7e51bf278c254",
        "size_in_bytes": 1884
      },
      {
        "_path": "site-packages/fastjsonschema-2.16.2.dist-info/RECORD",
        "path_type": "hardlink",
        "sha256": "27e4a7a72e24eeb50dc54368c48f1cc5b3bce1074c40d79854b8660200149d39",
        "sha256_in_prefix": "27e4a7a72e24eeb50dc54368c48f1cc5b3bce1074c40d79854b8660200149d39",
        "size_in_bytes": 2117
      },
      {
        "_path": "site-packages/fastjsonschema-2.16.2.dist-info/REQUESTED",
        "path_type": "hardlink",
        "sha256": "e3b0c44298fc1c149afbf4c8996fb92427ae41e4649b934ca495991b7852b855",
        "sha256_in_prefix": "e3b0c44298fc1c149afbf4c8996fb92427ae41e4649b934ca495991b7852b855",
        "size_in_bytes": 0
      },
      {
        "_path": "site-packages/fastjsonschema-2.16.2.dist-info/WHEEL",
        "path_type": "hardlink",
        "sha256": "1b5e87e00dc87a84269cead8578b9e6462928e18a95f1f3373c9eef451a5bcc0",
        "sha256_in_prefix": "1b5e87e00dc87a84269cead8578b9e6462928e18a95f1f3373c9eef451a5bcc0",
        "size_in_bytes": 92
      },
      {
        "_path": "site-packages/fastjsonschema-2.16.2.dist-info/direct_url.json",
        "path_type": "hardlink",
        "sha256": "f786797cbdf71152d788e64d2ba88b330beaa4e3053efa057af5dd25f265dfbb",
        "sha256_in_prefix": "f786797cbdf71152d788e64d2ba88b330beaa4e3053efa057af5dd25f265dfbb",
        "size_in_bytes": 122
      },
      {
        "_path": "site-packages/fastjsonschema-2.16.2.dist-info/top_level.txt",
        "path_type": "hardlink",
        "sha256": "f1141c3c31575c764a76e4e3833ba0a4f356df3223c454f46b14e1e14b13ea01",
        "sha256_in_prefix": "f1141c3c31575c764a76e4e3833ba0a4f356df3223c454f46b14e1e14b13ea01",
        "size_in_bytes": 15
      },
      {
        "_path": "site-packages/fastjsonschema/__init__.py",
        "path_type": "hardlink",
        "sha256": "82680826d6c9bf858382e8586bba1f64d327f0edb07e8c04f5da2fd09a34041a",
        "sha256_in_prefix": "82680826d6c9bf858382e8586bba1f64d327f0edb07e8c04f5da2fd09a34041a",
        "size_in_bytes": 8769
      },
      {
        "_path": "site-packages/fastjsonschema/__main__.py",
        "path_type": "hardlink",
        "sha256": "e217dddb7a6bcf199073c5632f47d4b1bb2bbef03bde02761c334f80b2c57402",
        "sha256_in_prefix": "e217dddb7a6bcf199073c5632f47d4b1bb2bbef03bde02761c334f80b2c57402",
        "size_in_bytes": 312
      },
      {
        "_path": "site-packages/fastjsonschema/draft04.py",
        "path_type": "hardlink",
        "sha256": "ae37025c488063809aff97fb862e7a2a7252916dc865383562849fed2dd348d1",
        "sha256_in_prefix": "ae37025c488063809aff97fb862e7a2a7252916dc865383562849fed2dd348d1",
        "size_in_bytes": 29565
      },
      {
        "_path": "site-packages/fastjsonschema/draft06.py",
        "path_type": "hardlink",
        "sha256": "e4f68cf782a38eaa92d8c70380eb207f89178789817f4aa1a39cefa39af340de",
        "sha256_in_prefix": "e4f68cf782a38eaa92d8c70380eb207f89178789817f4aa1a39cefa39af340de",
        "size_in_bytes": 7661
      },
      {
        "_path": "site-packages/fastjsonschema/draft07.py",
        "path_type": "hardlink",
        "sha256": "b90a7b67af09a363947bb602b2f73a12e19758af735a827cef9b50ae23d697d4",
        "sha256_in_prefix": "b90a7b67af09a363947bb602b2f73a12e19758af735a827cef9b50ae23d697d4",
        "size_in_bytes": 4222
      },
      {
        "_path": "site-packages/fastjsonschema/exceptions.py",
        "path_type": "hardlink",
        "sha256": "c3be3d260a8a8bc72504570e6dd71b655aac985e2827f401ca16754866d414dc",
        "sha256_in_prefix": "c3be3d260a8a8bc72504570e6dd71b655aac985e2827f401ca16754866d414dc",
        "size_in_bytes": 1612
      },
      {
        "_path": "site-packages/fastjsonschema/generator.py",
        "path_type": "hardlink",
        "sha256": "fa6d5fe84010cd8a4cff46d6f137fff1c68d240b047fe0dbb4c92db0eec46c93",
        "sha256_in_prefix": "fa6d5fe84010cd8a4cff46d6f137fff1c68d240b047fe0dbb4c92db0eec46c93",
        "size_in_bytes": 12576
      },
      {
        "_path": "site-packages/fastjsonschema/indent.py",
        "path_type": "hardlink",
        "sha256": "8ee6455bd2d2be60c96cf148526dc63ea74fa89a149eabccf27787379ae4bf35",
        "sha256_in_prefix": "8ee6455bd2d2be60c96cf148526dc63ea74fa89a149eabccf27787379ae4bf35",
        "size_in_bytes": 920
      },
      {
        "_path": "site-packages/fastjsonschema/ref_resolver.py",
        "path_type": "hardlink",
        "sha256": "5eb3a97855ff3df66fd50874d222065c5912bfffbbd8c50fbc9671ca342f1b0a",
        "sha256_in_prefix": "5eb3a97855ff3df66fd50874d222065c5912bfffbbd8c50fbc9671ca342f1b0a",
        "size_in_bytes": 5527
      },
      {
        "_path": "site-packages/fastjsonschema/version.py",
        "path_type": "hardlink",
        "sha256": "4f3fba23b0f93bfcd988f77baacbdd0339a6ab77848508d40f289a83132eed96",
        "sha256_in_prefix": "4f3fba23b0f93bfcd988f77baacbdd0339a6ab77848508d40f289a83132eed96",
        "size_in_bytes": 19
      },
      {
        "_path": "lib/python3.10/site-packages/fastjsonschema/__pycache__/__init__.cpython-310.pyc",
        "path_type": "pyc_file"
      },
      {
        "_path": "lib/python3.10/site-packages/fastjsonschema/__pycache__/__main__.cpython-310.pyc",
        "path_type": "pyc_file"
      },
      {
        "_path": "lib/python3.10/site-packages/fastjsonschema/__pycache__/draft04.cpython-310.pyc",
        "path_type": "pyc_file"
      },
      {
        "_path": "lib/python3.10/site-packages/fastjsonschema/__pycache__/draft06.cpython-310.pyc",
        "path_type": "pyc_file"
      },
      {
        "_path": "lib/python3.10/site-packages/fastjsonschema/__pycache__/draft07.cpython-310.pyc",
        "path_type": "pyc_file"
      },
      {
        "_path": "lib/python3.10/site-packages/fastjsonschema/__pycache__/exceptions.cpython-310.pyc",
        "path_type": "pyc_file"
      },
      {
        "_path": "lib/python3.10/site-packages/fastjsonschema/__pycache__/generator.cpython-310.pyc",
        "path_type": "pyc_file"
      },
      {
        "_path": "lib/python3.10/site-packages/fastjsonschema/__pycache__/indent.cpython-310.pyc",
        "path_type": "pyc_file"
      },
      {
        "_path": "lib/python3.10/site-packages/fastjsonschema/__pycache__/ref_resolver.cpython-310.pyc",
        "path_type": "pyc_file"
      },
      {
        "_path": "lib/python3.10/site-packages/fastjsonschema/__pycache__/version.cpython-310.pyc",
        "path_type": "pyc_file"
      }
    ],
    "paths_version": 1
  },
  "requested_spec": "None",
  "sha256": "f57c3029451da285fc16fd01f1783e00f3b8583b13030736277bd312c9f0adf2",
  "size": 247498,
  "subdir": "noarch",
  "timestamp": 1663619649324,
  "track_features": "",
  "url": "https://conda.anaconda.org/conda-forge/noarch/python-fastjsonschema-2.16.2-pyhd8ed1ab_0.tar.bz2",
  "version": "2.16.2"
}