{
  "build": "cpu_py310h22f808f_0",
  "build_number": 0,
  "channel": "https://conda.anaconda.org/conda-forge/osx-64",
  "constrains": [],
  "depends": [
    "python >=3.10,<3.11.0a0",
    "python_abi 3.10.* *_cp310",
    "tensorflow-base 2.11.0 cpu_py310h760b059_0",
    "tensorflow-estimator 2.11.0 cpu_py310h5e669bb_0"
  ],
  "extracted_package_dir": "/Users/grokkingstuff/miniforge3/pkgs/tensorflow-2.11.0-cpu_py310h22f808f_0",
  "features": "",
  "files": [],
  "fn": "tensorflow-2.11.0-cpu_py310h22f808f_0.tar.bz2",
  "license": "Apache-2.0",
  "license_family": "Apache",
  "link": {
    "source": "/Users/grokkingstuff/miniforge3/pkgs/tensorflow-2.11.0-cpu_py310h22f808f_0",
    "type": 1
  },
  "md5": "8d084f27366af75c62be33478bec8b77",
  "name": "tensorflow",
  "package_tarball_full_path": "/Users/grokkingstuff/miniforge3/pkgs/tensorflow-2.11.0-cpu_py310h22f808f_0.tar.bz2",
  "paths_data": {
    "paths": [],
    "paths_version": 1
  },
  "requested_spec": "tensorflow",
  "sha256": "9d5b0be1668aa31b2ba7459493f12bad39faec9ebab678e78a3e1f4e17b8f575",
  "size": 26893,
  "subdir": "osx-64",
  "timestamp": 1672321079698,
  "track_features": "tensorflow-cpu",
  "url": "https://conda.anaconda.org/conda-forge/osx-64/tensorflow-2.11.0-cpu_py310h22f808f_0.tar.bz2",
  "version": "2.11.0"
}