{
  "build": "pyhd8ed1ab_0",
  "build_number": 0,
  "channel": "https://conda.anaconda.org/conda-forge/noarch",
  "constrains": [],
  "depends": [
    "python >=3.7"
  ],
  "extracted_package_dir": "/Users/grokkingstuff/miniforge3/pkgs/termcolor-2.2.0-pyhd8ed1ab_0",
  "features": "",
  "files": [
    "lib/python3.10/site-packages/termcolor-2.2.0.dist-info/INSTALLER",
    "lib/python3.10/site-packages/termcolor-2.2.0.dist-info/METADATA",
    "lib/python3.10/site-packages/termcolor-2.2.0.dist-info/RECORD",
    "lib/python3.10/site-packages/termcolor-2.2.0.dist-info/REQUESTED",
    "lib/python3.10/site-packages/termcolor-2.2.0.dist-info/WHEEL",
    "lib/python3.10/site-packages/termcolor-2.2.0.dist-info/direct_url.json",
    "lib/python3.10/site-packages/termcolor-2.2.0.dist-info/licenses/COPYING.txt",
    "lib/python3.10/site-packages/termcolor/__init__.py",
    "lib/python3.10/site-packages/termcolor/__main__.py",
    "lib/python3.10/site-packages/termcolor/py.typed",
    "lib/python3.10/site-packages/termcolor/termcolor.py",
    "lib/python3.10/site-packages/termcolor/__pycache__/__init__.cpython-310.pyc",
    "lib/python3.10/site-packages/termcolor/__pycache__/__main__.cpython-310.pyc",
    "lib/python3.10/site-packages/termcolor/__pycache__/termcolor.cpython-310.pyc"
  ],
  "fn": "termcolor-2.2.0-pyhd8ed1ab_0.conda",
  "license": "MIT",
  "license_family": "MIT",
  "link": {
    "source": "/Users/grokkingstuff/miniforge3/pkgs/termcolor-2.2.0-pyhd8ed1ab_0",
    "type": 1
  },
  "md5": "778f524c3d149577a6e873264d85ec68",
  "name": "termcolor",
  "noarch": "python",
  "package_tarball_full_path": "/Users/grokkingstuff/miniforge3/pkgs/termcolor-2.2.0-pyhd8ed1ab_0.conda",
  "package_type": "noarch_python",
  "paths_data": {
    "paths": [
      {
        "_path": "site-packages/termcolor-2.2.0.dist-info/INSTALLER",
        "path_type": "hardlink",
        "sha256": "d0edee15f91b406f3f99726e44eb990be6e34fd0345b52b910c568e0eef6a2a8",
        "sha256_in_prefix": "d0edee15f91b406f3f99726e44eb990be6e34fd0345b52b910c568e0eef6a2a8",
        "size_in_bytes": 5
      },
      {
        "_path": "site-packages/termcolor-2.2.0.dist-info/METADATA",
        "path_type": "hardlink",
        "sha256": "98413c9714cacf61eb227626b0b737cc91536720f64e97844695ae85187f80c0",
        "sha256_in_prefix": "98413c9714cacf61eb227626b0b737cc91536720f64e97844695ae85187f80c0",
        "size_in_bytes": 5267
      },
      {
        "_path": "site-packages/termcolor-2.2.0.dist-info/RECORD",
        "path_type": "hardlink",
        "sha256": "1e6d15b81bc73c43da619d1538951f853dd4b9a50bb71f12170e728688b6c20e",
        "sha256_in_prefix": "1e6d15b81bc73c43da619d1538951f853dd4b9a50bb71f12170e728688b6c20e",
        "size_in_bytes": 1058
      },
      {
        "_path": "site-packages/termcolor-2.2.0.dist-info/REQUESTED",
        "path_type": "hardlink",
        "sha256": "e3b0c44298fc1c149afbf4c8996fb92427ae41e4649b934ca495991b7852b855",
        "sha256_in_prefix": "e3b0c44298fc1c149afbf4c8996fb92427ae41e4649b934ca495991b7852b855",
        "size_in_bytes": 0
      },
      {
        "_path": "site-packages/termcolor-2.2.0.dist-info/WHEEL",
        "path_type": "hardlink",
        "sha256": "ba8c0ad4853632bf3863e65eaf402434f5a917a36a25432b5138a0ac19c8d0df",
        "sha256_in_prefix": "ba8c0ad4853632bf3863e65eaf402434f5a917a36a25432b5138a0ac19c8d0df",
        "size_in_bytes": 87
      },
      {
        "_path": "site-packages/termcolor-2.2.0.dist-info/direct_url.json",
        "path_type": "hardlink",
        "sha256": "98d59111859f7d116fcc682ed1491ef0a1ece97a404740133dc75dc6df15ef14",
        "sha256_in_prefix": "98d59111859f7d116fcc682ed1491ef0a1ece97a404740133dc75dc6df15ef14",
        "size_in_bytes": 105
      },
      {
        "_path": "site-packages/termcolor-2.2.0.dist-info/licenses/COPYING.txt",
        "path_type": "hardlink",
        "sha256": "e79b6bd82962c1330caaa7c42278567b08667777673f8e2371a624d5715d4c0e",
        "sha256_in_prefix": "e79b6bd82962c1330caaa7c42278567b08667777673f8e2371a624d5715d4c0e",
        "size_in_bytes": 1072
      },
      {
        "_path": "site-packages/termcolor/__init__.py",
        "path_type": "hardlink",
        "sha256": "0469c24bbbb47926f3660fffa8922b552729218265f088a3684203ec9a5cb7b3",
        "sha256_in_prefix": "0469c24bbbb47926f3660fffa8922b552729218265f088a3684203ec9a5cb7b3",
        "size_in_bytes": 282
      },
      {
        "_path": "site-packages/termcolor/__main__.py",
        "path_type": "hardlink",
        "sha256": "8fddcd3762ce094e323dc973f3993ece6ef282f9cbc4dbb4dac7b8691dbe26a6",
        "sha256_in_prefix": "8fddcd3762ce094e323dc973f3993ece6ef282f9cbc4dbb4dac7b8691dbe26a6",
        "size_in_bytes": 2657
      },
      {
        "_path": "site-packages/termcolor/py.typed",
        "path_type": "hardlink",
        "sha256": "e3b0c44298fc1c149afbf4c8996fb92427ae41e4649b934ca495991b7852b855",
        "sha256_in_prefix": "e3b0c44298fc1c149afbf4c8996fb92427ae41e4649b934ca495991b7852b855",
        "size_in_bytes": 0
      },
      {
        "_path": "site-packages/termcolor/termcolor.py",
        "path_type": "hardlink",
        "sha256": "70fa9e43c1b2efe8a086d11ffea70d6afa55e2ae6bd4c20028ddb4afacd5a9ef",
        "sha256_in_prefix": "70fa9e43c1b2efe8a086d11ffea70d6afa55e2ae6bd4c20028ddb4afacd5a9ef",
        "size_in_bytes": 4627
      },
      {
        "_path": "lib/python3.10/site-packages/termcolor/__pycache__/__init__.cpython-310.pyc",
        "path_type": "pyc_file"
      },
      {
        "_path": "lib/python3.10/site-packages/termcolor/__pycache__/__main__.cpython-310.pyc",
        "path_type": "pyc_file"
      },
      {
        "_path": "lib/python3.10/site-packages/termcolor/__pycache__/termcolor.cpython-310.pyc",
        "path_type": "pyc_file"
      }
    ],
    "paths_version": 1
  },
  "requested_spec": "None",
  "sha256": "ed6d8a0ce99237f29bcea75ff3a28377260e47220bc06a73c2534d57024328fa",
  "size": 11277,
  "subdir": "noarch",
  "timestamp": 1672833931447,
  "track_features": "",
  "url": "https://conda.anaconda.org/conda-forge/noarch/termcolor-2.2.0-pyhd8ed1ab_0.conda",
  "version": "2.2.0"
}