{
  "build": "pyh8a188c0_0",
  "build_number": 0,
  "channel": "https://conda.anaconda.org/conda-forge/noarch",
  "constrains": [],
  "depends": [
    "python >=3.6"
  ],
  "extracted_package_dir": "/Users/grokkingstuff/miniforge3/pkgs/threadpoolctl-3.1.0-pyh8a188c0_0",
  "features": "",
  "files": [
    "lib/python3.10/site-packages/threadpoolctl-3.1.0.dist-info/INSTALLER",
    "lib/python3.10/site-packages/threadpoolctl-3.1.0.dist-info/LICENSE",
    "lib/python3.10/site-packages/threadpoolctl-3.1.0.dist-info/METADATA",
    "lib/python3.10/site-packages/threadpoolctl-3.1.0.dist-info/RECORD",
    "lib/python3.10/site-packages/threadpoolctl-3.1.0.dist-info/REQUESTED",
    "lib/python3.10/site-packages/threadpoolctl-3.1.0.dist-info/WHEEL",
    "lib/python3.10/site-packages/threadpoolctl-3.1.0.dist-info/direct_url.json",
    "lib/python3.10/site-packages/threadpoolctl.py",
    "lib/python3.10/site-packages/__pycache__/threadpoolctl.cpython-310.pyc"
  ],
  "fn": "threadpoolctl-3.1.0-pyh8a188c0_0.tar.bz2",
  "license": "BSD-3-Clause",
  "license_family": "BSD",
  "link": {
    "source": "/Users/grokkingstuff/miniforge3/pkgs/threadpoolctl-3.1.0-pyh8a188c0_0",
    "type": 1
  },
  "md5": "a2995ee828f65687ac5b1e71a2ab1e0c",
  "name": "threadpoolctl",
  "noarch": "python",
  "package_tarball_full_path": "/Users/grokkingstuff/miniforge3/pkgs/threadpoolctl-3.1.0-pyh8a188c0_0.tar.bz2",
  "package_type": "noarch_python",
  "paths_data": {
    "paths": [
      {
        "_path": "site-packages/threadpoolctl-3.1.0.dist-info/INSTALLER",
        "path_type": "hardlink",
        "sha256": "d0edee15f91b406f3f99726e44eb990be6e34fd0345b52b910c568e0eef6a2a8",
        "sha256_in_prefix": "d0edee15f91b406f3f99726e44eb990be6e34fd0345b52b910c568e0eef6a2a8",
        "size_in_bytes": 5
      },
      {
        "_path": "site-packages/threadpoolctl-3.1.0.dist-info/LICENSE",
        "path_type": "hardlink",
        "sha256": "81ac619075248b06e53660b652d10e485f4675f5d0ae0f97ea22370da1f7e23b",
        "sha256_in_prefix": "81ac619075248b06e53660b652d10e485f4675f5d0ae0f97ea22370da1f7e23b",
        "size_in_bytes": 1507
      },
      {
        "_path": "site-packages/threadpoolctl-3.1.0.dist-info/METADATA",
        "path_type": "hardlink",
        "sha256": "d2e141812987afeecbeb7fccd04d1e8a52e3a0b503560c2d3a99fc80e6de03aa",
        "sha256_in_prefix": "d2e141812987afeecbeb7fccd04d1e8a52e3a0b503560c2d3a99fc80e6de03aa",
        "size_in_bytes": 9204
      },
      {
        "_path": "site-packages/threadpoolctl-3.1.0.dist-info/RECORD",
        "path_type": "hardlink",
        "sha256": "b00cb581185b40269a0fa59f27245b273424bdc1c2c58890d2eb5b5cbc0a13c4",
        "sha256_in_prefix": "b00cb581185b40269a0fa59f27245b273424bdc1c2c58890d2eb5b5cbc0a13c4",
        "size_in_bytes": 732
      },
      {
        "_path": "site-packages/threadpoolctl-3.1.0.dist-info/REQUESTED",
        "path_type": "hardlink",
        "sha256": "e3b0c44298fc1c149afbf4c8996fb92427ae41e4649b934ca495991b7852b855",
        "sha256_in_prefix": "e3b0c44298fc1c149afbf4c8996fb92427ae41e4649b934ca495991b7852b855",
        "size_in_bytes": 0
      },
      {
        "_path": "site-packages/threadpoolctl-3.1.0.dist-info/WHEEL",
        "path_type": "hardlink",
        "sha256": "8cf311fc3ce47385f889c42d9b3f35967358fe402c7e883baf2eeaa11bd82d7c",
        "sha256_in_prefix": "8cf311fc3ce47385f889c42d9b3f35967358fe402c7e883baf2eeaa11bd82d7c",
        "size_in_bytes": 81
      },
      {
        "_path": "site-packages/threadpoolctl-3.1.0.dist-info/direct_url.json",
        "path_type": "hardlink",
        "sha256": "fd57cfa9e85989bba735b31adcf20e74f6a23dc48d162548ea3b54ad2f224ba8",
        "sha256_in_prefix": "fd57cfa9e85989bba735b31adcf20e74f6a23dc48d162548ea3b54ad2f224ba8",
        "size_in_bytes": 109
      },
      {
        "_path": "site-packages/threadpoolctl.py",
        "path_type": "hardlink",
        "sha256": "f676a1d8218c9174be8d1041494f178cb952bd60037a874092d9d86fac383c7d",
        "sha256_in_prefix": "f676a1d8218c9174be8d1041494f178cb952bd60037a874092d9d86fac383c7d",
        "size_in_bytes": 41112
      },
      {
        "_path": "lib/python3.10/site-packages/__pycache__/threadpoolctl.cpython-310.pyc",
        "path_type": "pyc_file"
      }
    ],
    "paths_version": 1
  },
  "requested_spec": "None",
  "sha256": "c7a964811ba49c545236f7d6c2486b2ed493931660048a06fe94ecc851dd0b82",
  "size": 18259,
  "subdir": "noarch",
  "timestamp": 1643648016216,
  "track_features": "",
  "url": "https://conda.anaconda.org/conda-forge/noarch/threadpoolctl-3.1.0-pyh8a188c0_0.tar.bz2",
  "version": "3.1.0"
}