{
  "build": "hfd90126_4",
  "build_number": 4,
  "channel": "https://conda.anaconda.org/conda-forge/osx-64",
  "constrains": [],
  "depends": [
    "libzlib 1.2.13 hfd90126_4"
  ],
  "extracted_package_dir": "/Users/grokkingstuff/miniforge3/pkgs/zlib-1.2.13-hfd90126_4",
  "features": "",
  "files": [
    "include/zconf.h",
    "include/zlib.h",
    "lib/libz.a",
    "lib/libz.dylib",
    "lib/pkgconfig/zlib.pc"
  ],
  "fn": "zlib-1.2.13-hfd90126_4.tar.bz2",
  "license": "Zlib",
  "license_family": "Other",
  "link": {
    "source": "/Users/grokkingstuff/miniforge3/pkgs/zlib-1.2.13-hfd90126_4",
    "type": 1
  },
  "md5": "be90e6223c74ea253080abae19b3bdb1",
  "name": "zlib",
  "package_tarball_full_path": "/Users/grokkingstuff/miniforge3/pkgs/zlib-1.2.13-hfd90126_4.tar.bz2",
  "paths_data": {
    "paths": [
      {
        "_path": "include/zconf.h",
        "path_type": "hardlink",
        "sha256": "f333e19c8c4d93a85ee5be1b517c6b875af3e417d50c9e1d10b47f6406028d6c",
        "sha256_in_prefix": "f333e19c8c4d93a85ee5be1b517c6b875af3e417d50c9e1d10b47f6406028d6c",
        "size_in_bytes": 16589
      },
      {
        "_path": "include/zlib.h",
        "path_type": "hardlink",
        "sha256": "a980a0d104198a53cc220c51ab5856e5be901bec8a2d02e0ee79a8754219dfed",
        "sha256_in_prefix": "a980a0d104198a53cc220c51ab5856e5be901bec8a2d02e0ee79a8754219dfed",
        "size_in_bytes": 97323
      },
      {
        "_path": "lib/libz.a",
        "path_type": "hardlink",
        "sha256": "8a2da08a5f4cd5acac459c811752ea8eb901d14593f42a942e9d62ca0db47f28",
        "sha256_in_prefix": "8a2da08a5f4cd5acac459c811752ea8eb901d14593f42a942e9d62ca0db47f28",
        "size_in_bytes": 124192
      },
      {
        "_path": "lib/libz.dylib",
        "path_type": "softlink",
        "sha256": "cd60253751b38c53ea4efe1d6e56d1185b54eaed40a62f010829fcba915d9107",
        "size_in_bytes": 105400
      },
      {
        "_path": "lib/pkgconfig/zlib.pc",
        "file_mode": "text",
        "path_type": "hardlink",
        "prefix_placeholder": "/Users/runner/miniforge3/conda-bld/zlib-split_1665759511469/_h_env_placehold_placehold_placehold_placehold_placehold_placehold_placehold_placehold_placehold_placehold_placehold_placehold_placehold_placehold_placehold_placehold_placehold_placehold_placehol",
        "sha256": "698c6059d674bcb4145e45a450f365576c3f04eb6f8cd748026edfd931330fd2",
        "sha256_in_prefix": "2f2fc7a0ba1781ef2768f20e5f92f0515a1a3df122b2226ce029b3f81d64ccd9",
        "size_in_bytes": 504
      }
    ],
    "paths_version": 1
  },
  "requested_spec": "None",
  "sha256": "9db69bb5fc3e19093b550e25d1158cdf82f4f8eddc1f80f8d7d9de33eb8535a4",
  "size": 95671,
  "subdir": "osx-64",
  "timestamp": 1665759855085,
  "track_features": "",
  "url": "https://conda.anaconda.org/conda-forge/osx-64/zlib-1.2.13-hfd90126_4.tar.bz2",
  "version": "1.2.13"
}